…
ldat <- gather(wdat, key = time, value = coesao, c1,c2,c3) %>%
  convert_as_factor(id, time)
ldat <- remove_group_data(ldat, "coesao", c("time", "gender"), n.limit = 30)
ldat$gender <- factor(ldat$gender, sort(unique(ldat$gender)))
```

### Check assumptions: Identifying Outliers

``` r
outliers <- identify_outliers(group_by(ldat, time, gender), coesao)
(outliers <- outliers[outliers$is.extreme == T,])
```

    ## # A tibble: 70 × 6
    ##    gender time  id                   coesao is.outlier is.extreme
    ##    <fct>  <fct> <fct>                 <dbl> <lgl>      <lgl>     
    ##  1 Female c1    6ErXFZRYzinfqyPAqEOm    3   TRUE       TRUE      
    ##  2 Female c1    IZ2Xmfi9jueckwdzfkiG    3   TRUE       TRUE      
    ##  3 Female c1    Zd0PsCueY8uUv5kZj7tr    3   TRUE       TRUE      
    ##  4 Male   c1    1uixvrMfKulaomVh0MKa    2.5 TRUE       TRUE      
    ##  5 Male   c1    JRyGpNQA6mOEl1nzl1af    3   TRUE       TRUE      
    ##  6 Male   c1    Kaj54imycuE0bbwH7xlD    3   TRUE       TRUE      
    ##  7 Male   c1    kZlm8iMhlqv4fNmAx0fG    5   TRUE       TRUE      
    ##  8 Male   c1    W8iXxSmW48zvfJyikMZb    4   TRUE       TRUE      
    ##  9 Male   c1    Y7HozU436KQ0wqdBGugu    4   TRUE       TRUE      
    ## 10 Female c2    0mGtUd2Axg2fjQmYZ4CC    3   TRUE       TRUE      
    ## # ℹ 60 more rows
…
ldat <- gather(wdat, key = time, value = coesao, c1,c2,c3) %>%
  convert_as_factor(id, time)
ldat <- remove_group_data(ldat, "coesao", c("time", "localizacao"), n.limit = 30)
ldat$localizacao <- factor(ldat$localizacao, sort(unique(ldat$localizacao)))
```

### Check assumptions: Identifying Outliers

``` r
outliers <- identify_outliers(group_by(ldat, time, localizacao), coesao)
(outliers <- outliers[outliers$is.extreme == T,])
```

    ## # A tibble: 73 × 6
    ##    localizacao time  id                   coesao is.outlier is.extreme
    ##    <fct>       <fct> <fct>                 <dbl> <lgl>      <lgl>     
    ##  1 Rural       c1    Kaj54imycuE0bbwH7xlD    3   TRUE       TRUE      
    ##  2 Urbana      c1    1uixvrMfKulaomVh0MKa    2.5 TRUE       TRUE      
    ##  3 Urbana      c1    6ErXFZRYzinfqyPAqEOm    3   TRUE       TRUE      
    ##  4 Urbana      c1    IZ2Xmfi9jueckwdzfkiG    3   TRUE       TRUE      
    ##  5 Urbana      c1    JRyGpNQA6mOEl1nzl1af    3   TRUE       TRUE      
    ##  6 Urbana      c1    kZlm8iMhlqv4fNmAx0fG    5   TRUE       TRUE      
    ##  7 Urbana      c1    W8iXxSmW48zvfJyikMZb    4   TRUE       TRUE      
    ##  8 Urbana      c1    Y7HozU436KQ0wqdBGugu    4   TRUE       TRUE      
    ##  9 Urbana      c1    Zd0PsCueY8uUv5kZj7tr    3   TRUE       TRUE      
    ## 10 Rural       c2    15L3e6gDZk0Q4DrCQShh    4   TRUE       TRUE      
    ## # ℹ 63 more rows
…
ldat <- gather(wdat, key = time, value = coesao, c1,c2,c3) %>%
  convert_as_factor(id, time)
ldat <- remove_group_data(ldat, "coesao", c("time", "regiao"), n.limit = 30)
ldat$regiao <- factor(ldat$regiao, sort(unique(ldat$regiao)))
```

### Check assumptions: Identifying Outliers

``` r
outliers <- identify_outliers(group_by(ldat, time, regiao), coesao)
(outliers <- outliers[outliers$is.extreme == T,])
```

    ## # A tibble: 73 × 6
    ##    regiao       time  id                   coesao is.outlier is.extreme
    ##    <fct>        <fct> <fct>                 <dbl> <lgl>      <lgl>     
    ##  1 Centro-Oeste c1    6ErXFZRYzinfqyPAqEOm    3   TRUE       TRUE      
    ##  2 Centro-Oeste c1    Zd0PsCueY8uUv5kZj7tr    3   TRUE       TRUE      
    ##  3 Nordeste     c1    1uixvrMfKulaomVh0MKa    2.5 TRUE       TRUE      
    ##  4 Nordeste     c1    IZ2Xmfi9jueckwdzfkiG    3   TRUE       TRUE      
    ##  5 Nordeste     c1    Kaj54imycuE0bbwH7xlD    3   TRUE       TRUE      
    ##  6 Nordeste     c1    kZlm8iMhlqv4fNmAx0fG    5   TRUE       TRUE      
    ##  7 Sudeste      c1    W8iXxSmW48zvfJyikMZb    4   TRUE       TRUE      
    ##  8 Sudeste      c1    Y7HozU436KQ0wqdBGugu    4   TRUE       TRUE      
    ##  9 Sul          c1    JRyGpNQA6mOEl1nzl1af    3   TRUE       TRUE      
    ## 10 Nordeste     c2    15L3e6gDZk0Q4DrCQShh    4   TRUE       TRUE      
    ## # ℹ 63 more rows
…
``` r
if (length(non.ids) > 0)
  (res.aov2 <- anova_test(ldat2, dv = coesao, wid = id, between = regiao , within = time))
```

## PairWise Computation

``` r
(pwc <- ldat %>% group_by(time) %>%
   emmeans_test(coesao ~ regiao, detailed = T, p.adjust.method = "bonferroni"))
```

    ## Warning: Expected 2 pieces. Additional pieces discarded in 12 rows [1, 2, 3, 4, 11, 12, 13, 14, 21, 22, 23, 24].

    ## # A tibble: 30 × 15
    ##    time  term   .y.    group1   group2  null.value  estimate      se    df conf.low conf.high statistic     p p.adj p.adj.signif
    ##  * <fct> <chr>  <chr>  <chr>    <chr>        <dbl>     <dbl>   <dbl> <dbl>    <dbl>     <dbl>     <dbl> <dbl> <dbl> <chr>       
    ##  1 c1    regiao coesao Centro   Oeste            0  0.00559  0.0131   8304  -0.0200    0.0312    0.428  0.669     1 ns          
    ##  2 c1    regiao coesao Centro   Oeste            0  0.00926  0.0176   8304  -0.0252    0.0437    0.527  0.598     1 ns          
    ##  3 c1    regiao coesao Centro   Oeste            0  0.00349  0.0140   8304  -0.0239    0.0309    0.249  0.803     1 ns          
    ##  4 c1    regiao coesao Centro   Oeste            0  0.00312  0.0186   8304  -0.0334    0.0396    0.168  0.867     1 ns          
    ##  5 c1    regiao coesao Nordeste Norte            0  0.00367  0.0134   8304  -0.0227    0.0300    0.273  0.785     1 ns          
    ##  6 c1    regiao coesao Nordeste Sudeste          0 -0.00210  0.00824  8304  -0.0183    0.0140   -0.255  0.799     1 ns          
    ##  7 c1    regiao coesao Nordeste Sul              0 -0.00247  0.0148   8304  -0.0315    0.0265   -0.167  0.868     1 ns          
    ##  8 c1    regiao coesao Norte    Sudeste          0 -0.00577  0.0143   8304  -0.0339    0.0223   -0.402  0.687     1 ns          
    ##  9 c1    regiao coesao Norte    Sul              0 -0.00613  0.0189   8304  -0.0432    0.0309   -0.325  0.745     1 ns          
    ## 10 c1    regiao coesao Sudeste  Sul              0 -0.000363 0.0156   8304  -0.0310    0.0302   -0.0232 0.981     1 ns          
    ## # ℹ 20 more rows
…
ldat <- gather(wdat, key = time, value = coesao, c1,c2,c3) %>%
  convert_as_factor(id, time)
ldat <- remove_group_data(ldat, "coesao", c("time", "porte"), n.limit = 30)
ldat$porte <- factor(ldat$porte, sort(unique(ldat$porte)))
```

### Check assumptions: Identifying Outliers

``` r
outliers <- identify_outliers(group_by(ldat, time, porte), coesao)
(outliers <- outliers[outliers$is.extreme == T,])
```

    ## # A tibble: 73 × 6
    ##    porte                                       time  id                   coesao is.outlier is.extreme
    ##    <fct>                                       <fct> <fct>                 <dbl> <lgl>      <lgl>     
    ##  1 Entre 201 e 500 matrículas de escolarização c1    JRyGpNQA6mOEl1nzl1af    3   TRUE       TRUE      
    ##  2 Entre 201 e 500 matrículas de escolarização c1    Kaj54imycuE0bbwH7xlD    3   TRUE       TRUE      
    ##  3 Entre 201 e 500 matrículas de escolarização c1    W8iXxSmW48zvfJyikMZb    4   TRUE       TRUE      
    ##  4 Entre 201 e 500 matrículas de escolarização c1    Y7HozU436KQ0wqdBGugu    4   TRUE       TRUE      
    ##  5 Entre 51 e 200 matrículas de escolarização  c1    1uixvrMfKulaomVh0MKa    2.5 TRUE       TRUE      
    ##  6 Entre 51 e 200 matrículas de escolarização  c1    6ErXFZRYzinfqyPAqEOm    3   TRUE       TRUE      
    ##  7 Entre 51 e 200 matrículas de escolarização  c1    IZ2Xmfi9jueckwdzfkiG    3   TRUE       TRUE      
    ##  8 Mais de 1000 matrículas de escolarização    c1    kZlm8iMhlqv4fNmAx0fG    5   TRUE       TRUE      
    ##  9 Mais de 1000 matrículas de escolarização    c1    Zd0PsCueY8uUv5kZj7tr    3   TRUE       TRUE      
    ## 10 Até 50 matrículas de escolarização          c2    hv8yuaYbgJIx5H3apsBZ    4   TRUE       TRUE      
    ## # ℹ 63 more rows
…
## ANOVA Computation after removing non.normal data

``` r
if (length(non.ids) > 0)
  (res.aov2 <- anova_test(ldat2, dv = coesao, wid = id, between = porte , within = time))
```

## PairWise Computation

``` r
(pwc <- ldat %>% group_by(time) %>%
   emmeans_test(coesao ~ porte, detailed = T, p.adjust.method = "bonferroni"))
```

    ## # A tibble: 30 × 15
    ##    time  term  .y.    group1    group2 null.value  estimate      se    df conf.low conf.high statistic      p p.adj p.adj.signif
    ##  * <fct> <chr> <chr>  <chr>     <chr>       <dbl>     <dbl>   <dbl> <dbl>    <dbl>     <dbl>     <dbl>  <dbl> <dbl> <chr>       
    ##  1 c1    porte coesao Até 50 m… Entre…          0 -3.92e- 3 0.0202   8304  -0.0435   3.57e-2 -1.94e- 1 0.846  1     ns          
    ##  2 c1    porte coesao Até 50 m… Entre…          0  5.30e-15 0.0210   8304  -0.0411   4.11e-2  2.53e-13 1.00   1     ns          
    ##  3 c1    porte coesao Até 50 m… Entre…          0 -5.29e- 3 0.0213   8304  -0.0471   3.66e-2 -2.48e- 1 0.804  1     ns          
    ##  4 c1    porte coesao Até 50 m… Mais …          0 -5.71e- 2 0.0291   8304  -0.114   -9.10e-5 -1.96e+ 0 0.0496 0.496 ns          
    ##  5 c1    porte coesao Entre 20… Entre…          0  3.92e- 3 0.00855  8304  -0.0128   2.07e-2  4.59e- 1 0.646  1     ns          
    ##  6 c1    porte coesao Entre 20… Entre…          0 -1.36e- 3 0.00944  8304  -0.0199   1.71e-2 -1.44e- 1 0.885  1     ns          
    ##  7 c1    porte coesao Entre 20… Mais …          0 -5.32e- 2 0.0219   8304  -0.0962  -1.02e-2 -2.43e+ 0 0.0152 0.152 ns          
    ##  8 c1    porte coesao Entre 50… Entre…          0 -5.29e- 3 0.0110   8304  -0.0268   1.62e-2 -4.82e- 1 0.630  1     ns          
    ##  9 c1    porte coesao Entre 50… Mais …          0 -5.71e- 2 0.0226   8304  -0.101   -1.28e-2 -2.53e+ 0 0.0115 0.115 ns          
    ## 10 c1    porte coesao Entre 51… Mais …          0 -5.19e- 2 0.0230   8304  -0.0969  -6.83e-3 -2.26e+ 0 0.0240 0.240 ns          
    ## # ℹ 20 more rows
…
