…
ldat <- gather(wdat, key = time, value = pontuacao, c1,c2,c3) %>%
  convert_as_factor(id, time)
ldat <- remove_group_data(ldat, "pontuacao", c("time", "gender"), n.limit = 30)
ldat$gender <- factor(ldat$gender, sort(unique(ldat$gender)))
```

### Check assumptions: Identifying Outliers

``` r
outliers <- identify_outliers(group_by(ldat, time, gender), pontuacao)
(outliers <- outliers[outliers$is.extreme == T,])
```

    ## # A tibble: 988 × 6
    ##    gender time  id                   pontuacao is.outlier is.extreme
    ##    <fct>  <fct> <fct>                    <dbl> <lgl>      <lgl>     
    ##  1 Female c1    0wDHSyctDDkjP6OPE3c8       5   TRUE       TRUE      
    ##  2 Female c1    1DlydHhFt2IkhBETPR4s       3.5 TRUE       TRUE      
    ##  3 Female c1    2dPipf6cnqDHy9qCzjpa       4.5 TRUE       TRUE      
    ##  4 Female c1    2l9eL5QVtUNWf7HSZPbv       3.5 TRUE       TRUE      
    ##  5 Female c1    3roHN14ps3mqIKTOGrvj       3   TRUE       TRUE      
    ##  6 Female c1    46nUNvt4sDOPsC9jnkiG       4.5 TRUE       TRUE      
    ##  7 Female c1    4UY0Zge7bWrXHTAaYi3U       4   TRUE       TRUE      
    ##  8 Female c1    55GlwifTTyiOSKTB9vc9       5   TRUE       TRUE      
    ##  9 Female c1    5AeP0IQ84CerIQVenp2G       3   TRUE       TRUE      
    ## 10 Female c1    5feCOxk9AidRBPnsBHCE       5   TRUE       TRUE      
    ## # ℹ 978 more rows
…
ldat <- gather(wdat, key = time, value = pontuacao, c1,c2,c3) %>%
  convert_as_factor(id, time)
ldat <- remove_group_data(ldat, "pontuacao", c("time", "localizacao"), n.limit = 30)
ldat$localizacao <- factor(ldat$localizacao, sort(unique(ldat$localizacao)))
```

### Check assumptions: Identifying Outliers

``` r
outliers <- identify_outliers(group_by(ldat, time, localizacao), pontuacao)
(outliers <- outliers[outliers$is.extreme == T,])
```

    ## # A tibble: 1,047 × 6
    ##    localizacao time  id                   pontuacao is.outlier is.extreme
    ##    <fct>       <fct> <fct>                    <dbl> <lgl>      <lgl>     
    ##  1 Rural       c1    0w3VhiMf67CbcpR6aZCL       5   TRUE       TRUE      
    ##  2 Rural       c1    1j6UeRYoeJDXM0grwZCJ       3.5 TRUE       TRUE      
    ##  3 Rural       c1    1PlxEF4tmJySD3G46PLB       3.5 TRUE       TRUE      
    ##  4 Rural       c1    2l9eL5QVtUNWf7HSZPbv       3.5 TRUE       TRUE      
    ##  5 Rural       c1    3roHN14ps3mqIKTOGrvj       3   TRUE       TRUE      
    ##  6 Rural       c1    4UY0Zge7bWrXHTAaYi3U       4   TRUE       TRUE      
    ##  7 Rural       c1    6N2ACmyrqNBgfOvicubH       3.5 TRUE       TRUE      
    ##  8 Rural       c1    6T5xYwUo6kDjNVlSqng5       3.5 TRUE       TRUE      
    ##  9 Rural       c1    7n7TdyIH0Wy2Z2on0Ud0       3.5 TRUE       TRUE      
    ## 10 Rural       c1    810Nxa9nOxSTQkQcLDhH       3.5 TRUE       TRUE      
    ## # ℹ 1,037 more rows
…
ldat <- gather(wdat, key = time, value = pontuacao, c1,c2,c3) %>%
  convert_as_factor(id, time)
ldat <- remove_group_data(ldat, "pontuacao", c("time", "regiao"), n.limit = 30)
ldat$regiao <- factor(ldat$regiao, sort(unique(ldat$regiao)))
```

### Check assumptions: Identifying Outliers

``` r
outliers <- identify_outliers(group_by(ldat, time, regiao), pontuacao)
(outliers <- outliers[outliers$is.extreme == T,])
```

    ## # A tibble: 1,029 × 6
    ##    regiao       time  id                   pontuacao is.outlier is.extreme
    ##    <fct>        <fct> <fct>                    <dbl> <lgl>      <lgl>     
    ##  1 Centro-Oeste c1    1Z1Qz8zDaMkaAz1Ah80K       5   TRUE       TRUE      
    ##  2 Centro-Oeste c1    5P3WYdHfZOaNtqeKJ9QA       5   TRUE       TRUE      
    ##  3 Centro-Oeste c1    9k9BI8mCq3fddmKjDwxN       3.5 TRUE       TRUE      
    ##  4 Centro-Oeste c1    AIzwxJCfbDsO8ZT4ZZ4h       3   TRUE       TRUE      
    ##  5 Centro-Oeste c1    AVWl60C3KAjiEIcqp9lr       3   TRUE       TRUE      
    ##  6 Centro-Oeste c1    CiV1upa4BM58OvTZsu01       5   TRUE       TRUE      
    ##  7 Centro-Oeste c1    CzO1FzJvMlj6CVXnAlpY       3.5 TRUE       TRUE      
    ##  8 Centro-Oeste c1    dgvqWTQka7lptc3Ft09o       3   TRUE       TRUE      
    ##  9 Centro-Oeste c1    fLBBrxUStMx7WiPdI0Dm       5   TRUE       TRUE      
    ## 10 Centro-Oeste c1    FSILT6Pa2OIvuB8IcM3r       3   TRUE       TRUE      
    ## # ℹ 1,019 more rows
…
``` r
if (length(non.ids) > 0)
  (res.aov2 <- anova_test(ldat2, dv = pontuacao, wid = id, between = regiao , within = time))
```

## PairWise Computation

``` r
(pwc <- ldat %>% group_by(time) %>%
   emmeans_test(pontuacao ~ regiao, detailed = T, p.adjust.method = "bonferroni"))
```

    ## Warning: Expected 2 pieces. Additional pieces discarded in 12 rows [1, 2, 3, 4, 11, 12, 13, 14, 21, 22, 23, 24].

    ## # A tibble: 30 × 15
    ##    time  term   .y.       group1   group2 null.value estimate     se    df conf.low conf.high statistic     p p.adj p.adj.signif
    ##  * <fct> <chr>  <chr>     <chr>    <chr>       <dbl>    <dbl>  <dbl> <dbl>    <dbl>     <dbl>     <dbl> <dbl> <dbl> <chr>       
    ##  1 c1    regiao pontuacao Centro   Oeste           0   0.0235 0.0565  8304  -0.0872    0.134      0.416 0.677     1 ns          
    ##  2 c1    regiao pontuacao Centro   Oeste           0   0.0721 0.0760  8304  -0.0768    0.221      0.949 0.342     1 ns          
    ##  3 c1    regiao pontuacao Centro   Oeste           0  -0.0216 0.0605  8304  -0.140     0.0970    -0.356 0.722     1 ns          
    ##  4 c1    regiao pontuacao Centro   Oeste           0   0.0110 0.0805  8304  -0.147     0.169      0.137 0.891     1 ns          
    ##  5 c1    regiao pontuacao Nordeste Norte           0   0.0486 0.0582  8304  -0.0654    0.163      0.836 0.403     1 ns          
    ##  6 c1    regiao pontuacao Nordeste Sudes…          0  -0.0451 0.0357  8304  -0.115     0.0248    -1.26  0.206     1 ns          
    ##  7 c1    regiao pontuacao Nordeste Sul             0  -0.0125 0.0640  8304  -0.138     0.113     -0.195 0.845     1 ns          
    ##  8 c1    regiao pontuacao Norte    Sudes…          0  -0.0937 0.0621  8304  -0.215     0.0280    -1.51  0.131     1 ns          
    ##  9 c1    regiao pontuacao Norte    Sul             0  -0.0611 0.0817  8304  -0.221     0.0991    -0.748 0.455     1 ns          
    ## 10 c1    regiao pontuacao Sudeste  Sul             0   0.0326 0.0676  8304  -0.0999    0.165      0.482 0.630     1 ns          
    ## # ℹ 20 more rows
…
ldat <- gather(wdat, key = time, value = pontuacao, c1,c2,c3) %>%
  convert_as_factor(id, time)
ldat <- remove_group_data(ldat, "pontuacao", c("time", "porte"), n.limit = 30)
ldat$porte <- factor(ldat$porte, sort(unique(ldat$porte)))
```

### Check assumptions: Identifying Outliers

``` r
outliers <- identify_outliers(group_by(ldat, time, porte), pontuacao)
(outliers <- outliers[outliers$is.extreme == T,])
```

    ## # A tibble: 1,025 × 6
    ##    porte                              time  id                   pontuacao is.outlier is.extreme
    ##    <fct>                              <fct> <fct>                    <dbl> <lgl>      <lgl>     
    ##  1 Até 50 matrículas de escolarização c1    0w3VhiMf67CbcpR6aZCL       5   TRUE       TRUE      
    ##  2 Até 50 matrículas de escolarização c1    6N2ACmyrqNBgfOvicubH       3.5 TRUE       TRUE      
    ##  3 Até 50 matrículas de escolarização c1    CCkKOhn0UVSkJHbSjgzS       5   TRUE       TRUE      
    ##  4 Até 50 matrículas de escolarização c1    CnDHyGy00t97Hh8JGKqg       3.5 TRUE       TRUE      
    ##  5 Até 50 matrículas de escolarização c1    gZXmphJ8jrUySX3i0ORd       3.5 TRUE       TRUE      
    ##  6 Até 50 matrículas de escolarização c1    iutpBZMAtM92qcbyCDHB       3.5 TRUE       TRUE      
    ##  7 Até 50 matrículas de escolarização c1    ShlGdXTxjxY5elm8BIsc       3.5 TRUE       TRUE      
    ##  8 Até 50 matrículas de escolarização c1    xAo0TzCEx1bIrmjqKgbj       3.5 TRUE       TRUE      
    ##  9 Até 50 matrículas de escolarização c1    xF20f9CYWcEP8kspJSfO       3.5 TRUE       TRUE      
    ## 10 Até 50 matrículas de escolarização c1    zpmhcXzEeOxKL6kXYe02       3.5 TRUE       TRUE      
    ## # ℹ 1,015 more rows
…
| Effect     |   GGe | DF\[GG\]      | p\[GG\] | p\[GG\]\<.05 |  HFe | DF\[HF\]     | p\[HF\] | p\[HF\]\<.05 |
|:-----------|------:|:--------------|--------:|:-------------|-----:|:-------------|--------:|:-------------|
| time       | 0.949 | 1.9, 5093.42  |       0 | \*           | 0.95 | 1.9, 5096.93 |       0 | \*           |
| porte:time | 0.949 | 7.59, 5093.42 |       0 | \*           | 0.95 | 7.6, 5096.93 |       0 | \*           |

## PairWise Computation

``` r
(pwc <- ldat %>% group_by(time) %>%
   emmeans_test(pontuacao ~ porte, detailed = T, p.adjust.method = "bonferroni"))
```

    ## # A tibble: 30 × 15
    ##    time  term  .y.       group1    group2 null.value estimate     se    df conf.low conf.high statistic     p p.adj p.adj.signif
    ##  * <fct> <chr> <chr>     <chr>     <chr>       <dbl>    <dbl>  <dbl> <dbl>    <dbl>     <dbl>     <dbl> <dbl> <dbl> <chr>       
    ##  1 c1    porte pontuacao Até 50 m… Entre…          0  0.0650  0.0877  8304  -0.107     0.237     0.741  0.459     1 ns          
    ##  2 c1    porte pontuacao Até 50 m… Entre…          0  0.0793  0.0910  8304  -0.0990    0.258     0.872  0.383     1 ns          
    ##  3 c1    porte pontuacao Até 50 m… Entre…          0  0.00439 0.0926  8304  -0.177     0.186     0.0474 0.962     1 ns          
    ##  4 c1    porte pontuacao Até 50 m… Mais …          0  0.0883  0.126   8304  -0.159     0.336     0.699  0.484     1 ns          
    ##  5 c1    porte pontuacao Entre 20… Entre…          0  0.0144  0.0371  8304  -0.0584    0.0871    0.387  0.699     1 ns          
    ##  6 c1    porte pontuacao Entre 20… Entre…          0 -0.0606  0.0409  8304  -0.141     0.0197   -1.48   0.139     1 ns          
    ##  7 c1    porte pontuacao Entre 20… Mais …          0  0.0233  0.0951  8304  -0.163     0.210     0.245  0.806     1 ns          
    ##  8 c1    porte pontuacao Entre 50… Entre…          0 -0.0749  0.0475  8304  -0.168     0.0183   -1.58   0.115     1 ns          
    ##  9 c1    porte pontuacao Entre 50… Mais …          0  0.00897 0.0981  8304  -0.183     0.201     0.0914 0.927     1 ns          
    ## 10 c1    porte pontuacao Entre 51… Mais …          0  0.0839  0.0997  8304  -0.111     0.279     0.842  0.400     1 ns          
    ## # ℹ 20 more rows
…
## PairWise Computation after removing non.normal data

``` r
if (length(non.ids) > 0)
  (pwc2 <- ldat2 %>% group_by(time) %>%
     emmeans_test(pontuacao ~ porte, detailed = T, p.adjust.method = "bonferroni"))
```

    ## # A tibble: 30 × 15
    ##    time  term  .y.       group1    group2 null.value estimate     se    df conf.low conf.high statistic     p p.adj p.adj.signif
    ##  * <fct> <chr> <chr>     <chr>     <chr>       <dbl>    <dbl>  <dbl> <dbl>    <dbl>     <dbl>     <dbl> <dbl> <dbl> <chr>       
    ##  1 c1    porte pontuacao Até 50 m… Entre…          0   0.181  0.257   8049  -0.322     0.685     0.706  0.480     1 ns          
    ##  2 c1    porte pontuacao Até 50 m… Entre…          0   0.196  0.258   8049  -0.310     0.702     0.758  0.448     1 ns          
    ##  3 c1    porte pontuacao Até 50 m… Entre…          0   0.121  0.259   8049  -0.386     0.628     0.467  0.640     1 ns          
    ##  4 c1    porte pontuacao Até 50 m… Mais …          0   0.206  0.275   8049  -0.333     0.746     0.749  0.454     1 ns          
    ##  5 c1    porte pontuacao Entre 20… Entre…          0   0.0144 0.0366  8049  -0.0575    0.0862    0.392  0.695     1 ns          
    ##  6 c1    porte pontuacao Entre 20… Entre…          0  -0.0606 0.0405  8049  -0.140     0.0187   -1.50   0.134     1 ns          
    ##  7 c1    porte pontuacao Entre 20… Mais …          0   0.0248 0.102   8049  -0.175     0.225     0.243  0.808     1 ns          
    ##  8 c1    porte pontuacao Entre 50… Entre…          0  -0.0749 0.0470  8049  -0.167     0.0171   -1.60   0.111     1 ns          
    ##  9 c1    porte pontuacao Entre 50… Mais …          0   0.0104 0.105   8049  -0.195     0.216     0.0995 0.921     1 ns          
    ## 10 c1    porte pontuacao Entre 51… Mais …          0   0.0854 0.106   8049  -0.123     0.293     0.804  0.421     1 ns          
    ## # ℹ 20 more rows
…
