…
ldat <- gather(wdat, key = time, value = score, c1,c2,c3,c4) %>%
  convert_as_factor(id, time)
ldat <- remove_group_data(ldat, "score", c("time", "gender"), n.limit = 30)
ldat$gender <- factor(ldat$gender, sort(unique(ldat$gender)))
```

### Check assumptions: Identifying Outliers

``` r
outliers <- identify_outliers(group_by(ldat, time, gender), score)
(outliers <- outliers[outliers$is.extreme == T,])
```

    ## # A tibble: 21 × 6
    ##    gender time  id                   score is.outlier is.extreme
    ##    <fct>  <fct> <fct>                <dbl> <lgl>      <lgl>     
    ##  1 Female c1    Ru3SPRo97iXBvXbvneKh   4   TRUE       TRUE      
    ##  2 Female c1    vc8pPoYau2AIAuCQJipW   4   TRUE       TRUE      
    ##  3 Male   c1    0w3VhiMf67CbcpR6aZCL   4   TRUE       TRUE      
    ##  4 Male   c1    1Z1Qz8zDaMkaAz1Ah80K   4   TRUE       TRUE      
    ##  5 Male   c1    D1HfJKTVqjrpCJx97l3v   3.9 TRUE       TRUE      
    ##  6 Male   c1    uCBI6gnllsawWJlgqkr5   4   TRUE       TRUE      
    ##  7 Female c2    oGUJyWRMYYbF9PNegJZh   4   TRUE       TRUE      
    ##  8 Male   c2    cuknOzzwN4oCRum5U5ph   4.2 TRUE       TRUE      
    ##  9 Male   c2    HsQF2J0r79mHSWNe4l6n   4   TRUE       TRUE      
    ## 10 Male   c2    j31LU8Xwm0EQ7Mihkhjj   4   TRUE       TRUE      
    ## # ℹ 11 more rows
…
ldat <- gather(wdat, key = time, value = score, c1,c2,c3,c4) %>%
  convert_as_factor(id, time)
ldat <- remove_group_data(ldat, "score", c("time", "localizacao"), n.limit = 30)
ldat$localizacao <- factor(ldat$localizacao, sort(unique(ldat$localizacao)))
```

### Check assumptions: Identifying Outliers

``` r
outliers <- identify_outliers(group_by(ldat, time, localizacao), score)
(outliers <- outliers[outliers$is.extreme == T,])
```

    ## # A tibble: 22 × 6
    ##    localizacao time  id                   score is.outlier is.extreme
    ##    <fct>       <fct> <fct>                <dbl> <lgl>      <lgl>     
    ##  1 Rural       c1    0w3VhiMf67CbcpR6aZCL   4   TRUE       TRUE      
    ##  2 Rural       c1    D1HfJKTVqjrpCJx97l3v   3.9 TRUE       TRUE      
    ##  3 Urbana      c1    1Z1Qz8zDaMkaAz1Ah80K   4   TRUE       TRUE      
    ##  4 Urbana      c1    Ru3SPRo97iXBvXbvneKh   4   TRUE       TRUE      
    ##  5 Urbana      c1    uCBI6gnllsawWJlgqkr5   4   TRUE       TRUE      
    ##  6 Urbana      c1    vc8pPoYau2AIAuCQJipW   4   TRUE       TRUE      
    ##  7 Rural       c2    z3p6Ot4uvkPmGXOS9D3e   4   TRUE       TRUE      
    ##  8 Urbana      c2    cuknOzzwN4oCRum5U5ph   4.2 TRUE       TRUE      
    ##  9 Urbana      c2    HsQF2J0r79mHSWNe4l6n   4   TRUE       TRUE      
    ## 10 Urbana      c2    j31LU8Xwm0EQ7Mihkhjj   4   TRUE       TRUE      
    ## # ℹ 12 more rows
…
## PairWise Computation

``` r
(pwc <- ldat %>% group_by(time) %>%
   emmeans_test(score ~ regiao, detailed = T, p.adjust.method = "bonferroni"))
```

    ## Warning: Expected 2 pieces. Additional pieces discarded in 16 rows [1, 2, 3, 4, 11, 12,
    ## 13, 14, 21, 22, 23, 24, 31, 32, 33, 34].

    ## # A tibble: 40 × 15
    ##    time  term   .y.   group1   group2  null.value estimate     se    df conf.low
    ##  * <fct> <chr>  <chr> <chr>    <chr>        <dbl>    <dbl>  <dbl> <dbl>    <dbl>
    ##  1 c1    regiao score Centro   Oeste            0 -0.0176  0.0358  4484 -8.78e-2
    ##  2 c1    regiao score Centro   Oeste            0 -0.00294 0.0436  4484 -8.84e-2
    ##  3 c1    regiao score Centro   Oeste            0  0.0132  0.0363  4484 -5.81e-2
    ##  4 c1    regiao score Centro   Oeste            0  0.0501  0.0457  4484 -3.95e-2
    ##  5 c1    regiao score Nordeste Norte            0  0.0147  0.0288  4484 -4.17e-2
    ##  6 c1    regiao score Nordeste Sudeste          0  0.0308  0.0157  4484 -3.30e-5
    ##  7 c1    regiao score Nordeste Sul              0  0.0677  0.0319  4484  5.23e-3
    ##  8 c1    regiao score Norte    Sudeste          0  0.0161  0.0295  4484 -4.16e-2
    ##  9 c1    regiao score Norte    Sul              0  0.0530  0.0404  4484 -2.63e-2
    ## 10 c1    regiao score Sudeste  Sul              0  0.0369  0.0325  4484 -2.68e-2
    ## # ℹ 30 more rows
    ## # ℹ 5 more variables: conf.high <dbl>, statistic <dbl>, p <dbl>, p.adj <dbl>,
    ## #   p.adj.signif <chr>
…
``` r
(pwc <- ldat %>% group_by(regiao) %>%
    emmeans_test(score ~ time, detailed = T, p.adjust.method = "bonferroni"))
```

    ## # A tibble: 30 × 15
    ##    regiao    term  .y.   group1 group2 null.value estimate     se    df conf.low
    ##  * <fct>     <chr> <chr> <chr>  <chr>       <dbl>    <dbl>  <dbl> <dbl>    <dbl>
    ##  1 Centro-O… time  score c1     c2              0  -0.0451 0.0485  4484  -0.140 
    ##  2 Centro-O… time  score c1     c3              0  -0.123  0.0485  4484  -0.218 
    ##  3 Centro-O… time  score c1     c4              0  -0.0896 0.0485  4484  -0.185 
    ##  4 Centro-O… time  score c2     c3              0  -0.0778 0.0485  4484  -0.173 
    ##  5 Centro-O… time  score c2     c4              0  -0.0444 0.0485  4484  -0.140 
    ##  6 Centro-O… time  score c3     c4              0   0.0333 0.0485  4484  -0.0618
    ##  7 Nordeste  time  score c1     c2              0  -0.0334 0.0144  4484  -0.0616
    ##  8 Nordeste  time  score c1     c3              0  -0.0717 0.0144  4484  -0.100 
    ##  9 Nordeste  time  score c1     c4              0  -0.0354 0.0144  4484  -0.0636
    ## 10 Nordeste  time  score c2     c3              0  -0.0384 0.0144  4484  -0.0666
    ## # ℹ 20 more rows
    ## # ℹ 5 more variables: conf.high <dbl>, statistic <dbl>, p <dbl>, p.adj <dbl>,
    ## #   p.adj.signif <chr>
…
## PairWise Computation after removing non.normal data

``` r
if (length(non.ids) > 0)
  (pwc2 <- ldat2 %>% group_by(time) %>%
     emmeans_test(score ~ regiao, detailed = T, p.adjust.method = "bonferroni"))
```

    ## Warning: Expected 2 pieces. Additional pieces discarded in 16 rows [1, 2, 3, 4, 11, 12,
    ## 13, 14, 21, 22, 23, 24, 31, 32, 33, 34].

    ## # A tibble: 40 × 15
    ##    time  term   .y.   group1   group2  null.value estimate     se    df conf.low
    ##  * <fct> <chr>  <chr> <chr>    <chr>        <dbl>    <dbl>  <dbl> <dbl>    <dbl>
    ##  1 c1    regiao score Centro   Oeste            0 -0.0143  0.0459  4396 -1.04e-1
    ##  2 c1    regiao score Centro   Oeste            0  0.00207 0.0524  4396 -1.01e-1
    ##  3 c1    regiao score Centro   Oeste            0  0.0165  0.0464  4396 -7.45e-2
    ##  4 c1    regiao score Centro   Oeste            0  0.0533  0.0540  4396 -5.25e-2
    ##  5 c1    regiao score Nordeste Norte            0  0.0164  0.0290  4396 -4.05e-2
    ##  6 c1    regiao score Nordeste Sudeste          0  0.0308  0.0157  4396  3.80e-5
    ##  7 c1    regiao score Nordeste Sul              0  0.0677  0.0318  4396  5.38e-3
    ##  8 c1    regiao score Norte    Sudeste          0  0.0144  0.0297  4396 -4.39e-2
    ##  9 c1    regiao score Norte    Sul              0  0.0513  0.0406  4396 -2.83e-2
    ## 10 c1    regiao score Sudeste  Sul              0  0.0369  0.0324  4396 -2.66e-2
    ## # ℹ 30 more rows
    ## # ℹ 5 more variables: conf.high <dbl>, statistic <dbl>, p <dbl>, p.adj <dbl>,
    ## #   p.adj.signif <chr>
…
``` r
if (length(non.ids) > 0)
  (pwc2 <- ldat2 %>% group_by(regiao) %>%
     emmeans_test(score ~ time, detailed = T, p.adjust.method = "bonferroni"))
```

    ## # A tibble: 30 × 15
    ##    regiao    term  .y.   group1 group2 null.value estimate     se    df conf.low
    ##  * <fct>     <chr> <chr> <chr>  <chr>       <dbl>    <dbl>  <dbl> <dbl>    <dbl>
    ##  1 Centro-O… time  score c1     c2              0  -0.0857 0.0634  4396 -0.210  
    ##  2 Centro-O… time  score c1     c3              0  -0.161  0.0634  4396 -0.285  
    ##  3 Centro-O… time  score c1     c4              0  -0.0321 0.0634  4396 -0.156  
    ##  4 Centro-O… time  score c2     c3              0  -0.0750 0.0634  4396 -0.199  
    ##  5 Centro-O… time  score c2     c4              0   0.0536 0.0634  4396 -0.0707 
    ##  6 Centro-O… time  score c3     c4              0   0.129  0.0634  4396  0.00433
    ##  7 Nordeste  time  score c1     c2              0  -0.0334 0.0144  4396 -0.0615 
    ##  8 Nordeste  time  score c1     c3              0  -0.0717 0.0144  4396 -0.0999 
    ##  9 Nordeste  time  score c1     c4              0  -0.0354 0.0144  4396 -0.0636 
    ## 10 Nordeste  time  score c2     c3              0  -0.0384 0.0144  4396 -0.0665 
    ## # ℹ 20 more rows
    ## # ℹ 5 more variables: conf.high <dbl>, statistic <dbl>, p <dbl>, p.adj <dbl>,
    ## #   p.adj.signif <chr>
…
| Effect     |   GGe | DF\[GG\]      | p\[GG\] | p\[GG\]\<.05 |   HFe | DF\[HF\]      | p\[HF\] | p\[HF\]\<.05 |
|:-----------|------:|:--------------|--------:|:-------------|------:|:--------------|--------:|:-------------|
| time       | 0.991 | 2.97, 3260.97 |   0.002 | \*           | 0.994 | 2.98, 3270.81 |   0.002 | \*           |
| porte:time | 0.991 | 8.92, 3260.97 |   0.009 | \*           | 0.994 | 8.94, 3270.81 |   0.008 | \*           |

## PairWise Computation

``` r
(pwc <- ldat %>% group_by(time) %>%
   emmeans_test(score ~ porte, detailed = T, p.adjust.method = "bonferroni"))
```

    ## # A tibble: 24 × 15
    ##    time  term  .y.   group1     group2 null.value estimate     se    df conf.low
    ##  * <fct> <chr> <chr> <chr>      <chr>       <dbl>    <dbl>  <dbl> <dbl>    <dbl>
    ##  1 c1    porte score Up to 50   Betwe…          0  0.0452  0.0454  4460  -0.0437
    ##  2 c1    porte score Up to 50   Betwe…          0  0.0238  0.0424  4460  -0.0592
    ##  3 c1    porte score Up to 50   Betwe…          0  0.0188  0.0440  4460  -0.0675
    ##  4 c1    porte score Between 5… Betwe…          0 -0.0214  0.0208  4460  -0.0622
    ##  5 c1    porte score Between 5… Betwe…          0 -0.0265  0.0240  4460  -0.0735
    ##  6 c1    porte score Between 2… Betwe…          0 -0.00504 0.0176  4460  -0.0396
    ##  7 c2    porte score Up to 50   Betwe…          0  0.0645  0.0454  4460  -0.0244
    ##  8 c2    porte score Up to 50   Betwe…          0 -0.0118  0.0424  4460  -0.0948
    ##  9 c2    porte score Up to 50   Betwe…          0 -0.0221  0.0440  4460  -0.108 
    ## 10 c2    porte score Between 5… Betwe…          0 -0.0763  0.0208  4460  -0.117 
    ## # ℹ 14 more rows
    ## # ℹ 5 more variables: conf.high <dbl>, statistic <dbl>, p <dbl>, p.adj <dbl>,
    ## #   p.adj.signif <chr>
…
``` r
(pwc <- ldat %>% group_by(porte) %>%
    emmeans_test(score ~ time, detailed = T, p.adjust.method = "bonferroni"))
```

    ## # A tibble: 24 × 15
    ##    porte     term  .y.   group1 group2 null.value estimate     se    df conf.low
    ##  * <fct>     <chr> <chr> <chr>  <chr>       <dbl>    <dbl>  <dbl> <dbl>    <dbl>
    ##  1 Up to 50  time  score c1     c2              0 -0.00909 0.0585  4460  -0.124 
    ##  2 Up to 50  time  score c1     c3              0 -0.0515  0.0585  4460  -0.166 
    ##  3 Up to 50  time  score c1     c4              0 -0.0182  0.0585  4460  -0.133 
    ##  4 Up to 50  time  score c2     c3              0 -0.0424  0.0585  4460  -0.157 
    ##  5 Up to 50  time  score c2     c4              0 -0.00909 0.0585  4460  -0.124 
    ##  6 Up to 50  time  score c3     c4              0  0.0333  0.0585  4460  -0.0813
    ##  7 Between … time  score c1     c2              0  0.0102  0.0264  4460  -0.0416
    ##  8 Between … time  score c1     c3              0 -0.0784  0.0264  4460  -0.130 
    ##  9 Between … time  score c1     c4              0 -0.0778  0.0264  4460  -0.130 
    ## 10 Between … time  score c2     c3              0 -0.0886  0.0264  4460  -0.140 
    ## # ℹ 14 more rows
    ## # ℹ 5 more variables: conf.high <dbl>, statistic <dbl>, p <dbl>, p.adj <dbl>,
    ## #   p.adj.signif <chr>
…
## PairWise Computation after removing non.normal data

``` r
if (length(non.ids) > 0)
  (pwc2 <- ldat2 %>% group_by(time) %>%
     emmeans_test(score ~ porte, detailed = T, p.adjust.method = "bonferroni"))
```

    ## # A tibble: 24 × 15
    ##    time  term  .y.   group1     group2 null.value estimate     se    df conf.low
    ##  * <fct> <chr> <chr> <chr>      <chr>       <dbl>    <dbl>  <dbl> <dbl>    <dbl>
    ##  1 c1    porte score Up to 50   Betwe…          0  0.114   0.0641  4388  -0.0113
    ##  2 c1    porte score Up to 50   Betwe…          0  0.0929  0.0620  4388  -0.0286
    ##  3 c1    porte score Up to 50   Betwe…          0  0.0878  0.0631  4388  -0.0359
    ##  4 c1    porte score Between 5… Betwe…          0 -0.0214  0.0208  4388  -0.0622
    ##  5 c1    porte score Between 5… Betwe…          0 -0.0265  0.0240  4388  -0.0735
    ##  6 c1    porte score Between 2… Betwe…          0 -0.00504 0.0176  4388  -0.0396
    ##  7 c2    porte score Up to 50   Betwe…          0  0.138   0.0641  4388   0.0122
    ##  8 c2    porte score Up to 50   Betwe…          0  0.0616  0.0620  4388  -0.0599
    ##  9 c2    porte score Up to 50   Betwe…          0  0.0512  0.0631  4388  -0.0725
    ## 10 c2    porte score Between 5… Betwe…          0 -0.0763  0.0208  4388  -0.117 
    ## # ℹ 14 more rows
    ## # ℹ 5 more variables: conf.high <dbl>, statistic <dbl>, p <dbl>, p.adj <dbl>,
    ## #   p.adj.signif <chr>
…
``` r
if (length(non.ids) > 0)
  (pwc2 <- ldat2 %>% group_by(porte) %>%
     emmeans_test(score ~ time, detailed = T, p.adjust.method = "bonferroni"))
```

    ## # A tibble: 24 × 15
    ##    porte     term  .y.   group1 group2 null.value estimate     se    df conf.low
    ##  * <fct>     <chr> <chr> <chr>  <chr>       <dbl>    <dbl>  <dbl> <dbl>    <dbl>
    ##  1 Up to 50  time  score c1     c2              0  -0.0133 0.0867  4388 -0.183  
    ##  2 Up to 50  time  score c1     c3              0  -0.0533 0.0867  4388 -0.223  
    ##  3 Up to 50  time  score c1     c4              0   0.153  0.0867  4388 -0.0167 
    ##  4 Up to 50  time  score c2     c3              0  -0.0400 0.0867  4388 -0.210  
    ##  5 Up to 50  time  score c2     c4              0   0.167  0.0867  4388 -0.00332
    ##  6 Up to 50  time  score c3     c4              0   0.207  0.0867  4388  0.0367 
    ##  7 Between … time  score c1     c2              0   0.0102 0.0264  4388 -0.0415 
    ##  8 Between … time  score c1     c3              0  -0.0784 0.0264  4388 -0.130  
    ##  9 Between … time  score c1     c4              0  -0.0778 0.0264  4388 -0.130  
    ## 10 Between … time  score c2     c3              0  -0.0886 0.0264  4388 -0.140  
    ## # ℹ 14 more rows
    ## # ℹ 5 more variables: conf.high <dbl>, statistic <dbl>, p <dbl>, p.adj <dbl>,
    ## #   p.adj.signif <chr>
…
