…
ldat <- gather(wdat, key = time, value = segmentacao, c1,c2,c3) %>%
  convert_as_factor(id, time)
ldat <- remove_group_data(ldat, "segmentacao", c("time", "gender"), n.limit = 30)
ldat$gender <- factor(ldat$gender, sort(unique(ldat$gender)))
```

### Check assumptions: Identifying Outliers

``` r
outliers <- identify_outliers(group_by(ldat, time, gender), segmentacao)
(outliers <- outliers[outliers$is.extreme == T,])
```

    ## # A tibble: 824 × 6
    ##    gender time  id                   segmentacao is.outlier is.extreme
    ##    <fct>  <fct> <fct>                      <dbl> <lgl>      <lgl>     
    ##  1 Female c1    0lMdjGzxsk7DwxFyTSwj         5   TRUE       TRUE      
    ##  2 Female c1    1Ao7d6oeWOGn5CkNSJxn         4.5 TRUE       TRUE      
    ##  3 Female c1    1rGKIQ7fdZBOxxGdPFrp         5   TRUE       TRUE      
    ##  4 Female c1    1yYDJt2kOHTqKvv3pTkn         4.5 TRUE       TRUE      
    ##  5 Female c1    2DvDBlRadL6QdD6eJdDP         5   TRUE       TRUE      
    ##  6 Female c1    2DxCaxzV0AiikIoPOoCv         3   TRUE       TRUE      
    ##  7 Female c1    2J9JedcFZ89AanZm27bY         5   TRUE       TRUE      
    ##  8 Female c1    2JRv4aJX5ZiAWFd1UXo7         3.5 TRUE       TRUE      
    ##  9 Female c1    2qbgEyCWhU8ChVoKwmf5         5   TRUE       TRUE      
    ## 10 Female c1    3uYupr8T88FfksOyXDBI         5   TRUE       TRUE      
    ## # ℹ 814 more rows
…
ldat <- gather(wdat, key = time, value = segmentacao, c1,c2,c3) %>%
  convert_as_factor(id, time)
ldat <- remove_group_data(ldat, "segmentacao", c("time", "localizacao"), n.limit = 30)
ldat$localizacao <- factor(ldat$localizacao, sort(unique(ldat$localizacao)))
```

### Check assumptions: Identifying Outliers

``` r
outliers <- identify_outliers(group_by(ldat, time, localizacao), segmentacao)
(outliers <- outliers[outliers$is.extreme == T,])
```

    ## # A tibble: 871 × 6
    ##    localizacao time  id                   segmentacao is.outlier is.extreme
    ##    <fct>       <fct> <fct>                      <dbl> <lgl>      <lgl>     
    ##  1 Rural       c1    1Ao7d6oeWOGn5CkNSJxn         4.5 TRUE       TRUE      
    ##  2 Rural       c1    2J9JedcFZ89AanZm27bY         5   TRUE       TRUE      
    ##  3 Rural       c1    2wBgWJVF1mK6rnsBiZ99         3   TRUE       TRUE      
    ##  4 Rural       c1    3Mz5zcTWFm69K4uSHzbM         3   TRUE       TRUE      
    ##  5 Rural       c1    45PghDWZsLPMFF4IumMG         4.5 TRUE       TRUE      
    ##  6 Rural       c1    47982aWE9x4sBhPIFY0I         3   TRUE       TRUE      
    ##  7 Rural       c1    4IlR2rfPre42Z5XA3t90         3   TRUE       TRUE      
    ##  8 Rural       c1    5QtCqrFr3U8v5JZWaJI1         5   TRUE       TRUE      
    ##  9 Rural       c1    7AsCrRYMyhVRQHX4kZdc         3   TRUE       TRUE      
    ## 10 Rural       c1    8sNNEBfY9FXrwwecC4pS         3   TRUE       TRUE      
    ## # ℹ 861 more rows
…
ldat <- gather(wdat, key = time, value = segmentacao, c1,c2,c3) %>%
  convert_as_factor(id, time)
ldat <- remove_group_data(ldat, "segmentacao", c("time", "regiao"), n.limit = 30)
ldat$regiao <- factor(ldat$regiao, sort(unique(ldat$regiao)))
```

### Check assumptions: Identifying Outliers

``` r
outliers <- identify_outliers(group_by(ldat, time, regiao), segmentacao)
(outliers <- outliers[outliers$is.extreme == T,])
```

    ## # A tibble: 871 × 6
    ##    regiao       time  id                   segmentacao is.outlier is.extreme
    ##    <fct>        <fct> <fct>                      <dbl> <lgl>      <lgl>     
    ##  1 Centro-Oeste c1    7YMayZh0mClXMucg1uN5         3   TRUE       TRUE      
    ##  2 Centro-Oeste c1    8J6zVzXwczhDoIz6ZH9H         4.5 TRUE       TRUE      
    ##  3 Centro-Oeste c1    9GpNQKRqFgCZSRQwdi13         5   TRUE       TRUE      
    ##  4 Centro-Oeste c1    9jd1C85ixCoJf3EINYfx         5   TRUE       TRUE      
    ##  5 Centro-Oeste c1    A2dPKqbrD2yInm50Jwiu         3.5 TRUE       TRUE      
    ##  6 Centro-Oeste c1    aOGxFSPrreKjHqmQIKKA         4.5 TRUE       TRUE      
    ##  7 Centro-Oeste c1    atydp19vM0PjiOQCWemR         5   TRUE       TRUE      
    ##  8 Centro-Oeste c1    b53oZp9kciii7CaLT2b0         4.5 TRUE       TRUE      
    ##  9 Centro-Oeste c1    cztImgQlVojWbCx6odTk         4.5 TRUE       TRUE      
    ## 10 Centro-Oeste c1    GWOo8wrk6V8uRCPAvb8O         4.5 TRUE       TRUE      
    ## # ℹ 861 more rows
…
``` r
if (length(non.ids) > 0)
  (res.aov2 <- anova_test(ldat2, dv = segmentacao, wid = id, between = regiao , within = time))
```

## PairWise Computation

``` r
(pwc <- ldat %>% group_by(time) %>%
   emmeans_test(segmentacao ~ regiao, detailed = T, p.adjust.method = "bonferroni"))
```

    ## Warning: Expected 2 pieces. Additional pieces discarded in 12 rows [1, 2, 3, 4, 11, 12, 13, 14, 21, 22, 23, 24].

    ## # A tibble: 30 × 15
    ##    time  term   .y.     group1 group2 null.value estimate     se    df conf.low conf.high statistic       p   p.adj p.adj.signif
    ##  * <fct> <chr>  <chr>   <chr>  <chr>       <dbl>    <dbl>  <dbl> <dbl>    <dbl>     <dbl>     <dbl>   <dbl>   <dbl> <chr>       
    ##  1 c1    regiao segmen… Centro Oeste           0   0.0140 0.0182  8304 -0.0216    0.0496      0.770 4.41e-1 1   e+0 ns          
    ##  2 c1    regiao segmen… Centro Oeste           0   0.0913 0.0244  8304  0.0434    0.139       3.74  1.88e-4 1.88e-3 **          
    ##  3 c1    regiao segmen… Centro Oeste           0   0.0408 0.0195  8304  0.00265   0.0789      2.10  3.61e-2 3.61e-1 ns          
    ##  4 c1    regiao segmen… Centro Oeste           0   0.0301 0.0259  8304 -0.0206    0.0809      1.16  2.45e-1 1   e+0 ns          
    ##  5 c1    regiao segmen… Norde… Norte           0   0.0773 0.0187  8304  0.0406    0.114       4.13  3.64e-5 3.64e-4 ***         
    ##  6 c1    regiao segmen… Norde… Sudes…          0   0.0268 0.0115  8304  0.00431   0.0493      2.34  1.95e-2 1.95e-1 ns          
    ##  7 c1    regiao segmen… Norde… Sul             0   0.0161 0.0206  8304 -0.0242    0.0565      0.784 4.33e-1 1   e+0 ns          
    ##  8 c1    regiao segmen… Norte  Sudes…          0  -0.0505 0.0200  8304 -0.0897   -0.0114     -2.53  1.14e-2 1.14e-1 ns          
    ##  9 c1    regiao segmen… Norte  Sul             0  -0.0612 0.0263  8304 -0.113    -0.00964    -2.33  2.00e-2 2.00e-1 ns          
    ## 10 c1    regiao segmen… Sudes… Sul             0  -0.0106 0.0217  8304 -0.0533    0.0320     -0.490 6.24e-1 1   e+0 ns          
    ## # ℹ 20 more rows
…
ldat <- gather(wdat, key = time, value = segmentacao, c1,c2,c3) %>%
  convert_as_factor(id, time)
ldat <- remove_group_data(ldat, "segmentacao", c("time", "porte"), n.limit = 30)
ldat$porte <- factor(ldat$porte, sort(unique(ldat$porte)))
```

### Check assumptions: Identifying Outliers

``` r
outliers <- identify_outliers(group_by(ldat, time, porte), segmentacao)
(outliers <- outliers[outliers$is.extreme == T,])
```

    ## # A tibble: 871 × 6
    ##    porte                                       time  id                   segmentacao is.outlier is.extreme
    ##    <fct>                                       <fct> <fct>                      <dbl> <lgl>      <lgl>     
    ##  1 Até 50 matrículas de escolarização          c1    aONYcyIz9jdWo9UGBKG0         5   TRUE       TRUE      
    ##  2 Até 50 matrículas de escolarização          c1    KBTZEriJAFvcWw48Xxgc         3.5 TRUE       TRUE      
    ##  3 Até 50 matrículas de escolarização          c1    pHKVHcBr54KlIgOzLPuV         5   TRUE       TRUE      
    ##  4 Até 50 matrículas de escolarização          c1    ZHNhk1zpmerLG8ISdloo         3.5 TRUE       TRUE      
    ##  5 Entre 201 e 500 matrículas de escolarização c1    0lMdjGzxsk7DwxFyTSwj         5   TRUE       TRUE      
    ##  6 Entre 201 e 500 matrículas de escolarização c1    119JtIC0nJ3U9fE8LgBb         3   TRUE       TRUE      
    ##  7 Entre 201 e 500 matrículas de escolarização c1    1Ao7d6oeWOGn5CkNSJxn         4.5 TRUE       TRUE      
    ##  8 Entre 201 e 500 matrículas de escolarização c1    1rGKIQ7fdZBOxxGdPFrp         5   TRUE       TRUE      
    ##  9 Entre 201 e 500 matrículas de escolarização c1    1TZ01wBCKMDHXq0YPfqx         3   TRUE       TRUE      
    ## 10 Entre 201 e 500 matrículas de escolarização c1    2DxCaxzV0AiikIoPOoCv         3   TRUE       TRUE      
    ## # ℹ 861 more rows
…
| Effect     |   GGe | DF\[GG\]      | p\[GG\] | p\[GG\]\<.05 |   HFe | DF\[HF\]     | p\[HF\] | p\[HF\]\<.05 |
|:-----------|------:|:--------------|--------:|:-------------|------:|:-------------|--------:|:-------------|
| time       | 0.966 | 1.93, 5340.83 |   0.009 | \*           | 0.967 | 1.93, 5344.5 |   0.008 | \*           |
| porte:time | 0.966 | 7.73, 5340.83 |   0.146 |              | 0.967 | 7.74, 5344.5 |   0.146 |              |

## PairWise Computation

``` r
(pwc <- ldat %>% group_by(time) %>%
   emmeans_test(segmentacao ~ porte, detailed = T, p.adjust.method = "bonferroni"))
```

    ## # A tibble: 30 × 15
    ##    time  term  .y.         group1  group2 null.value estimate     se    df conf.low conf.high statistic     p p.adj p.adj.signif
    ##  * <fct> <chr> <chr>       <chr>   <chr>       <dbl>    <dbl>  <dbl> <dbl>    <dbl>     <dbl>     <dbl> <dbl> <dbl> <chr>       
    ##  1 c1    porte segmentacao Até 50… Entre…          0  3.55e-3 0.0282  8304  -0.0517    0.0588    0.126  0.900     1 ns          
    ##  2 c1    porte segmentacao Até 50… Entre…          0 -9.80e-3 0.0293  8304  -0.0671    0.0475   -0.335  0.738     1 ns          
    ##  3 c1    porte segmentacao Até 50… Entre…          0 -3.81e-3 0.0298  8304  -0.0622    0.0546   -0.128  0.898     1 ns          
    ##  4 c1    porte segmentacao Até 50… Mais …          0 -9.38e-3 0.0406  8304  -0.0890    0.0702   -0.231  0.817     1 ns          
    ##  5 c1    porte segmentacao Entre … Entre…          0 -1.33e-2 0.0119  8304  -0.0367    0.0100   -1.12   0.263     1 ns          
    ##  6 c1    porte segmentacao Entre … Entre…          0 -7.35e-3 0.0132  8304  -0.0332    0.0185   -0.559  0.576     1 ns          
    ##  7 c1    porte segmentacao Entre … Mais …          0 -1.29e-2 0.0306  8304  -0.0729    0.0470   -0.423  0.673     1 ns          
    ##  8 c1    porte segmentacao Entre … Entre…          0  5.99e-3 0.0153  8304  -0.0240    0.0360    0.392  0.695     1 ns          
    ##  9 c1    porte segmentacao Entre … Mais …          0  4.16e-4 0.0316  8304  -0.0614    0.0623    0.0132 0.989     1 ns          
    ## 10 c1    porte segmentacao Entre … Mais …          0 -5.57e-3 0.0320  8304  -0.0684    0.0572   -0.174  0.862     1 ns          
    ## # ℹ 20 more rows
…
## PairWise Computation after removing non.normal data

``` r
if (length(non.ids) > 0)
  (pwc2 <- ldat2 %>% group_by(time) %>%
     emmeans_test(segmentacao ~ porte, detailed = T, p.adjust.method = "bonferroni"))
```

    ## # A tibble: 30 × 15
    ##    time  term  .y.         group1  group2 null.value estimate     se    df conf.low conf.high statistic     p p.adj p.adj.signif
    ##  * <fct> <chr> <chr>       <chr>   <chr>       <dbl>    <dbl>  <dbl> <dbl>    <dbl>     <dbl>     <dbl> <dbl> <dbl> <chr>       
    ##  1 c1    porte segmentacao Até 50… Entre…          0  0.00384 0.0284  8289  -0.0519   0.0595      0.135 0.892     1 ns          
    ##  2 c1    porte segmentacao Até 50… Entre…          0 -0.00950 0.0294  8289  -0.0672   0.0482     -0.323 0.747     1 ns          
    ##  3 c1    porte segmentacao Até 50… Entre…          0 -0.00351 0.0300  8289  -0.0623   0.0552     -0.117 0.907     1 ns          
    ##  4 c1    porte segmentacao Até 50… Mais …          0 -0.0250  0.0412  8289  -0.106    0.0557     -0.607 0.544     1 ns          
    ##  5 c1    porte segmentacao Entre … Entre…          0 -0.0133  0.0119  8289  -0.0366   0.00994    -1.12  0.261     1 ns          
    ##  6 c1    porte segmentacao Entre … Entre…          0 -0.00735 0.0131  8289  -0.0331   0.0183     -0.561 0.575     1 ns          
    ##  7 c1    porte segmentacao Entre … Mais …          0 -0.0288  0.0311  8289  -0.0898   0.0322     -0.926 0.354     1 ns          
    ##  8 c1    porte segmentacao Entre … Entre…          0  0.00599 0.0152  8289  -0.0239   0.0358      0.393 0.694     1 ns          
    ##  9 c1    porte segmentacao Entre … Mais …          0 -0.0155  0.0321  8289  -0.0783   0.0474     -0.483 0.629     1 ns          
    ## 10 c1    porte segmentacao Entre … Mais …          0 -0.0215  0.0325  8289  -0.0852   0.0423     -0.660 0.510     1 ns          
    ## # ℹ 20 more rows
…
