…
ldat <- gather(wdat, key = time, value = score, c1,c2,c3,c4) %>%
  convert_as_factor(id, time)
ldat <- remove_group_data(ldat, "score", c("time", "gender"), n.limit = 30)
ldat$gender <- factor(ldat$gender, sort(unique(ldat$gender)))
```

### Check assumptions: Identifying Outliers

``` r
outliers <- identify_outliers(group_by(ldat, time, gender), score)
(outliers <- outliers[outliers$is.extreme == T,])
```

    ## # A tibble: 37 × 6
    ##    gender time  id                   score is.outlier is.extreme
    ##    <fct>  <fct> <fct>                <dbl> <lgl>      <lgl>     
    ##  1 Female c1    iPWgss5n5My8lpksQ1nX   4   TRUE       TRUE      
    ##  2 Female c1    Ru3SPRo97iXBvXbvneKh   4   TRUE       TRUE      
    ##  3 Female c1    vc8pPoYau2AIAuCQJipW   4   TRUE       TRUE      
    ##  4 Female c1    wefcYCTqKwxh8S4qGLoI   3.9 TRUE       TRUE      
    ##  5 Female c1    Xq3402VdKr7fuvkfZchf   3.9 TRUE       TRUE      
    ##  6 Male   c1    0w3VhiMf67CbcpR6aZCL   4   TRUE       TRUE      
    ##  7 Male   c1    1Z1Qz8zDaMkaAz1Ah80K   4   TRUE       TRUE      
    ##  8 Male   c1    D1HfJKTVqjrpCJx97l3v   3.9 TRUE       TRUE      
    ##  9 Male   c1    PqW3vWjH69npz9vqggMX   4   TRUE       TRUE      
    ## 10 Male   c1    uCBI6gnllsawWJlgqkr5   4   TRUE       TRUE      
    ## # ℹ 27 more rows
…
ldat <- gather(wdat, key = time, value = score, c1,c2,c3,c4) %>%
  convert_as_factor(id, time)
ldat <- remove_group_data(ldat, "score", c("time", "localizacao"), n.limit = 30)
ldat$localizacao <- factor(ldat$localizacao, sort(unique(ldat$localizacao)))
```

### Check assumptions: Identifying Outliers

``` r
outliers <- identify_outliers(group_by(ldat, time, localizacao), score)
(outliers <- outliers[outliers$is.extreme == T,])
```

    ## # A tibble: 39 × 6
    ##    localizacao time  id                   score is.outlier is.extreme
    ##    <fct>       <fct> <fct>                <dbl> <lgl>      <lgl>     
    ##  1 Rural       c1    0w3VhiMf67CbcpR6aZCL   4   TRUE       TRUE      
    ##  2 Rural       c1    D1HfJKTVqjrpCJx97l3v   3.9 TRUE       TRUE      
    ##  3 Urbana      c1    1Z1Qz8zDaMkaAz1Ah80K   4   TRUE       TRUE      
    ##  4 Urbana      c1    iPWgss5n5My8lpksQ1nX   4   TRUE       TRUE      
    ##  5 Urbana      c1    PqW3vWjH69npz9vqggMX   4   TRUE       TRUE      
    ##  6 Urbana      c1    Ru3SPRo97iXBvXbvneKh   4   TRUE       TRUE      
    ##  7 Urbana      c1    uCBI6gnllsawWJlgqkr5   4   TRUE       TRUE      
    ##  8 Urbana      c1    vc8pPoYau2AIAuCQJipW   4   TRUE       TRUE      
    ##  9 Urbana      c1    wefcYCTqKwxh8S4qGLoI   3.9 TRUE       TRUE      
    ## 10 Urbana      c1    Xq3402VdKr7fuvkfZchf   3.9 TRUE       TRUE      
    ## # ℹ 29 more rows
…
ldat <- gather(wdat, key = time, value = score, c1,c2,c3,c4) %>%
  convert_as_factor(id, time)
ldat <- remove_group_data(ldat, "score", c("time", "regiao"), n.limit = 30)
ldat$regiao <- factor(ldat$regiao, sort(unique(ldat$regiao)))
```

### Check assumptions: Identifying Outliers

``` r
outliers <- identify_outliers(group_by(ldat, time, regiao), score)
(outliers <- outliers[outliers$is.extreme == T,])
```

    ## # A tibble: 34 × 6
    ##    regiao       time  id                   score is.outlier is.extreme
    ##    <fct>        <fct> <fct>                <dbl> <lgl>      <lgl>     
    ##  1 Centro-Oeste c1    1Z1Qz8zDaMkaAz1Ah80K   4   TRUE       TRUE      
    ##  2 Centro-Oeste c1    Xq3402VdKr7fuvkfZchf   3.9 TRUE       TRUE      
    ##  3 Nordeste     c1    0w3VhiMf67CbcpR6aZCL   4   TRUE       TRUE      
    ##  4 Nordeste     c1    D1HfJKTVqjrpCJx97l3v   3.9 TRUE       TRUE      
    ##  5 Nordeste     c1    Ru3SPRo97iXBvXbvneKh   4   TRUE       TRUE      
    ##  6 Nordeste     c1    uCBI6gnllsawWJlgqkr5   4   TRUE       TRUE      
    ##  7 Nordeste     c1    vc8pPoYau2AIAuCQJipW   4   TRUE       TRUE      
    ##  8 Nordeste     c1    wefcYCTqKwxh8S4qGLoI   3.9 TRUE       TRUE      
    ##  9 Norte        c1    iPWgss5n5My8lpksQ1nX   4   TRUE       TRUE      
    ## 10 Norte        c1    PqW3vWjH69npz9vqggMX   4   TRUE       TRUE      
    ## # ℹ 24 more rows
…
## PairWise Computation

``` r
(pwc <- ldat %>% group_by(time) %>%
   emmeans_test(score ~ regiao, detailed = T, p.adjust.method = "bonferroni"))
```

    ## Warning: Expected 2 pieces. Additional pieces discarded in 16 rows [1, 2, 3, 4, 11, 12,
    ## 13, 14, 21, 22, 23, 24, 31, 32, 33, 34].

    ## # A tibble: 40 × 15
    ##    time  term   .y.   group1   group2  null.value estimate     se    df conf.low
    ##  * <fct> <chr>  <chr> <chr>    <chr>        <dbl>    <dbl>  <dbl> <dbl>    <dbl>
    ##  1 c1    regiao score Centro   Oeste            0 -0.00107 0.0169  9425  -0.0341
    ##  2 c1    regiao score Centro   Oeste            0 -0.00363 0.0227  9425  -0.0481
    ##  3 c1    regiao score Centro   Oeste            0  0.00142 0.0180  9425  -0.0339
    ##  4 c1    regiao score Centro   Oeste            0  0.0236  0.0240  9425  -0.0235
    ##  5 c1    regiao score Nordeste Norte            0 -0.00256 0.0174  9425  -0.0366
    ##  6 c1    regiao score Nordeste Sudeste          0  0.00249 0.0106  9425  -0.0184
    ##  7 c1    regiao score Nordeste Sul              0  0.0246  0.0191  9425  -0.0128
    ##  8 c1    regiao score Norte    Sudeste          0  0.00505 0.0185  9425  -0.0312
    ##  9 c1    regiao score Norte    Sul              0  0.0272  0.0244  9425  -0.0206
    ## 10 c1    regiao score Sudeste  Sul              0  0.0222  0.0202  9425  -0.0174
    ## # ℹ 30 more rows
    ## # ℹ 5 more variables: conf.high <dbl>, statistic <dbl>, p <dbl>, p.adj <dbl>,
    ## #   p.adj.signif <chr>
…
``` r
(pwc <- ldat %>% group_by(regiao) %>%
    emmeans_test(score ~ time, detailed = T, p.adjust.method = "bonferroni"))
```

    ## # A tibble: 30 × 15
    ##    regiao   term  .y.   group1 group2 null.value estimate      se    df conf.low
    ##  * <fct>    <chr> <chr> <chr>  <chr>       <dbl>    <dbl>   <dbl> <dbl>    <dbl>
    ##  1 Centro-… time  score c1     c2              0 -0.0582  0.0223   9425  -0.102 
    ##  2 Centro-… time  score c1     c3              0 -0.0764  0.0223   9425  -0.120 
    ##  3 Centro-… time  score c1     c4              0 -0.0852  0.0370   9425  -0.158 
    ##  4 Centro-… time  score c2     c3              0 -0.0182  0.0223   9425  -0.0619
    ##  5 Centro-… time  score c2     c4              0 -0.0270  0.0370   9425  -0.0994
    ##  6 Centro-… time  score c3     c4              0 -0.00880 0.0370   9425  -0.0812
    ##  7 Nordeste time  score c1     c2              0 -0.0277  0.00846  9425  -0.0443
    ##  8 Nordeste time  score c1     c3              0 -0.0519  0.00846  9425  -0.0684
    ##  9 Nordeste time  score c1     c4              0 -0.0476  0.0116   9425  -0.0703
    ## 10 Nordeste time  score c2     c3              0 -0.0241  0.00846  9425  -0.0407
    ## # ℹ 20 more rows
    ## # ℹ 5 more variables: conf.high <dbl>, statistic <dbl>, p <dbl>, p.adj <dbl>,
    ## #   p.adj.signif <chr>
…
## PairWise Computation after removing non.normal data

``` r
if (length(non.ids) > 0)
  (pwc2 <- ldat2 %>% group_by(time) %>%
     emmeans_test(score ~ regiao, detailed = T, p.adjust.method = "bonferroni"))
```

    ## Warning: Expected 2 pieces. Additional pieces discarded in 16 rows [1, 2, 3, 4, 11, 12,
    ## 13, 14, 21, 22, 23, 24, 31, 32, 33, 34].

    ## # A tibble: 40 × 15
    ##    time  term   .y.   group1   group2  null.value estimate     se    df conf.low
    ##  * <fct> <chr>  <chr> <chr>    <chr>        <dbl>    <dbl>  <dbl> <dbl>    <dbl>
    ##  1 c1    regiao score Centro   Oeste            0 -0.00107 0.0168  9421  -0.0341
    ##  2 c1    regiao score Centro   Oeste            0 -0.00299 0.0227  9421  -0.0475
    ##  3 c1    regiao score Centro   Oeste            0  0.00142 0.0180  9421  -0.0339
    ##  4 c1    regiao score Centro   Oeste            0  0.0236  0.0240  9421  -0.0235
    ##  5 c1    regiao score Nordeste Norte            0 -0.00193 0.0174  9421  -0.0360
    ##  6 c1    regiao score Nordeste Sudeste          0  0.00249 0.0106  9421  -0.0184
    ##  7 c1    regiao score Nordeste Sul              0  0.0246  0.0191  9421  -0.0128
    ##  8 c1    regiao score Norte    Sudeste          0  0.00442 0.0185  9421  -0.0319
    ##  9 c1    regiao score Norte    Sul              0  0.0266  0.0244  9421  -0.0213
    ## 10 c1    regiao score Sudeste  Sul              0  0.0222  0.0202  9421  -0.0173
    ## # ℹ 30 more rows
    ## # ℹ 5 more variables: conf.high <dbl>, statistic <dbl>, p <dbl>, p.adj <dbl>,
    ## #   p.adj.signif <chr>
…
``` r
if (length(non.ids) > 0)
  (pwc2 <- ldat2 %>% group_by(regiao) %>%
     emmeans_test(score ~ time, detailed = T, p.adjust.method = "bonferroni"))
```

    ## # A tibble: 30 × 15
    ##    regiao   term  .y.   group1 group2 null.value estimate      se    df conf.low
    ##  * <fct>    <chr> <chr> <chr>  <chr>       <dbl>    <dbl>   <dbl> <dbl>    <dbl>
    ##  1 Centro-… time  score c1     c2              0 -0.0582  0.0223   9421  -0.102 
    ##  2 Centro-… time  score c1     c3              0 -0.0764  0.0223   9421  -0.120 
    ##  3 Centro-… time  score c1     c4              0 -0.0852  0.0369   9421  -0.158 
    ##  4 Centro-… time  score c2     c3              0 -0.0182  0.0223   9421  -0.0619
    ##  5 Centro-… time  score c2     c4              0 -0.0270  0.0369   9421  -0.0994
    ##  6 Centro-… time  score c3     c4              0 -0.00880 0.0369   9421  -0.0812
    ##  7 Nordeste time  score c1     c2              0 -0.0277  0.00846  9421  -0.0443
    ##  8 Nordeste time  score c1     c3              0 -0.0519  0.00846  9421  -0.0684
    ##  9 Nordeste time  score c1     c4              0 -0.0476  0.0116   9421  -0.0703
    ## 10 Nordeste time  score c2     c3              0 -0.0241  0.00846  9421  -0.0407
    ## # ℹ 20 more rows
    ## # ℹ 5 more variables: conf.high <dbl>, statistic <dbl>, p <dbl>, p.adj <dbl>,
    ## #   p.adj.signif <chr>
…
ldat <- gather(wdat, key = time, value = score, c1,c2,c3,c4) %>%
  convert_as_factor(id, time)
ldat <- remove_group_data(ldat, "score", c("time", "porte"), n.limit = 15)
ldat$porte <- factor(ldat$porte, sort(unique(ldat$porte)))
```

### Check assumptions: Identifying Outliers

``` r
outliers <- identify_outliers(group_by(ldat, time, porte), score)
(outliers <- outliers[outliers$is.extreme == T,])
```

    ## # A tibble: 36 × 6
    ##    porte                time  id                   score is.outlier is.extreme
    ##    <fct>                <fct> <fct>                <dbl> <lgl>      <lgl>     
    ##  1 Up to 50             c1    0w3VhiMf67CbcpR6aZCL   4   TRUE       TRUE      
    ##  2 Between 51 and 200   c1    1Z1Qz8zDaMkaAz1Ah80K   4   TRUE       TRUE      
    ##  3 Between 201 and 500  c1    PqW3vWjH69npz9vqggMX   4   TRUE       TRUE      
    ##  4 Between 201 and 500  c1    Ru3SPRo97iXBvXbvneKh   4   TRUE       TRUE      
    ##  5 Between 201 and 500  c1    uCBI6gnllsawWJlgqkr5   4   TRUE       TRUE      
    ##  6 Between 201 and 500  c1    vc8pPoYau2AIAuCQJipW   4   TRUE       TRUE      
    ##  7 Between 201 and 500  c1    wefcYCTqKwxh8S4qGLoI   3.9 TRUE       TRUE      
    ##  8 Between 501 and 1000 c1    D1HfJKTVqjrpCJx97l3v   3.9 TRUE       TRUE      
    ##  9 Between 501 and 1000 c1    iPWgss5n5My8lpksQ1nX   4   TRUE       TRUE      
    ## 10 Between 501 and 1000 c1    Xq3402VdKr7fuvkfZchf   3.9 TRUE       TRUE      
    ## # ℹ 26 more rows
…
| Effect     |   GGe | DF\[GG\]      | p\[GG\] | p\[GG\]\<.05 |   HFe | DF\[HF\]      | p\[HF\] | p\[HF\]\<.05 |
|:-----------|------:|:--------------|--------:|:-------------|------:|:--------------|--------:|:-------------|
| time       | 0.991 | 2.97, 3303.25 |   0.000 | \*           | 0.994 | 2.98, 3313.09 |   0.000 | \*           |
| porte:time | 0.991 | 8.92, 3303.25 |   0.038 | \*           | 0.994 | 8.95, 3313.09 |   0.037 | \*           |

## PairWise Computation

``` r
(pwc <- ldat %>% group_by(time) %>%
   emmeans_test(score ~ porte, detailed = T, p.adjust.method = "bonferroni"))
```

    ## # A tibble: 40 × 15
    ##    time  term  .y.   group1     group2 null.value estimate     se    df conf.low
    ##  * <fct> <chr> <chr> <chr>      <chr>       <dbl>    <dbl>  <dbl> <dbl>    <dbl>
    ##  1 c1    porte score Up to 50   Betwe…          0  0.0277  0.0276  9419  -0.0264
    ##  2 c1    porte score Up to 50   Betwe…          0  0.0262  0.0261  9419  -0.0250
    ##  3 c1    porte score Up to 50   Betwe…          0  0.0226  0.0271  9419  -0.0305
    ##  4 c1    porte score Up to 50   More …          0  0.0185  0.0376  9419  -0.0552
    ##  5 c1    porte score Between 5… Betwe…          0 -0.00141 0.0122  9419  -0.0253
    ##  6 c1    porte score Between 5… Betwe…          0 -0.00506 0.0142  9419  -0.0328
    ##  7 c1    porte score Between 5… More …          0 -0.00917 0.0297  9419  -0.0673
    ##  8 c1    porte score Between 2… Betwe…          0 -0.00365 0.0110  9419  -0.0253
    ##  9 c1    porte score Between 2… More …          0 -0.00776 0.0283  9419  -0.0633
    ## 10 c1    porte score Between 5… More …          0 -0.00411 0.0292  9419  -0.0614
    ## # ℹ 30 more rows
    ## # ℹ 5 more variables: conf.high <dbl>, statistic <dbl>, p <dbl>, p.adj <dbl>,
    ## #   p.adj.signif <chr>
…
``` r
(pwc <- ldat %>% group_by(porte) %>%
    emmeans_test(score ~ time, detailed = T, p.adjust.method = "bonferroni"))
```

    ## # A tibble: 30 × 15
    ##    porte     term  .y.   group1 group2 null.value estimate     se    df conf.low
    ##  * <fct>     <chr> <chr> <chr>  <chr>       <dbl>    <dbl>  <dbl> <dbl>    <dbl>
    ##  1 Up to 50  time  score c1     c2              0 -0.00361 0.0360  9419  -0.0741
    ##  2 Up to 50  time  score c1     c3              0 -0.0855  0.0360  9419  -0.156 
    ##  3 Up to 50  time  score c1     c4              0 -0.0163  0.0477  9419  -0.110 
    ##  4 Up to 50  time  score c2     c3              0 -0.0819  0.0360  9419  -0.152 
    ##  5 Up to 50  time  score c2     c4              0 -0.0127  0.0477  9419  -0.106 
    ##  6 Up to 50  time  score c3     c4              0  0.0692  0.0477  9419  -0.0243
    ##  7 Between … time  score c1     c2              0 -0.0240  0.0151  9419  -0.0535
    ##  8 Between … time  score c1     c3              0 -0.0387  0.0151  9419  -0.0682
    ##  9 Between … time  score c1     c4              0 -0.0583  0.0211  9419  -0.0997
    ## 10 Between … time  score c2     c3              0 -0.0147  0.0151  9419  -0.0442
    ## # ℹ 20 more rows
    ## # ℹ 5 more variables: conf.high <dbl>, statistic <dbl>, p <dbl>, p.adj <dbl>,
    ## #   p.adj.signif <chr>
…
## PairWise Computation after removing non.normal data

``` r
if (length(non.ids) > 0)
  (pwc2 <- ldat2 %>% group_by(time) %>%
     emmeans_test(score ~ porte, detailed = T, p.adjust.method = "bonferroni"))
```

    ## # A tibble: 40 × 15
    ##    time  term  .y.   group1     group2 null.value estimate     se    df conf.low
    ##  * <fct> <chr> <chr> <chr>      <chr>       <dbl>    <dbl>  <dbl> <dbl>    <dbl>
    ##  1 c1    porte score Up to 50   Betwe…          0  0.0248  0.0281  9403  -0.0304
    ##  2 c1    porte score Up to 50   Betwe…          0  0.0233  0.0267  9403  -0.0290
    ##  3 c1    porte score Up to 50   Betwe…          0  0.0197  0.0277  9403  -0.0345
    ##  4 c1    porte score Up to 50   More …          0  0.0156  0.0380  9403  -0.0589
    ##  5 c1    porte score Between 5… Betwe…          0 -0.00141 0.0122  9403  -0.0253
    ##  6 c1    porte score Between 5… Betwe…          0 -0.00506 0.0141  9403  -0.0328
    ##  7 c1    porte score Between 5… More …          0 -0.00917 0.0297  9403  -0.0673
    ##  8 c1    porte score Between 2… Betwe…          0 -0.00365 0.0110  9403  -0.0253
    ##  9 c1    porte score Between 2… More …          0 -0.00776 0.0283  9403  -0.0632
    ## 10 c1    porte score Between 5… More …          0 -0.00411 0.0292  9403  -0.0613
    ## # ℹ 30 more rows
    ## # ℹ 5 more variables: conf.high <dbl>, statistic <dbl>, p <dbl>, p.adj <dbl>,
    ## #   p.adj.signif <chr>
…
``` r
if (length(non.ids) > 0)
  (pwc2 <- ldat2 %>% group_by(porte) %>%
     emmeans_test(score ~ time, detailed = T, p.adjust.method = "bonferroni"))
```

    ## # A tibble: 30 × 15
    ##    porte     term  .y.   group1 group2 null.value estimate     se    df conf.low
    ##  * <fct>     <chr> <chr> <chr>  <chr>       <dbl>    <dbl>  <dbl> <dbl>    <dbl>
    ##  1 Up to 50  time  score c1     c2              0  -0.0127 0.0368  9403  -0.0849
    ##  2 Up to 50  time  score c1     c3              0  -0.0772 0.0368  9403  -0.149 
    ##  3 Up to 50  time  score c1     c4              0   0.0485 0.0503  9403  -0.0500
    ##  4 Up to 50  time  score c2     c3              0  -0.0646 0.0368  9403  -0.137 
    ##  5 Up to 50  time  score c2     c4              0   0.0612 0.0503  9403  -0.0374
    ##  6 Up to 50  time  score c3     c4              0   0.126  0.0503  9403   0.0272
    ##  7 Between … time  score c1     c2              0  -0.0240 0.0151  9403  -0.0535
    ##  8 Between … time  score c1     c3              0  -0.0387 0.0151  9403  -0.0682
    ##  9 Between … time  score c1     c4              0  -0.0583 0.0211  9403  -0.0997
    ## 10 Between … time  score c2     c3              0  -0.0147 0.0151  9403  -0.0442
    ## # ℹ 20 more rows
    ## # ℹ 5 more variables: conf.high <dbl>, statistic <dbl>, p <dbl>, p.adj <dbl>,
    ## #   p.adj.signif <chr>
…
