…
ldat <- gather(wdat, key = time, value = score2, c1,c2,c3,c4) %>%
  convert_as_factor(id, time)
ldat <- remove_group_data(ldat, "score2", c("time", "gender"), n.limit = 30)
ldat$gender <- factor(ldat$gender, sort(unique(ldat$gender)))
```

### Check assumptions: Identifying Outliers

``` r
outliers <- identify_outliers(group_by(ldat, time, gender), score2)
(outliers <- outliers[outliers$is.extreme == T,])
```

    ## # A tibble: 26 × 6
    ##    gender time  id                   score2 is.outlier is.extreme
    ##    <fct>  <fct> <fct>                 <dbl> <lgl>      <lgl>     
    ##  1 Female c2    oGUJyWRMYYbF9PNegJZh   4.25 TRUE       TRUE      
    ##  2 Female c2    X8eOpiPuKfI4GXxjOsOM   4.25 TRUE       TRUE      
    ##  3 Female c2    xk7eC5haTYuFQaJovsBZ   4    TRUE       TRUE      
    ##  4 Male   c2    cuknOzzwN4oCRum5U5ph   4.5  TRUE       TRUE      
    ##  5 Male   c2    HsQF2J0r79mHSWNe4l6n   4    TRUE       TRUE      
    ##  6 Male   c2    j31LU8Xwm0EQ7Mihkhjj   4    TRUE       TRUE      
    ##  7 Male   c2    W8iXxSmW48zvfJyikMZb   4    TRUE       TRUE      
    ##  8 Female c3    6bEKmKQpOuvY6PSQvzqj   4.25 TRUE       TRUE      
    ##  9 Female c3    7pR91qd7LX1X2Chwr4xQ   4.25 TRUE       TRUE      
    ## 10 Female c3    CCVIt7MPeYMUOCCyBxPh   4.25 TRUE       TRUE      
    ## # ℹ 16 more rows
…
ldat <- gather(wdat, key = time, value = score2, c1,c2,c3,c4) %>%
  convert_as_factor(id, time)
ldat <- remove_group_data(ldat, "score2", c("time", "localizacao"), n.limit = 30)
ldat$localizacao <- factor(ldat$localizacao, sort(unique(ldat$localizacao)))
```

### Check assumptions: Identifying Outliers

``` r
outliers <- identify_outliers(group_by(ldat, time, localizacao), score2)
(outliers <- outliers[outliers$is.extreme == T,])
```

    ## # A tibble: 26 × 6
    ##    localizacao time  id                   score2 is.outlier is.extreme
    ##    <fct>       <fct> <fct>                 <dbl> <lgl>      <lgl>     
    ##  1 Rural       c2    X8eOpiPuKfI4GXxjOsOM   4.25 TRUE       TRUE      
    ##  2 Urbana      c2    cuknOzzwN4oCRum5U5ph   4.5  TRUE       TRUE      
    ##  3 Urbana      c2    HsQF2J0r79mHSWNe4l6n   4    TRUE       TRUE      
    ##  4 Urbana      c2    j31LU8Xwm0EQ7Mihkhjj   4    TRUE       TRUE      
    ##  5 Urbana      c2    oGUJyWRMYYbF9PNegJZh   4.25 TRUE       TRUE      
    ##  6 Urbana      c2    W8iXxSmW48zvfJyikMZb   4    TRUE       TRUE      
    ##  7 Urbana      c2    xk7eC5haTYuFQaJovsBZ   4    TRUE       TRUE      
    ##  8 Rural       c3    mbcncvg5dOFa9ZRsRhZf   4.25 TRUE       TRUE      
    ##  9 Rural       c3    Pj0bkt0GAUBSA1FoPcc2   4.5  TRUE       TRUE      
    ## 10 Rural       c3    PwZy7Lbc45vuNd5du72A   4.25 TRUE       TRUE      
    ## # ℹ 16 more rows
…
ldat <- gather(wdat, key = time, value = score2, c1,c2,c3,c4) %>%
  convert_as_factor(id, time)
ldat <- remove_group_data(ldat, "score2", c("time", "regiao"), n.limit = 30)
ldat$regiao <- factor(ldat$regiao, sort(unique(ldat$regiao)))
```

### Check assumptions: Identifying Outliers

``` r
outliers <- identify_outliers(group_by(ldat, time, regiao), score2)
(outliers <- outliers[outliers$is.extreme == T,])
```

    ## # A tibble: 26 × 6
    ##    regiao   time  id                   score2 is.outlier is.extreme
    ##    <fct>    <fct> <fct>                 <dbl> <lgl>      <lgl>     
    ##  1 Nordeste c2    cuknOzzwN4oCRum5U5ph   4.5  TRUE       TRUE      
    ##  2 Nordeste c2    oGUJyWRMYYbF9PNegJZh   4.25 TRUE       TRUE      
    ##  3 Nordeste c2    X8eOpiPuKfI4GXxjOsOM   4.25 TRUE       TRUE      
    ##  4 Sudeste  c2    HsQF2J0r79mHSWNe4l6n   4    TRUE       TRUE      
    ##  5 Sudeste  c2    j31LU8Xwm0EQ7Mihkhjj   4    TRUE       TRUE      
    ##  6 Sudeste  c2    W8iXxSmW48zvfJyikMZb   4    TRUE       TRUE      
    ##  7 Sudeste  c2    xk7eC5haTYuFQaJovsBZ   4    TRUE       TRUE      
    ##  8 Nordeste c3    1uixvrMfKulaomVh0MKa   4.25 TRUE       TRUE      
    ##  9 Nordeste c3    8edbRBvoAhVAiLZ3h3E2   4.5  TRUE       TRUE      
    ## 10 Nordeste c3    CCVIt7MPeYMUOCCyBxPh   4.25 TRUE       TRUE      
    ## # ℹ 16 more rows
…
## PairWise Computation

``` r
(pwc <- ldat %>% group_by(time) %>%
   emmeans_test(score2 ~ regiao, detailed = T, p.adjust.method = "bonferroni"))
```

    ## Warning: Expected 2 pieces. Additional pieces discarded in 16 rows [1, 2, 3, 4, 11, 12,
    ## 13, 14, 21, 22, 23, 24, 31, 32, 33, 34].

    ## # A tibble: 40 × 15
    ##    time  term   .y.    group1   group2 null.value estimate     se    df conf.low
    ##  * <fct> <chr>  <chr>  <chr>    <chr>       <dbl>    <dbl>  <dbl> <dbl>    <dbl>
    ##  1 c1    regiao score2 Centro   Oeste           0  0.0202  0.0223  9425  -0.0235
    ##  2 c1    regiao score2 Centro   Oeste           0  0.103   0.0300  9425   0.0445
    ##  3 c1    regiao score2 Centro   Oeste           0  0.00438 0.0239  9425  -0.0424
    ##  4 c1    regiao score2 Centro   Oeste           0  0.0135  0.0318  9425  -0.0488
    ##  5 c1    regiao score2 Nordeste Norte           0  0.0831  0.0229  9425   0.0381
    ##  6 c1    regiao score2 Nordeste Sudes…          0 -0.0158  0.0141  9425  -0.0434
    ##  7 c1    regiao score2 Nordeste Sul             0 -0.00667 0.0253  9425  -0.0562
    ##  8 c1    regiao score2 Norte    Sudes…          0 -0.0988  0.0245  9425  -0.147 
    ##  9 c1    regiao score2 Norte    Sul             0 -0.0897  0.0322  9425  -0.153 
    ## 10 c1    regiao score2 Sudeste  Sul             0  0.00911 0.0267  9425  -0.0431
    ## # ℹ 30 more rows
    ## # ℹ 5 more variables: conf.high <dbl>, statistic <dbl>, p <dbl>, p.adj <dbl>,
    ## #   p.adj.signif <chr>
…
``` r
(pwc <- ldat %>% group_by(regiao) %>%
    emmeans_test(score2 ~ time, detailed = T, p.adjust.method = "bonferroni"))
```

    ## # A tibble: 30 × 15
    ##    regiao    term  .y.   group1 group2 null.value estimate     se    df conf.low
    ##  * <fct>     <chr> <chr> <chr>  <chr>       <dbl>    <dbl>  <dbl> <dbl>    <dbl>
    ##  1 Centro-O… time  scor… c1     c2              0 -0.0921  0.0295  9425  -0.150 
    ##  2 Centro-O… time  scor… c1     c3              0 -0.106   0.0295  9425  -0.164 
    ##  3 Centro-O… time  scor… c1     c4              0 -0.110   0.0489  9425  -0.206 
    ##  4 Centro-O… time  scor… c2     c3              0 -0.0138  0.0295  9425  -0.0715
    ##  5 Centro-O… time  scor… c2     c4              0 -0.0181  0.0489  9425  -0.114 
    ##  6 Centro-O… time  scor… c3     c4              0 -0.00434 0.0489  9425  -0.100 
    ##  7 Nordeste  time  scor… c1     c2              0 -0.104   0.0112  9425  -0.126 
    ##  8 Nordeste  time  scor… c1     c3              0 -0.141   0.0112  9425  -0.163 
    ##  9 Nordeste  time  scor… c1     c4              0 -0.132   0.0153  9425  -0.162 
    ## 10 Nordeste  time  scor… c2     c3              0 -0.0373  0.0112  9425  -0.0592
    ## # ℹ 20 more rows
    ## # ℹ 5 more variables: conf.high <dbl>, statistic <dbl>, p <dbl>, p.adj <dbl>,
    ## #   p.adj.signif <chr>
…
ldat <- gather(wdat, key = time, value = score2, c1,c2,c3,c4) %>%
  convert_as_factor(id, time)
ldat <- remove_group_data(ldat, "score2", c("time", "porte"), n.limit = 15)
ldat$porte <- factor(ldat$porte, sort(unique(ldat$porte)))
```

### Check assumptions: Identifying Outliers

``` r
outliers <- identify_outliers(group_by(ldat, time, porte), score2)
(outliers <- outliers[outliers$is.extreme == T,])
```

    ## # A tibble: 24 × 6
    ##    porte               time  id                   score2 is.outlier is.extreme
    ##    <fct>               <fct> <fct>                 <dbl> <lgl>      <lgl>     
    ##  1 Between 51 and 200  c2    X8eOpiPuKfI4GXxjOsOM   4.25 TRUE       TRUE      
    ##  2 Between 201 and 500 c2    cuknOzzwN4oCRum5U5ph   4.5  TRUE       TRUE      
    ##  3 Between 201 and 500 c2    HsQF2J0r79mHSWNe4l6n   4    TRUE       TRUE      
    ##  4 Between 201 and 500 c2    j31LU8Xwm0EQ7Mihkhjj   4    TRUE       TRUE      
    ##  5 Between 201 and 500 c2    oGUJyWRMYYbF9PNegJZh   4.25 TRUE       TRUE      
    ##  6 Between 201 and 500 c2    W8iXxSmW48zvfJyikMZb   4    TRUE       TRUE      
    ##  7 Between 201 and 500 c2    xk7eC5haTYuFQaJovsBZ   4    TRUE       TRUE      
    ##  8 Between 51 and 200  c3    1uixvrMfKulaomVh0MKa   4.25 TRUE       TRUE      
    ##  9 Between 51 and 200  c3    8edbRBvoAhVAiLZ3h3E2   4.5  TRUE       TRUE      
    ## 10 Between 51 and 200  c3    PwZy7Lbc45vuNd5du72A   4.25 TRUE       TRUE      
    ## # ℹ 14 more rows
…
## ANOVA Computation after removing non.normal data

``` r
if (length(non.ids) > 0)
  (res.aov2 <- anova_test(ldat2, dv = score2, wid = id, between = porte , within = time))
```

## PairWise Computation

``` r
(pwc <- ldat %>% group_by(time) %>%
   emmeans_test(score2 ~ porte, detailed = T, p.adjust.method = "bonferroni"))
```

    ## # A tibble: 40 × 15
    ##    time  term  .y.    group1    group2 null.value estimate     se    df conf.low
    ##  * <fct> <chr> <chr>  <chr>     <chr>       <dbl>    <dbl>  <dbl> <dbl>    <dbl>
    ##  1 c1    porte score2 Up to 50  Betwe…          0  0.0611  0.0366  9419 -0.0107 
    ##  2 c1    porte score2 Up to 50  Betwe…          0  0.0593  0.0347  9419 -0.00869
    ##  3 c1    porte score2 Up to 50  Betwe…          0  0.0578  0.0360  9419 -0.0127 
    ##  4 c1    porte score2 Up to 50  More …          0  0.0298  0.0499  9419 -0.0680 
    ##  5 c1    porte score2 Between … Betwe…          0 -0.00178 0.0162  9419 -0.0335 
    ##  6 c1    porte score2 Between … Betwe…          0 -0.00328 0.0188  9419 -0.0401 
    ##  7 c1    porte score2 Between … More …          0 -0.0312  0.0394  9419 -0.108  
    ##  8 c1    porte score2 Between … Betwe…          0 -0.00150 0.0147  9419 -0.0302 
    ##  9 c1    porte score2 Between … More …          0 -0.0295  0.0376  9419 -0.103  
    ## 10 c1    porte score2 Between … More …          0 -0.0280  0.0388  9419 -0.104  
    ## # ℹ 30 more rows
    ## # ℹ 5 more variables: conf.high <dbl>, statistic <dbl>, p <dbl>, p.adj <dbl>,
    ## #   p.adj.signif <chr>
…
``` r
(pwc <- ldat %>% group_by(porte) %>%
    emmeans_test(score2 ~ time, detailed = T, p.adjust.method = "bonferroni"))
```

    ## # A tibble: 30 × 15
    ##    porte     term  .y.   group1 group2 null.value estimate     se    df conf.low
    ##  * <fct>     <chr> <chr> <chr>  <chr>       <dbl>    <dbl>  <dbl> <dbl>    <dbl>
    ##  1 Up to 50  time  scor… c1     c2              0  -0.0527 0.0478  9419  -0.146 
    ##  2 Up to 50  time  scor… c1     c3              0  -0.202  0.0478  9419  -0.295 
    ##  3 Up to 50  time  scor… c1     c4              0  -0.136  0.0633  9419  -0.260 
    ##  4 Up to 50  time  scor… c2     c3              0  -0.149  0.0478  9419  -0.243 
    ##  5 Up to 50  time  scor… c2     c4              0  -0.0834 0.0633  9419  -0.207 
    ##  6 Up to 50  time  scor… c3     c4              0   0.0657 0.0633  9419  -0.0584
    ##  7 Between … time  scor… c1     c2              0  -0.0883 0.0200  9419  -0.128 
    ##  8 Between … time  scor… c1     c3              0  -0.136  0.0200  9419  -0.176 
    ##  9 Between … time  scor… c1     c4              0  -0.128  0.0280  9419  -0.183 
    ## 10 Between … time  scor… c2     c3              0  -0.0481 0.0200  9419  -0.0873
    ## # ℹ 20 more rows
    ## # ℹ 5 more variables: conf.high <dbl>, statistic <dbl>, p <dbl>, p.adj <dbl>,
    ## #   p.adj.signif <chr>
…
