…
``` r
if (length(non.ids) > 0)
  (res.aov2 <- anova_test(ldat2, dv = tipologia_textual, wid = id, between = regiao , within = time))
```

## PairWise Computation

``` r
(pwc <- ldat %>% group_by(time) %>%
   emmeans_test(tipologia_textual ~ regiao, detailed = T, p.adjust.method = "bonferroni"))
```

    ## Warning: Expected 2 pieces. Additional pieces discarded in 12 rows [1, 2, 3, 4, 11, 12, 13, 14, 21, 22, 23, 24].

    ## # A tibble: 30 × 15
    ##    time  term   .y.     group1 group2 null.value estimate     se    df conf.low conf.high statistic       p   p.adj p.adj.signif
    ##  * <fct> <chr>  <chr>   <chr>  <chr>       <dbl>    <dbl>  <dbl> <dbl>    <dbl>     <dbl>     <dbl>   <dbl>   <dbl> <chr>       
    ##  1 c1    regiao tipolo… Centro Oeste           0  0.0376  0.0547  8304  -0.0697    0.145     0.686  4.93e-1 1   e+0 ns          
    ##  2 c1    regiao tipolo… Centro Oeste           0  0.240   0.0736  8304   0.0959    0.384     3.26   1.11e-3 1.11e-2 *           
    ##  3 c1    regiao tipolo… Centro Oeste           0 -0.00520 0.0586  8304  -0.120     0.110    -0.0888 9.29e-1 1   e+0 ns          
    ##  4 c1    regiao tipolo… Centro Oeste           0  0.00967 0.0780  8304  -0.143     0.163     0.124  9.01e-1 1   e+0 ns          
    ##  5 c1    regiao tipolo… Norde… Norte           0  0.203   0.0564  8304   0.0921    0.313     3.60   3.26e-4 3.26e-3 **          
    ##  6 c1    regiao tipolo… Norde… Sudes…          0 -0.0428  0.0345  8304  -0.110     0.0249   -1.24   2.16e-1 1   e+0 ns          
    ##  7 c1    regiao tipolo… Norde… Sul             0 -0.0279  0.0620  8304  -0.149     0.0937   -0.450  6.53e-1 1   e+0 ns          
    ##  8 c1    regiao tipolo… Norte  Sudes…          0 -0.245   0.0601  8304  -0.363    -0.128    -4.08   4.52e-5 4.52e-4 ***         
    ##  9 c1    regiao tipolo… Norte  Sul             0 -0.230   0.0792  8304  -0.386    -0.0753   -2.91   3.61e-3 3.61e-2 *           
    ## 10 c1    regiao tipolo… Sudes… Sul             0  0.0149  0.0655  8304  -0.113     0.143     0.227  8.20e-1 1   e+0 ns          
    ## # ℹ 20 more rows
…
| Effect     |   GGe | DF\[GG\]      | p\[GG\] | p\[GG\]\<.05 |   HFe | DF\[HF\]      | p\[HF\] | p\[HF\]\<.05 |
|:-----------|------:|:--------------|--------:|:-------------|------:|:--------------|--------:|:-------------|
| time       | 0.998 | 2, 5302.71    |   0.052 |              | 0.999 | 2, 5306.69    |   0.052 |              |
| porte:time | 0.998 | 7.99, 5302.71 |   0.174 |              | 0.999 | 7.99, 5306.69 |   0.174 |              |

## PairWise Computation

``` r
(pwc <- ldat %>% group_by(time) %>%
   emmeans_test(tipologia_textual ~ porte, detailed = T, p.adjust.method = "bonferroni"))
```

    ## # A tibble: 30 × 15
    ##    time  term  .y.       group1 group2 null.value estimate     se    df conf.low conf.high statistic       p  p.adj p.adj.signif
    ##  * <fct> <chr> <chr>     <chr>  <chr>       <dbl>    <dbl>  <dbl> <dbl>    <dbl>     <dbl>     <dbl>   <dbl>  <dbl> <chr>       
    ##  1 c1    porte tipologi… Até 5… Entre…          0   0.172  0.0849  8304  0.00611    0.339      2.03  0.0422  0.422  ns          
    ##  2 c1    porte tipologi… Até 5… Entre…          0   0.162  0.0880  8304 -0.0110     0.334      1.84  0.0665  0.665  ns          
    ##  3 c1    porte tipologi… Até 5… Entre…          0   0.249  0.0896  8304  0.0732     0.425      2.78  0.00549 0.0549 ns          
    ##  4 c1    porte tipologi… Até 5… Mais …          0   0.0975 0.122   8304 -0.142      0.337      0.798 0.425   1      ns          
    ##  5 c1    porte tipologi… Entre… Entre…          0  -0.0109 0.0359  8304 -0.0813     0.0594    -0.305 0.761   1      ns          
    ##  6 c1    porte tipologi… Entre… Entre…          0   0.0764 0.0396  8304 -0.00124    0.154      1.93  0.0538  0.538  ns          
    ##  7 c1    porte tipologi… Entre… Mais …          0  -0.0750 0.0921  8304 -0.255      0.105     -0.815 0.415   1      ns          
    ##  8 c1    porte tipologi… Entre… Entre…          0   0.0874 0.0460  8304 -0.00282    0.178      1.90  0.0576  0.576  ns          
    ##  9 c1    porte tipologi… Entre… Mais …          0  -0.0641 0.0950  8304 -0.250      0.122     -0.674 0.500   1      ns          
    ## 10 c1    porte tipologi… Entre… Mais …          0  -0.151  0.0964  8304 -0.340      0.0376    -1.57  0.116   1      ns          
    ## # ℹ 20 more rows
…
## PairWise Computation after removing non.normal data

``` r
if (length(non.ids) > 0)
  (pwc2 <- ldat2 %>% group_by(time) %>%
     emmeans_test(tipologia_textual ~ porte, detailed = T, p.adjust.method = "bonferroni"))
```

    ## # A tibble: 30 × 15
    ##    time  term  .y.         group1 group2 null.value estimate     se    df conf.low conf.high statistic      p p.adj p.adj.signif
    ##  * <fct> <chr> <chr>       <chr>  <chr>       <dbl>    <dbl>  <dbl> <dbl>    <dbl>     <dbl>     <dbl>  <dbl> <dbl> <chr>       
    ##  1 c1    porte tipologia_… Até 5… Entre…          0   0.170  0.120   7968 -6.59e-2    0.405     1.41   0.158  1     ns          
    ##  2 c1    porte tipologia_… Até 5… Entre…          0   0.159  0.122   7968 -8.12e-2    0.399     1.30   0.195  1     ns          
    ##  3 c1    porte tipologia_… Até 5… Entre…          0   0.246  0.124   7968  3.95e-3    0.488     1.99   0.0464 0.464 ns          
    ##  4 c1    porte tipologia_… Até 5… Mais …          0   0.0875 0.759   7968 -1.40e+0    1.58      0.115  0.908  1     ns          
    ##  5 c1    porte tipologia_… Entre… Entre…          0  -0.0109 0.0358  7968 -8.10e-2    0.0591   -0.306  0.760  1     ns          
    ##  6 c1    porte tipologia_… Entre… Entre…          0   0.0764 0.0395  7968 -9.31e-4    0.154     1.94   0.0528 0.528 ns          
    ##  7 c1    porte tipologia_… Entre… Mais …          0  -0.0821 0.750   7968 -1.55e+0    1.39     -0.109  0.913  1     ns          
    ##  8 c1    porte tipologia_… Entre… Entre…          0   0.0874 0.0458  7968 -2.46e-3    0.177     1.91   0.0566 0.566 ns          
    ##  9 c1    porte tipologia_… Entre… Mais …          0  -0.0712 0.751   7968 -1.54e+0    1.40     -0.0948 0.924  1     ns          
    ## 10 c1    porte tipologia_… Entre… Mais …          0  -0.159  0.751   7968 -1.63e+0    1.31     -0.211  0.833  1     ns          
    ## # ℹ 20 more rows
…
