…
``` r
if (length(non.ids) > 0)
  (res.aov2 <- anova_test(ldat2, dv = ortografia, wid = id, between = regiao , within = time))
```

## PairWise Computation

``` r
(pwc <- ldat %>% group_by(time) %>%
   emmeans_test(ortografia ~ regiao, detailed = T, p.adjust.method = "bonferroni"))
```

    ## Warning: Expected 2 pieces. Additional pieces discarded in 12 rows [1, 2, 3, 4, 11, 12, 13, 14, 21, 22, 23, 24].

    ## # A tibble: 30 × 15
    ##    time  term   .y.   group1 group2 null.value estimate     se    df conf.low conf.high statistic        p    p.adj p.adj.signif
    ##  * <fct> <chr>  <chr> <chr>  <chr>       <dbl>    <dbl>  <dbl> <dbl>    <dbl>     <dbl>     <dbl>    <dbl>    <dbl> <chr>       
    ##  1 c1    regiao orto… Centro Oeste           0  -0.0860 0.0573  8304 -0.198      0.0264    -1.50  1.34e- 1 1   e+ 0 ns          
    ##  2 c1    regiao orto… Centro Oeste           0  -0.431  0.0771  8304 -0.582     -0.280     -5.59  2.31e- 8 2.31e- 7 ****        
    ##  3 c1    regiao orto… Centro Oeste           0  -0.0104 0.0614  8304 -0.131      0.110     -0.170 8.65e- 1 1   e+ 0 ns          
    ##  4 c1    regiao orto… Centro Oeste           0   0.0639 0.0817  8304 -0.0962     0.224      0.783 4.34e- 1 1   e+ 0 ns          
    ##  5 c1    regiao orto… Norde… Norte           0  -0.345  0.0590  8304 -0.461     -0.229     -5.85  5.22e- 9 5.22e- 8 ****        
    ##  6 c1    regiao orto… Norde… Sudes…          0   0.0756 0.0362  8304  0.00468    0.146      2.09  3.67e- 2 3.67e- 1 ns          
    ##  7 c1    regiao orto… Norde… Sul             0   0.150  0.0649  8304  0.0226     0.277      2.31  2.10e- 2 2.10e- 1 ns          
    ##  8 c1    regiao orto… Norte  Sudes…          0   0.421  0.0630  8304  0.297      0.544      6.68  2.54e-11 2.54e-10 ****        
    ##  9 c1    regiao orto… Norte  Sul             0   0.495  0.0829  8304  0.332      0.657      5.97  2.47e- 9 2.47e- 8 ****        
    ## 10 c1    regiao orto… Sudes… Sul             0   0.0743 0.0685  8304 -0.0600     0.209      1.08  2.78e- 1 1   e+ 0 ns          
    ## # ℹ 20 more rows
…
| Effect     |   GGe | DF\[GG\]      | p\[GG\] | p\[GG\]\<.05 |   HFe | DF\[HF\]      | p\[HF\] | p\[HF\]\<.05 |
|:-----------|------:|:--------------|--------:|:-------------|------:|:--------------|--------:|:-------------|
| time       | 0.997 | 1.99, 5302.09 |   0.322 |              | 0.998 | 2, 5306.06    |   0.322 |              |
| porte:time | 0.997 | 7.98, 5302.09 |   0.125 |              | 0.998 | 7.99, 5306.06 |   0.125 |              |

## PairWise Computation

``` r
(pwc <- ldat %>% group_by(time) %>%
   emmeans_test(ortografia ~ porte, detailed = T, p.adjust.method = "bonferroni"))
```

    ## # A tibble: 30 × 15
    ##    time  term  .y.        group1   group2 null.value estimate     se    df conf.low conf.high statistic     p p.adj p.adj.signif
    ##  * <fct> <chr> <chr>      <chr>    <chr>       <dbl>    <dbl>  <dbl> <dbl>    <dbl>     <dbl>     <dbl> <dbl> <dbl> <chr>       
    ##  1 c1    porte ortografia Até 50 … Entre…          0 -1.06e-1 0.0892  8304  -0.281     0.0691  -1.19    0.236     1 ns          
    ##  2 c1    porte ortografia Até 50 … Entre…          0 -1.18e-1 0.0926  8304  -0.300     0.0633  -1.28    0.202     1 ns          
    ##  3 c1    porte ortografia Até 50 … Entre…          0 -1.06e-1 0.0942  8304  -0.291     0.0787  -1.12    0.261     1 ns          
    ##  4 c1    porte ortografia Até 50 … Mais …          0 -2.69e-2 0.128   8304  -0.279     0.225   -0.209   0.834     1 ns          
    ##  5 c1    porte ortografia Entre 2… Entre…          0 -1.22e-2 0.0377  8304  -0.0862    0.0617  -0.324   0.746     1 ns          
    ##  6 c1    porte ortografia Entre 2… Entre…          0 -9.25e-5 0.0417  8304  -0.0817    0.0816  -0.00222 0.998     1 ns          
    ##  7 c1    porte ortografia Entre 2… Mais …          0  7.90e-2 0.0968  8304  -0.111     0.269    0.816   0.414     1 ns          
    ##  8 c1    porte ortografia Entre 5… Entre…          0  1.21e-2 0.0484  8304  -0.0827    0.107    0.251   0.802     1 ns          
    ##  9 c1    porte ortografia Entre 5… Mais …          0  9.12e-2 0.0998  8304  -0.104     0.287    0.914   0.361     1 ns          
    ## 10 c1    porte ortografia Entre 5… Mais …          0  7.91e-2 0.101   8304  -0.120     0.278    0.780   0.435     1 ns          
    ## # ℹ 20 more rows
…
## PairWise Computation after removing non.normal data

``` r
if (length(non.ids) > 0)
  (pwc2 <- ldat2 %>% group_by(time) %>%
     emmeans_test(ortografia ~ porte, detailed = T, p.adjust.method = "bonferroni"))
```

    ## # A tibble: 30 × 15
    ##    time  term  .y.        group1   group2 null.value estimate     se    df conf.low conf.high statistic     p p.adj p.adj.signif
    ##  * <fct> <chr> <chr>      <chr>    <chr>       <dbl>    <dbl>  <dbl> <dbl>    <dbl>     <dbl>     <dbl> <dbl> <dbl> <chr>       
    ##  1 c1    porte ortografia Até 50 … Entre…          0 -2.54e-2 0.127   7974  -0.273     0.223   -0.201   0.841     1 ns          
    ##  2 c1    porte ortografia Até 50 … Entre…          0 -3.77e-2 0.129   7974  -0.290     0.215   -0.292   0.770     1 ns          
    ##  3 c1    porte ortografia Até 50 … Entre…          0 -2.55e-2 0.130   7974  -0.280     0.229   -0.196   0.844     1 ns          
    ##  4 c1    porte ortografia Até 50 … Mais …          0  5.83e-2 0.473   7974  -0.868     0.985    0.123   0.902     1 ns          
    ##  5 c1    porte ortografia Entre 2… Entre…          0 -1.22e-2 0.0376  7974  -0.0860    0.0616  -0.325   0.745     1 ns          
    ##  6 c1    porte ortografia Entre 2… Entre…          0 -9.25e-5 0.0416  7974  -0.0815    0.0814  -0.00223 0.998     1 ns          
    ##  7 c1    porte ortografia Entre 2… Mais …          0  8.38e-2 0.456   7974  -0.811     0.979    0.184   0.854     1 ns          
    ##  8 c1    porte ortografia Entre 5… Entre…          0  1.21e-2 0.0483  7974  -0.0824    0.107    0.252   0.801     1 ns          
    ##  9 c1    porte ortografia Entre 5… Mais …          0  9.60e-2 0.457   7974  -0.800     0.992    0.210   0.834     1 ns          
    ## 10 c1    porte ortografia Entre 5… Mais …          0  8.39e-2 0.457   7974  -0.813     0.981    0.183   0.855     1 ns          
    ## # ℹ 20 more rows
…
