…
ldat <- gather(wdat, key = time, value = coesao, c1, c2, c3, c4) %>%
  convert_as_factor(id, time)
ldat <- remove_group_data(ldat, "coesao", c("time", "gender"), n.limit = 30)
ldat$gender <- factor(ldat$gender, sort(unique(ldat$gender)))
```

### Check assumptions: Identifying Outliers

``` r
outliers <- identify_outliers(group_by(ldat, time, gender), coesao)
(outliers <- outliers[outliers$is.extreme == T,])
```

    ## # A tibble: 49 × 6
    ##    gender time  id                   coesao is.outlier is.extreme
    ##    <fct>  <fct> <fct>                 <dbl> <lgl>      <lgl>     
    ##  1 Female c1    IZ2Xmfi9jueckwdzfkiG      3 TRUE       TRUE      
    ##  2 Male   c1    JRyGpNQA6mOEl1nzl1af      3 TRUE       TRUE      
    ##  3 Male   c1    Kaj54imycuE0bbwH7xlD      3 TRUE       TRUE      
    ##  4 Male   c1    W8iXxSmW48zvfJyikMZb      4 TRUE       TRUE      
    ##  5 Male   c1    Y7HozU436KQ0wqdBGugu      4 TRUE       TRUE      
    ##  6 Female c2    0mGtUd2Axg2fjQmYZ4CC      3 TRUE       TRUE      
    ##  7 Female c2    EqNpFnKTbLOWH4nmuu6d      4 TRUE       TRUE      
    ##  8 Female c2    G4NIt8gEc7nfeQ9k2OkL      4 TRUE       TRUE      
    ##  9 Female c2    i5EZ8Ck9IgDueyMbw55v      3 TRUE       TRUE      
    ## 10 Female c2    oGUJyWRMYYbF9PNegJZh      4 TRUE       TRUE      
    ## # ℹ 39 more rows
…
ldat <- gather(wdat, key = time, value = coesao, c1, c2, c3, c4) %>%
  convert_as_factor(id, time)
ldat <- remove_group_data(ldat, "coesao", c("time", "localizacao"), n.limit = 30)
ldat$localizacao <- factor(ldat$localizacao, sort(unique(ldat$localizacao)))
```

### Check assumptions: Identifying Outliers

``` r
outliers <- identify_outliers(group_by(ldat, time, localizacao), coesao)
(outliers <- outliers[outliers$is.extreme == T,])
```

    ## # A tibble: 50 × 6
    ##    localizacao time  id                   coesao is.outlier is.extreme
    ##    <fct>       <fct> <fct>                 <dbl> <lgl>      <lgl>     
    ##  1 Rural       c1    Kaj54imycuE0bbwH7xlD      3 TRUE       TRUE      
    ##  2 Urbana      c1    IZ2Xmfi9jueckwdzfkiG      3 TRUE       TRUE      
    ##  3 Urbana      c1    JRyGpNQA6mOEl1nzl1af      3 TRUE       TRUE      
    ##  4 Urbana      c1    W8iXxSmW48zvfJyikMZb      4 TRUE       TRUE      
    ##  5 Urbana      c1    Y7HozU436KQ0wqdBGugu      4 TRUE       TRUE      
    ##  6 Rural       c2    G7bqQeqXmsQ3kiJNeYlz      3 TRUE       TRUE      
    ##  7 Urbana      c2    0mGtUd2Axg2fjQmYZ4CC      3 TRUE       TRUE      
    ##  8 Urbana      c2    cuknOzzwN4oCRum5U5ph      5 TRUE       TRUE      
    ##  9 Urbana      c2    EqNpFnKTbLOWH4nmuu6d      4 TRUE       TRUE      
    ## 10 Urbana      c2    G4NIt8gEc7nfeQ9k2OkL      4 TRUE       TRUE      
    ## # ℹ 40 more rows
…
ldat <- gather(wdat, key = time, value = coesao, c1, c2, c3, c4) %>%
  convert_as_factor(id, time)
ldat <- remove_group_data(ldat, "coesao", c("time", "regiao"), n.limit = 30)
ldat$regiao <- factor(ldat$regiao, sort(unique(ldat$regiao)))
```

### Check assumptions: Identifying Outliers

``` r
outliers <- identify_outliers(group_by(ldat, time, regiao), coesao)
(outliers <- outliers[outliers$is.extreme == T,])
```

    ## # A tibble: 50 × 6
    ##    regiao   time  id                   coesao is.outlier is.extreme
    ##    <fct>    <fct> <fct>                 <dbl> <lgl>      <lgl>     
    ##  1 Nordeste c1    IZ2Xmfi9jueckwdzfkiG      3 TRUE       TRUE      
    ##  2 Nordeste c1    Kaj54imycuE0bbwH7xlD      3 TRUE       TRUE      
    ##  3 Sudeste  c1    W8iXxSmW48zvfJyikMZb      4 TRUE       TRUE      
    ##  4 Sudeste  c1    Y7HozU436KQ0wqdBGugu      4 TRUE       TRUE      
    ##  5 Sul      c1    JRyGpNQA6mOEl1nzl1af      3 TRUE       TRUE      
    ##  6 Nordeste c2    cuknOzzwN4oCRum5U5ph      5 TRUE       TRUE      
    ##  7 Nordeste c2    EqNpFnKTbLOWH4nmuu6d      4 TRUE       TRUE      
    ##  8 Nordeste c2    G7bqQeqXmsQ3kiJNeYlz      3 TRUE       TRUE      
    ##  9 Nordeste c2    i5EZ8Ck9IgDueyMbw55v      3 TRUE       TRUE      
    ## 10 Nordeste c2    oGUJyWRMYYbF9PNegJZh      4 TRUE       TRUE      
    ## # ℹ 40 more rows
…
## PairWise Computation

``` r
(pwc <- ldat %>% group_by(time) %>%
   emmeans_test(coesao ~ regiao, detailed = T, p.adjust.method = "bonferroni"))
```

    ## Warning: Expected 2 pieces. Additional pieces discarded in 16 rows [1, 2, 3, 4, 11, 12,
    ## 13, 14, 21, 22, 23, 24, 31, 32, 33, 34].

    ## # A tibble: 40 × 15
    ##    time  term   .y.    group1  group2 null.value  estimate     se    df conf.low
    ##  * <fct> <chr>  <chr>  <chr>   <chr>       <dbl>     <dbl>  <dbl> <dbl>    <dbl>
    ##  1 c1    regiao coesao Centro  Oeste           0 -3.67e- 3 0.0303  4484  -0.0631
    ##  2 c1    regiao coesao Centro  Oeste           0  2.32e-15 0.0369  4484  -0.0724
    ##  3 c1    regiao coesao Centro  Oeste           0 -1.02e- 2 0.0308  4484  -0.0705
    ##  4 c1    regiao coesao Centro  Oeste           0 -1.61e- 2 0.0387  4484  -0.0920
    ##  5 c1    regiao coesao Nordes… Norte           0  3.67e- 3 0.0244  4484  -0.0441
    ##  6 c1    regiao coesao Nordes… Sudes…          0 -6.51e- 3 0.0133  4484  -0.0326
    ##  7 c1    regiao coesao Nordes… Sul             0 -1.25e- 2 0.0270  4484  -0.0654
    ##  8 c1    regiao coesao Norte   Sudes…          0 -1.02e- 2 0.0250  4484  -0.0591
    ##  9 c1    regiao coesao Norte   Sul             0 -1.61e- 2 0.0343  4484  -0.0833
    ## 10 c1    regiao coesao Sudeste Sul             0 -5.95e- 3 0.0275  4484  -0.0599
    ## # ℹ 30 more rows
    ## # ℹ 5 more variables: conf.high <dbl>, statistic <dbl>, p <dbl>, p.adj <dbl>,
    ## #   p.adj.signif <chr>
…
``` r
(pwc <- ldat %>% group_by(regiao) %>%
    emmeans_test(coesao ~ time, detailed = T, p.adjust.method = "bonferroni"))
```

    ## # A tibble: 30 × 15
    ##    regiao   term  .y.   group1 group2 null.value  estimate     se    df conf.low
    ##  * <fct>    <chr> <chr> <chr>  <chr>       <dbl>     <dbl>  <dbl> <dbl>    <dbl>
    ##  1 Centro-… time  coes… c1     c2              0 -1.26e-16 0.0411  4484  -0.0806
    ##  2 Centro-… time  coes… c1     c3              0  1.69e-15 0.0411  4484  -0.0806
    ##  3 Centro-… time  coes… c1     c4              0 -1.20e-15 0.0411  4484  -0.0806
    ##  4 Centro-… time  coes… c2     c3              0  1.82e-15 0.0411  4484  -0.0806
    ##  5 Centro-… time  coes… c2     c4              0 -1.08e-15 0.0411  4484  -0.0806
    ##  6 Centro-… time  coes… c3     c4              0 -2.90e-15 0.0411  4484  -0.0806
    ##  7 Nordeste time  coes… c1     c2              0 -3.12e- 2 0.0122  4484  -0.0551
    ##  8 Nordeste time  coes… c1     c3              0 -2.11e- 2 0.0122  4484  -0.0450
    ##  9 Nordeste time  coes… c1     c4              0  6.99e-15 0.0122  4484  -0.0239
    ## 10 Nordeste time  coes… c2     c3              0  1.01e- 2 0.0122  4484  -0.0138
    ## # ℹ 20 more rows
    ## # ℹ 5 more variables: conf.high <dbl>, statistic <dbl>, p <dbl>, p.adj <dbl>,
    ## #   p.adj.signif <chr>
…
ldat <- gather(wdat, key = time, value = coesao, c1, c2, c3, c4) %>%
  convert_as_factor(id, time)
ldat <- remove_group_data(ldat, "coesao", c("time", "porte"), n.limit = 30)
ldat$porte <- factor(ldat$porte, sort(unique(ldat$porte)))
```

### Check assumptions: Identifying Outliers

``` r
outliers <- identify_outliers(group_by(ldat, time, porte), coesao)
(outliers <- outliers[outliers$is.extreme == T,])
```

    ## # A tibble: 50 × 6
    ##    porte                                time  id    coesao is.outlier is.extreme
    ##    <fct>                                <fct> <fct>  <dbl> <lgl>      <lgl>     
    ##  1 Entre 201 e 500 matrículas de escol… c1    JRyG…      3 TRUE       TRUE      
    ##  2 Entre 201 e 500 matrículas de escol… c1    Kaj5…      3 TRUE       TRUE      
    ##  3 Entre 201 e 500 matrículas de escol… c1    W8iX…      4 TRUE       TRUE      
    ##  4 Entre 201 e 500 matrículas de escol… c1    Y7Ho…      4 TRUE       TRUE      
    ##  5 Entre 51 e 200 matrículas de escola… c1    IZ2X…      3 TRUE       TRUE      
    ##  6 Entre 201 e 500 matrículas de escol… c2    cukn…      5 TRUE       TRUE      
    ##  7 Entre 201 e 500 matrículas de escol… c2    EqNp…      4 TRUE       TRUE      
    ##  8 Entre 201 e 500 matrículas de escol… c2    G4NI…      4 TRUE       TRUE      
    ##  9 Entre 201 e 500 matrículas de escol… c2    HsQF…      4 TRUE       TRUE      
    ## 10 Entre 201 e 500 matrículas de escol… c2    i5EZ…      3 TRUE       TRUE      
    ## # ℹ 40 more rows
…
## ANOVA Computation after removing non.normal data

``` r
if (length(non.ids) > 0)
  (res.aov2 <- anova_test(ldat2, dv = coesao, wid = id, between = porte , within = time))
```

## PairWise Computation

``` r
(pwc <- ldat %>% group_by(time) %>%
   emmeans_test(coesao ~ porte, detailed = T, p.adjust.method = "bonferroni"))
```

    ## # A tibble: 24 × 15
    ##    time  term  .y.    group1   group2 null.value  estimate     se    df conf.low
    ##  * <fct> <chr> <chr>  <chr>    <chr>       <dbl>     <dbl>  <dbl> <dbl>    <dbl>
    ##  1 c1    porte coesao Até 50 … Entre…          0 -8.89e- 3 0.0360  4460 -0.0795 
    ##  2 c1    porte coesao Até 50 … Entre…          0  2.76e-15 0.0374  4460 -0.0733 
    ##  3 c1    porte coesao Até 50 … Entre…          0 -6.17e- 3 0.0386  4460 -0.0818 
    ##  4 c1    porte coesao Entre 2… Entre…          0  8.89e- 3 0.0150  4460 -0.0205 
    ##  5 c1    porte coesao Entre 2… Entre…          0  2.72e- 3 0.0177  4460 -0.0319 
    ##  6 c1    porte coesao Entre 5… Entre…          0 -6.17e- 3 0.0204  4460 -0.0461 
    ##  7 c2    porte coesao Até 50 … Entre…          0 -4.30e- 2 0.0360  4460 -0.114  
    ##  8 c2    porte coesao Até 50 … Entre…          0 -1.61e- 2 0.0374  4460 -0.0894 
    ##  9 c2    porte coesao Até 50 … Entre…          0 -6.17e- 3 0.0386  4460 -0.0818 
    ## 10 c2    porte coesao Entre 2… Entre…          0  2.69e- 2 0.0150  4460 -0.00245
    ## # ℹ 14 more rows
    ## # ℹ 5 more variables: conf.high <dbl>, statistic <dbl>, p <dbl>, p.adj <dbl>,
    ## #   p.adj.signif <chr>
…
``` r
(pwc <- ldat %>% group_by(porte) %>%
    emmeans_test(coesao ~ time, detailed = T, p.adjust.method = "bonferroni"))
```

    ## # A tibble: 24 × 15
    ##    porte    term  .y.   group1 group2 null.value  estimate     se    df conf.low
    ##  * <fct>    <chr> <chr> <chr>  <chr>       <dbl>     <dbl>  <dbl> <dbl>    <dbl>
    ##  1 Até 50 … time  coes… c1     c2              0  2.60e-17 0.0497  4460 -0.0975 
    ##  2 Até 50 … time  coes… c1     c3              0 -1.66e-15 0.0497  4460 -0.0975 
    ##  3 Até 50 … time  coes… c1     c4              0 -1.02e-15 0.0497  4460 -0.0975 
    ##  4 Até 50 … time  coes… c2     c3              0 -1.69e-15 0.0497  4460 -0.0975 
    ##  5 Até 50 … time  coes… c2     c4              0 -1.05e-15 0.0497  4460 -0.0975 
    ##  6 Até 50 … time  coes… c3     c4              0  6.37e-16 0.0497  4460 -0.0975 
    ##  7 Entre 2… time  coes… c1     c2              0 -3.41e- 2 0.0110  4460 -0.0556 
    ##  8 Entre 2… time  coes… c1     c3              0 -2.00e- 2 0.0110  4460 -0.0415 
    ##  9 Entre 2… time  coes… c1     c4              0 -2.22e- 3 0.0110  4460 -0.0238 
    ## 10 Entre 2… time  coes… c2     c3              0  1.41e- 2 0.0110  4460 -0.00747
    ## # ℹ 14 more rows
    ## # ℹ 5 more variables: conf.high <dbl>, statistic <dbl>, p <dbl>, p.adj <dbl>,
    ## #   p.adj.signif <chr>
…
