…
## PairWise Computation

``` r
(pwc <- ldat %>% group_by(time) %>%
   emmeans_test(adequacao_a_proposta ~ regiao, detailed = T, p.adjust.method = "bonferroni"))
```

    ## Warning: Expected 2 pieces. Additional pieces discarded in 16 rows [1, 2, 3, 4, 11, 12,
    ## 13, 14, 21, 22, 23, 24, 31, 32, 33, 34].

    ## # A tibble: 40 × 15
    ##    time  term  .y.   group1 group2 null.value  estimate       se    df  conf.low
    ##  * <fct> <chr> <chr> <chr>  <chr>       <dbl>     <dbl>    <dbl> <dbl>     <dbl>
    ##  1 c1    regi… adeq… Centro Oeste           0  3.26e-14 3.99e-14  4484 -4.56e-14
    ##  2 c1    regi… adeq… Centro Oeste           0  7.35e-25 4.86e-14  4484 -9.53e-14
    ##  3 c1    regi… adeq… Centro Oeste           0  7.59e-25 4.05e-14  4484 -7.94e-14
    ##  4 c1    regi… adeq… Centro Oeste           0  7.32e-25 5.10e-14  4484 -9.99e-14
    ##  5 c1    regi… adeq… Norde… Norte           0 -3.26e-14 3.21e-14  4484 -9.55e-14
    ##  6 c1    regi… adeq… Norde… Sudes…          0 -3.26e-14 1.75e-14  4484 -6.70e-14
    ##  7 c1    regi… adeq… Norde… Sul             0 -3.26e-14 3.55e-14  4484 -1.02e-13
    ##  8 c1    regi… adeq… Norte  Sudes…          0  2.32e-26 3.29e-14  4484 -6.44e-14
    ##  9 c1    regi… adeq… Norte  Sul             0 -2.93e-27 4.51e-14  4484 -8.84e-14
    ## 10 c1    regi… adeq… Sudes… Sul             0 -2.62e-26 3.62e-14  4484 -7.10e-14
    ## # ℹ 30 more rows
    ## # ℹ 5 more variables: conf.high <dbl>, statistic <dbl>, p <dbl>, p.adj <dbl>,
    ## #   p.adj.signif <chr>
…
``` r
(pwc <- ldat %>% group_by(regiao) %>%
    emmeans_test(adequacao_a_proposta ~ time, detailed = T, p.adjust.method = "bonferroni"))
```

    ## # A tibble: 30 × 15
    ##    regiao       term  .y.      group1 group2 null.value  estimate       se    df
    ##  * <fct>        <chr> <chr>    <chr>  <chr>       <dbl>     <dbl>    <dbl> <dbl>
    ##  1 Centro-Oeste time  adequac… c1     c2              0  9.33e-25 5.41e-14  4484
    ##  2 Centro-Oeste time  adequac… c1     c3              0  9.33e-25 5.41e-14  4484
    ##  3 Centro-Oeste time  adequac… c1     c4              0  9.26e-25 5.41e-14  4484
    ##  4 Centro-Oeste time  adequac… c2     c3              0  2.38e-29 5.41e-14  4484
    ##  5 Centro-Oeste time  adequac… c2     c4              0 -7.53e-27 5.41e-14  4484
    ##  6 Centro-Oeste time  adequac… c3     c4              0 -7.55e-27 5.41e-14  4484
    ##  7 Nordeste     time  adequac… c1     c2              0 -3.26e-14 1.61e-14  4484
    ##  8 Nordeste     time  adequac… c1     c3              0 -3.26e-14 1.61e-14  4484
    ##  9 Nordeste     time  adequac… c1     c4              0 -3.26e-14 1.61e-14  4484
    ## 10 Nordeste     time  adequac… c2     c3              0  1.01e-27 1.61e-14  4484
    ## # ℹ 20 more rows
    ## # ℹ 6 more variables: conf.low <dbl>, conf.high <dbl>, statistic <dbl>,
    ## #   p <dbl>, p.adj <dbl>, p.adj.signif <chr>
…
## ANOVA Computation after removing non.normal data

``` r
if (length(non.ids) > 0)
  (res.aov2 <- anova_test(ldat2, dv = adequacao_a_proposta, wid = id, between = porte , within = time))
```

## PairWise Computation

``` r
(pwc <- ldat %>% group_by(time) %>%
   emmeans_test(adequacao_a_proposta ~ porte, detailed = T, p.adjust.method = "bonferroni"))
```

    ## # A tibble: 24 × 15
    ##    time  term  .y.   group1 group2 null.value  estimate       se    df  conf.low
    ##  * <fct> <chr> <chr> <chr>  <chr>       <dbl>     <dbl>    <dbl> <dbl>     <dbl>
    ##  1 c1    porte adeq… Até 5… Entre…          0  1.47e-25 1.37e-14  4460 -2.68e-14
    ##  2 c1    porte adeq… Até 5… Entre…          0  1.56e-25 1.42e-14  4460 -2.79e-14
    ##  3 c1    porte adeq… Até 5… Entre…          0 -3.17e-14 1.47e-14  4460 -6.05e-14
    ##  4 c1    porte adeq… Entre… Entre…          0  9.47e-27 5.69e-15  4460 -1.12e-14
    ##  5 c1    porte adeq… Entre… Entre…          0 -3.17e-14 6.71e-15  4460 -4.49e-14
    ##  6 c1    porte adeq… Entre… Entre…          0 -3.17e-14 7.74e-15  4460 -4.69e-14
    ##  7 c2    porte adeq… Até 5… Entre…          0 -4.58e-26 1.37e-14  4460 -2.68e-14
    ##  8 c2    porte adeq… Até 5… Entre…          0 -4.65e-26 1.42e-14  4460 -2.79e-14
    ##  9 c2    porte adeq… Até 5… Entre…          0 -4.59e-26 1.47e-14  4460 -2.87e-14
    ## 10 c2    porte adeq… Entre… Entre…          0 -7.01e-28 5.69e-15  4460 -1.12e-14
    ## # ℹ 14 more rows
    ## # ℹ 5 more variables: conf.high <dbl>, statistic <dbl>, p <dbl>, p.adj <dbl>,
    ## #   p.adj.signif <chr>
…
``` r
(pwc <- ldat %>% group_by(porte) %>%
    emmeans_test(adequacao_a_proposta ~ time, detailed = T, p.adjust.method = "bonferroni"))
```

    ## # A tibble: 24 × 15
    ##    porte term  .y.   group1 group2 null.value  estimate       se    df  conf.low
    ##  * <fct> <chr> <chr> <chr>  <chr>       <dbl>     <dbl>    <dbl> <dbl>     <dbl>
    ##  1 Até … time  adeq… c1     c2              0  2.07e-25 1.89e-14  4460 -3.70e-14
    ##  2 Até … time  adeq… c1     c3              0  2.10e-25 1.89e-14  4460 -3.70e-14
    ##  3 Até … time  adeq… c1     c4              0  2.06e-25 1.89e-14  4460 -3.70e-14
    ##  4 Até … time  adeq… c2     c3              0  2.41e-27 1.89e-14  4460 -3.70e-14
    ##  5 Até … time  adeq… c2     c4              0 -1.67e-27 1.89e-14  4460 -3.70e-14
    ##  6 Até … time  adeq… c3     c4              0 -4.08e-27 1.89e-14  4460 -3.70e-14
    ##  7 Entr… time  adeq… c1     c2              0  6.76e-27 4.18e-15  4460 -8.19e-15
    ##  8 Entr… time  adeq… c1     c3              0  8.62e-27 4.18e-15  4460 -8.19e-15
    ##  9 Entr… time  adeq… c1     c4              0  5.11e-27 4.18e-15  4460 -8.19e-15
    ## 10 Entr… time  adeq… c2     c3              0  1.87e-27 4.18e-15  4460 -8.19e-15
    ## # ℹ 14 more rows
    ## # ℹ 5 more variables: conf.high <dbl>, statistic <dbl>, p <dbl>, p.adj <dbl>,
    ## #   p.adj.signif <chr>
…
