…
ldat <- gather(wdat, key = time, value = registro_formal, c2,c3) %>%
  convert_as_factor(id, time)
ldat <- remove_group_data(ldat, "registro_formal", c("time", "porte"), n.limit = 30)
ldat$porte <- factor(ldat$porte, sort(unique(ldat$porte)))
```

### Check assumptions: Identifying Outliers

``` r
outliers <- identify_outliers(group_by(ldat, time, porte), registro_formal)
(outliers <- outliers[outliers$is.extreme == T,])
```

    ## # A tibble: 49 × 6
    ##    porte                       time  id    registro_formal is.outlier is.extreme
    ##    <fct>                       <fct> <fct>           <dbl> <lgl>      <lgl>     
    ##  1 Até 50 matrículas de escol… c2    hETN…               3 TRUE       TRUE      
    ##  2 Até 50 matrículas de escol… c2    JKEv…               3 TRUE       TRUE      
    ##  3 Até 50 matrículas de escol… c2    jmQz…               4 TRUE       TRUE      
    ##  4 Até 50 matrículas de escol… c2    LFpk…               3 TRUE       TRUE      
    ##  5 Até 50 matrículas de escol… c2    NNoG…               3 TRUE       TRUE      
    ##  6 Até 50 matrículas de escol… c2    OWGq…               3 TRUE       TRUE      
    ##  7 Até 50 matrículas de escol… c2    tdMF…               3 TRUE       TRUE      
    ##  8 Entre 51 e 200 matrículas … c2    dz2v…               4 TRUE       TRUE      
    ##  9 Entre 51 e 200 matrículas … c2    IjV7…               4 TRUE       TRUE      
    ## 10 Entre 51 e 200 matrículas … c2    LAva…               4 TRUE       TRUE      
    ## # ℹ 39 more rows
…
