…
ldat <- gather(wdat, key = time, value = pontuacao, c1, c2, c3, c4) %>%
  convert_as_factor(id, time)
ldat <- remove_group_data(ldat, "pontuacao", c("time", "gender"), n.limit = 30)
ldat$gender <- factor(ldat$gender, sort(unique(ldat$gender)))
```

### Check assumptions: Identifying Outliers

``` r
outliers <- identify_outliers(group_by(ldat, time, gender), pontuacao)
(outliers <- outliers[outliers$is.extreme == T,])
```

    ## # A tibble: 650 × 6
    ##    gender time  id                   pontuacao is.outlier is.extreme
    ##    <fct>  <fct> <fct>                    <dbl> <lgl>      <lgl>     
    ##  1 Female c1    0wDHSyctDDkjP6OPE3c8       5   TRUE       TRUE      
    ##  2 Female c1    1DlydHhFt2IkhBETPR4s       3.5 TRUE       TRUE      
    ##  3 Female c1    46nUNvt4sDOPsC9jnkiG       4.5 TRUE       TRUE      
    ##  4 Female c1    55GlwifTTyiOSKTB9vc9       5   TRUE       TRUE      
    ##  5 Female c1    5AeP0IQ84CerIQVenp2G       3   TRUE       TRUE      
    ##  6 Female c1    6IoOZmGw52LYlznSYXzK       3   TRUE       TRUE      
    ##  7 Female c1    6Xlhq905iNT5kvJFoSW5       5   TRUE       TRUE      
    ##  8 Female c1    7AaMrLZQiyhSoBaer5VH       3.5 TRUE       TRUE      
    ##  9 Female c1    A8Rx15QryUqDDm8ooiZr       3   TRUE       TRUE      
    ## 10 Female c1    cy0oZFPyT8aGHBq7CR9A       3.5 TRUE       TRUE      
    ## # ℹ 640 more rows
…
ldat <- gather(wdat, key = time, value = pontuacao, c1, c2, c3, c4) %>%
  convert_as_factor(id, time)
ldat <- remove_group_data(ldat, "pontuacao", c("time", "localizacao"), n.limit = 30)
ldat$localizacao <- factor(ldat$localizacao, sort(unique(ldat$localizacao)))
```

### Check assumptions: Identifying Outliers

``` r
outliers <- identify_outliers(group_by(ldat, time, localizacao), pontuacao)
(outliers <- outliers[outliers$is.extreme == T,])
```

    ## # A tibble: 643 × 6
    ##    localizacao time  id                   pontuacao is.outlier is.extreme
    ##    <fct>       <fct> <fct>                    <dbl> <lgl>      <lgl>     
    ##  1 Rural       c1    0w3VhiMf67CbcpR6aZCL       5   TRUE       TRUE      
    ##  2 Rural       c1    1PlxEF4tmJySD3G46PLB       3.5 TRUE       TRUE      
    ##  3 Rural       c1    D1HfJKTVqjrpCJx97l3v       5   TRUE       TRUE      
    ##  4 Rural       c1    dieaAtUumyYxX7zGb7Sb       4   TRUE       TRUE      
    ##  5 Rural       c1    DKEsQosaERswlkB803hB       3.5 TRUE       TRUE      
    ##  6 Rural       c1    iutpBZMAtM92qcbyCDHB       3.5 TRUE       TRUE      
    ##  7 Rural       c1    iXqE1bAFPsYn56jTzZQS       5   TRUE       TRUE      
    ##  8 Rural       c1    rijPm1LRjDwEh0XEZEeR       4   TRUE       TRUE      
    ##  9 Rural       c1    snoeXZt7a8Ds16UvPGhk       5   TRUE       TRUE      
    ## 10 Rural       c1    xAo0TzCEx1bIrmjqKgbj       3.5 TRUE       TRUE      
    ## # ℹ 633 more rows
…
ldat <- gather(wdat, key = time, value = pontuacao, c1, c2, c3, c4) %>%
  convert_as_factor(id, time)
ldat <- remove_group_data(ldat, "pontuacao", c("time", "regiao"), n.limit = 30)
ldat$regiao <- factor(ldat$regiao, sort(unique(ldat$regiao)))
```

### Check assumptions: Identifying Outliers

``` r
outliers <- identify_outliers(group_by(ldat, time, regiao), pontuacao)
(outliers <- outliers[outliers$is.extreme == T,])
```

    ## # A tibble: 550 × 6
    ##    regiao       time  id                   pontuacao is.outlier is.extreme
    ##    <fct>        <fct> <fct>                    <dbl> <lgl>      <lgl>     
    ##  1 Centro-Oeste c1    1Z1Qz8zDaMkaAz1Ah80K       5   TRUE       TRUE      
    ##  2 Centro-Oeste c1    AIzwxJCfbDsO8ZT4ZZ4h       3   TRUE       TRUE      
    ##  3 Centro-Oeste c1    KPMkDhksSiEWVEIUT1LG       3.5 TRUE       TRUE      
    ##  4 Centro-Oeste c1    QasU7a9JiIu1XHAPVJk9       3   TRUE       TRUE      
    ##  5 Centro-Oeste c1    qbpdhqIdqf7n3lmU2n4I       3.5 TRUE       TRUE      
    ##  6 Nordeste     c1    0w3VhiMf67CbcpR6aZCL       5   TRUE       TRUE      
    ##  7 Nordeste     c1    0wDHSyctDDkjP6OPE3c8       5   TRUE       TRUE      
    ##  8 Nordeste     c1    1PlxEF4tmJySD3G46PLB       3.5 TRUE       TRUE      
    ##  9 Nordeste     c1    55GlwifTTyiOSKTB9vc9       5   TRUE       TRUE      
    ## 10 Nordeste     c1    7AaMrLZQiyhSoBaer5VH       3.5 TRUE       TRUE      
    ## # ℹ 540 more rows
…
## PairWise Computation

``` r
(pwc <- ldat %>% group_by(time) %>%
   emmeans_test(pontuacao ~ regiao, detailed = T, p.adjust.method = "bonferroni"))
```

    ## Warning: Expected 2 pieces. Additional pieces discarded in 16 rows [1, 2, 3, 4, 11, 12, 13, 14, 21, 22,
    ## 23, 24, 31, 32, 33, 34].

    ## # A tibble: 40 × 15
    ##    time  term   .y.   group1 group2 null.value estimate     se    df conf.low conf.high statistic
    ##  * <fct> <chr>  <chr> <chr>  <chr>       <dbl>    <dbl>  <dbl> <dbl>    <dbl>     <dbl>     <dbl>
    ##  1 c1    regiao pont… Centro Oeste           0   0.0180 0.127   4484   -0.232    0.268     0.142 
    ##  2 c1    regiao pont… Centro Oeste           0   0.0962 0.155   4484   -0.208    0.401     0.619 
    ##  3 c1    regiao pont… Centro Oeste           0  -0.0178 0.129   4484   -0.271    0.236    -0.138 
    ##  4 c1    regiao pont… Centro Oeste           0   0.0860 0.163   4484   -0.233    0.405     0.529 
    ##  5 c1    regiao pont… Norde… Norte           0   0.0781 0.102   4484   -0.123    0.279     0.762 
    ##  6 c1    regiao pont… Norde… Sudes…          0  -0.0359 0.0560  4484   -0.146    0.0739   -0.640 
    ##  7 c1    regiao pont… Norde… Sul             0   0.0680 0.113   4484   -0.154    0.290     0.599 
    ##  8 c1    regiao pont… Norte  Sudes…          0  -0.114  0.105   4484   -0.320    0.0917   -1.09  
    ##  9 c1    regiao pont… Norte  Sul             0  -0.0101 0.144   4484   -0.292    0.272    -0.0704
    ## 10 c1    regiao pont… Sudes… Sul             0   0.104  0.116   4484   -0.123    0.331     0.898 
    ## # ℹ 30 more rows
    ## # ℹ 3 more variables: p <dbl>, p.adj <dbl>, p.adj.signif <chr>
…
``` r
(pwc <- ldat %>% group_by(regiao) %>%
    emmeans_test(pontuacao ~ time, detailed = T, p.adjust.method = "bonferroni"))
```

    ## # A tibble: 30 × 15
    ##    regiao term  .y.   group1 group2 null.value estimate     se    df conf.low conf.high statistic
    ##  * <fct>  <chr> <chr> <chr>  <chr>       <dbl>    <dbl>  <dbl> <dbl>    <dbl>     <dbl>     <dbl>
    ##  1 Centr… time  pont… c1     c2              0  -0.135  0.173   4484  -0.474     0.203     -0.784
    ##  2 Centr… time  pont… c1     c3              0  -0.365  0.173   4484  -0.703    -0.0259    -2.11 
    ##  3 Centr… time  pont… c1     c4              0  -0.0729 0.173   4484  -0.412     0.266     -0.422
    ##  4 Centr… time  pont… c2     c3              0  -0.229  0.173   4484  -0.568     0.109     -1.33 
    ##  5 Centr… time  pont… c2     c4              0   0.0625 0.173   4484  -0.276     0.401      0.362
    ##  6 Centr… time  pont… c3     c4              0   0.292  0.173   4484  -0.0470    0.630      1.69 
    ##  7 Norde… time  pont… c1     c2              0  -0.134  0.0513  4484  -0.234    -0.0333    -2.61 
    ##  8 Norde… time  pont… c1     c3              0  -0.325  0.0513  4484  -0.425    -0.224     -6.34 
    ##  9 Norde… time  pont… c1     c4              0  -0.198  0.0513  4484  -0.299    -0.0977    -3.87 
    ## 10 Norde… time  pont… c2     c3              0  -0.191  0.0513  4484  -0.291    -0.0905    -3.73 
    ## # ℹ 20 more rows
    ## # ℹ 3 more variables: p <dbl>, p.adj <dbl>, p.adj.signif <chr>
…
## PairWise Computation after removing non.normal data

``` r
if (length(non.ids) > 0)
  (pwc2 <- ldat2 %>% group_by(time) %>%
     emmeans_test(pontuacao ~ regiao, detailed = T, p.adjust.method = "bonferroni"))
```

    ## Warning: Expected 2 pieces. Additional pieces discarded in 16 rows [1, 2, 3, 4, 11, 12, 13, 14, 21, 22,
    ## 23, 24, 31, 32, 33, 34].

    ## # A tibble: 40 × 15
    ##    time  term   .y.   group1 group2 null.value estimate     se    df conf.low conf.high statistic
    ##  * <fct> <chr>  <chr> <chr>  <chr>       <dbl>    <dbl>  <dbl> <dbl>    <dbl>     <dbl>     <dbl>
    ##  1 c1    regiao pont… Centro Oeste           0  -0.0236 0.137   4212   -0.293    0.245     -0.172
    ##  2 c1    regiao pont… Centro Oeste           0   0.0507 0.164   4212   -0.272    0.373      0.308
    ##  3 c1    regiao pont… Centro Oeste           0  -0.0595 0.139   4212   -0.332    0.213     -0.428
    ##  4 c1    regiao pont… Centro Oeste           0   0.125  0.367   4212   -0.594    0.844      0.341
    ##  5 c1    regiao pont… Norde… Norte           0   0.0743 0.104   4212   -0.129    0.278      0.716
    ##  6 c1    regiao pont… Norde… Sudes…          0  -0.0359 0.0554  4212   -0.145    0.0728    -0.647
    ##  7 c1    regiao pont… Norde… Sul             0   0.149  0.344   4212   -0.525    0.823      0.432
    ##  8 c1    regiao pont… Norte  Sudes…          0  -0.110  0.106   4212   -0.318    0.0979    -1.04 
    ##  9 c1    regiao pont… Norte  Sul             0   0.0743 0.355   4212   -0.623    0.771      0.209
    ## 10 c1    regiao pont… Sudes… Sul             0   0.184  0.344   4212   -0.491    0.860      0.536
    ## # ℹ 30 more rows
    ## # ℹ 3 more variables: p <dbl>, p.adj <dbl>, p.adj.signif <chr>
…
``` r
if (length(non.ids) > 0)
  (pwc2 <- ldat2 %>% group_by(regiao) %>%
     emmeans_test(pontuacao ~ time, detailed = T, p.adjust.method = "bonferroni"))
```

    ## # A tibble: 30 × 15
    ##    regiao term  .y.   group1 group2 null.value estimate     se    df conf.low conf.high statistic
    ##  * <fct>  <chr> <chr> <chr>  <chr>       <dbl>    <dbl>  <dbl> <dbl>    <dbl>     <dbl>     <dbl>
    ##  1 Centr… time  pont… c1     c2              0  -0.0375 0.187   4212  -0.405    0.330     -0.200 
    ##  2 Centr… time  pont… c1     c3              0  -0.400  0.187   4212  -0.767   -0.0329    -2.14  
    ##  3 Centr… time  pont… c1     c4              0  -0.0125 0.187   4212  -0.380    0.355     -0.0668
    ##  4 Centr… time  pont… c2     c3              0  -0.363  0.187   4212  -0.730    0.00464   -1.94  
    ##  5 Centr… time  pont… c2     c4              0   0.0250 0.187   4212  -0.342    0.392      0.134 
    ##  6 Centr… time  pont… c3     c4              0   0.387  0.187   4212   0.0204   0.755      2.07  
    ##  7 Norde… time  pont… c1     c2              0  -0.134  0.0507  4212  -0.233   -0.0343    -2.64  
    ##  8 Norde… time  pont… c1     c3              0  -0.325  0.0507  4212  -0.424   -0.225     -6.40  
    ##  9 Norde… time  pont… c1     c4              0  -0.198  0.0507  4212  -0.298   -0.0987    -3.91  
    ## 10 Norde… time  pont… c2     c3              0  -0.191  0.0507  4212  -0.290   -0.0915    -3.76  
    ## # ℹ 20 more rows
    ## # ℹ 3 more variables: p <dbl>, p.adj <dbl>, p.adj.signif <chr>
…
ldat <- gather(wdat, key = time, value = pontuacao, c1, c2, c3, c4) %>%
  convert_as_factor(id, time)
ldat <- remove_group_data(ldat, "pontuacao", c("time", "porte"), n.limit = 30)
ldat$porte <- factor(ldat$porte, sort(unique(ldat$porte)))
```

### Check assumptions: Identifying Outliers

``` r
outliers <- identify_outliers(group_by(ldat, time, porte), pontuacao)
(outliers <- outliers[outliers$is.extreme == T,])
```

    ## # A tibble: 555 × 6
    ##    porte                                       time  id           pontuacao is.outlier is.extreme
    ##    <fct>                                       <fct> <fct>            <dbl> <lgl>      <lgl>     
    ##  1 Até 50 matrículas de escolarização          c1    0w3VhiMf67C…       5   TRUE       TRUE      
    ##  2 Até 50 matrículas de escolarização          c1    iutpBZMAtM9…       3.5 TRUE       TRUE      
    ##  3 Até 50 matrículas de escolarização          c1    xAo0TzCEx1b…       3.5 TRUE       TRUE      
    ##  4 Entre 201 e 500 matrículas de escolarização c1    0wDHSyctDDk…       5   TRUE       TRUE      
    ##  5 Entre 201 e 500 matrículas de escolarização c1    46nUNvt4sDO…       4.5 TRUE       TRUE      
    ##  6 Entre 201 e 500 matrículas de escolarização c1    4hmXg2uo4wx…       3.5 TRUE       TRUE      
    ##  7 Entre 201 e 500 matrículas de escolarização c1    55GlwifTTyi…       5   TRUE       TRUE      
    ##  8 Entre 201 e 500 matrículas de escolarização c1    5AeP0IQ84Ce…       3   TRUE       TRUE      
    ##  9 Entre 201 e 500 matrículas de escolarização c1    6IoOZmGw52L…       3   TRUE       TRUE      
    ## 10 Entre 201 e 500 matrículas de escolarização c1    6Xlhq905iNT…       5   TRUE       TRUE      
    ## # ℹ 545 more rows
…
| Effect     |   GGe | DF\[GG\]      | p\[GG\] | p\[GG\]\<.05 |   HFe | DF\[HF\]      | p\[HF\] | p\[HF\]\<.05 |
|:-----------|------:|:--------------|--------:|:-------------|------:|:--------------|--------:|:-------------|
| time       | 0.949 | 2.85, 3167.66 |   0.000 | \*           | 0.951 | 2.85, 3176.63 |   0.000 | \*           |
| porte:time | 0.949 | 8.54, 3167.66 |   0.028 | \*           | 0.951 | 8.56, 3176.63 |   0.028 | \*           |

## PairWise Computation

``` r
(pwc <- ldat %>% group_by(time) %>%
   emmeans_test(pontuacao ~ porte, detailed = T, p.adjust.method = "bonferroni"))
```

    ## # A tibble: 24 × 15
    ##    time  term  .y.    group1 group2 null.value estimate     se    df conf.low conf.high statistic
    ##  * <fct> <chr> <chr>  <chr>  <chr>       <dbl>    <dbl>  <dbl> <dbl>    <dbl>     <dbl>     <dbl>
    ##  1 c1    porte pontu… Até 5… Entre…          0   0.0389 0.152   4460   -0.259    0.336      0.256
    ##  2 c1    porte pontu… Até 5… Entre…          0   0.0533 0.158   4460   -0.256    0.362      0.338
    ##  3 c1    porte pontu… Até 5… Entre…          0  -0.0404 0.163   4460   -0.359    0.278     -0.249
    ##  4 c1    porte pontu… Entre… Entre…          0   0.0144 0.0631  4460   -0.109    0.138      0.229
    ##  5 c1    porte pontu… Entre… Entre…          0  -0.0793 0.0744  4460   -0.225    0.0667    -1.06 
    ##  6 c1    porte pontu… Entre… Entre…          0  -0.0937 0.0859  4460   -0.262    0.0747    -1.09 
    ##  7 c2    porte pontu… Até 5… Entre…          0  -0.0477 0.152   4460   -0.345    0.250     -0.315
    ##  8 c2    porte pontu… Até 5… Entre…          0  -0.0677 0.158   4460   -0.377    0.241     -0.430
    ##  9 c2    porte pontu… Até 5… Entre…          0   0.111  0.163   4460   -0.208    0.430      0.683
    ## 10 c2    porte pontu… Entre… Entre…          0  -0.0200 0.0631  4460   -0.144    0.104     -0.317
    ## # ℹ 14 more rows
    ## # ℹ 3 more variables: p <dbl>, p.adj <dbl>, p.adj.signif <chr>
…
``` r
(pwc <- ldat %>% group_by(porte) %>%
    emmeans_test(pontuacao ~ time, detailed = T, p.adjust.method = "bonferroni"))
```

    ## # A tibble: 24 × 15
    ##    porte  term  .y.   group1 group2 null.value estimate     se    df conf.low conf.high statistic
    ##  * <fct>  <chr> <chr> <chr>  <chr>       <dbl>    <dbl>  <dbl> <dbl>    <dbl>     <dbl>     <dbl>
    ##  1 Até 5… time  pont… c1     c2              0  -0.0758 0.209   4460   -0.486    0.335     -0.362
    ##  2 Até 5… time  pont… c1     c3              0  -0.303  0.209   4460   -0.714    0.108     -1.45 
    ##  3 Até 5… time  pont… c1     c4              0  -0.273  0.209   4460   -0.683    0.138     -1.30 
    ##  4 Até 5… time  pont… c2     c3              0  -0.227  0.209   4460   -0.638    0.183     -1.09 
    ##  5 Até 5… time  pont… c2     c4              0  -0.197  0.209   4460   -0.608    0.214     -0.940
    ##  6 Até 5… time  pont… c3     c4              0   0.0303 0.209   4460   -0.380    0.441      0.145
    ##  7 Entre… time  pont… c1     c2              0  -0.162  0.0463  4460   -0.253   -0.0715    -3.51 
    ##  8 Entre… time  pont… c1     c3              0  -0.320  0.0463  4460   -0.411   -0.229     -6.91 
    ##  9 Entre… time  pont… c1     c4              0  -0.244  0.0463  4460   -0.335   -0.153     -5.26 
    ## 10 Entre… time  pont… c2     c3              0  -0.158  0.0463  4460   -0.248   -0.0669    -3.40 
    ## # ℹ 14 more rows
    ## # ℹ 3 more variables: p <dbl>, p.adj <dbl>, p.adj.signif <chr>
…
## PairWise Computation after removing non.normal data

``` r
if (length(non.ids) > 0)
  (pwc2 <- ldat2 %>% group_by(time) %>%
     emmeans_test(pontuacao ~ porte, detailed = T, p.adjust.method = "bonferroni"))
```

    ## # A tibble: 24 × 15
    ##    time  term  .y.    group1 group2 null.value estimate     se    df conf.low conf.high statistic
    ##  * <fct> <chr> <chr>  <chr>  <chr>       <dbl>    <dbl>  <dbl> <dbl>    <dbl>     <dbl>     <dbl>
    ##  1 c1    porte pontu… Até 5… Entre…          0  -0.0462 0.156   4452   -0.351    0.259     -0.297
    ##  2 c1    porte pontu… Até 5… Entre…          0  -0.0317 0.161   4452   -0.348    0.285     -0.197
    ##  3 c1    porte pontu… Até 5… Entre…          0  -0.125  0.166   4452   -0.451    0.200     -0.755
    ##  4 c1    porte pontu… Entre… Entre…          0   0.0144 0.0628  4452   -0.109    0.138      0.230
    ##  5 c1    porte pontu… Entre… Entre…          0  -0.0793 0.0741  4452   -0.225    0.0661    -1.07 
    ##  6 c1    porte pontu… Entre… Entre…          0  -0.0937 0.0855  4452   -0.261    0.0740    -1.10 
    ##  7 c2    porte pontu… Até 5… Entre…          0  -0.225  0.156   4452   -0.530    0.0805    -1.44 
    ##  8 c2    porte pontu… Até 5… Entre…          0  -0.245  0.161   4452   -0.561    0.0718    -1.52 
    ##  9 c2    porte pontu… Até 5… Entre…          0  -0.0660 0.166   4452   -0.392    0.260     -0.397
    ## 10 c2    porte pontu… Entre… Entre…          0  -0.0200 0.0628  4452   -0.143    0.103     -0.318
    ## # ℹ 14 more rows
    ## # ℹ 3 more variables: p <dbl>, p.adj <dbl>, p.adj.signif <chr>
…
``` r
if (length(non.ids) > 0)
  (pwc2 <- ldat2 %>% group_by(porte) %>%
     emmeans_test(pontuacao ~ time, detailed = T, p.adjust.method = "bonferroni"))
```

    ## # A tibble: 24 × 15
    ##    porte  term  .y.   group1 group2 null.value estimate     se    df conf.low conf.high statistic
    ##  * <fct>  <chr> <chr> <chr>  <chr>       <dbl>    <dbl>  <dbl> <dbl>    <dbl>     <dbl>     <dbl>
    ##  1 Até 5… time  pont… c1     c2              0   0.0161 0.215   4452   -0.406    0.438     0.0749
    ##  2 Até 5… time  pont… c1     c3              0  -0.323  0.215   4452   -0.745    0.0994   -1.50  
    ##  3 Até 5… time  pont… c1     c4              0  -0.387  0.215   4452   -0.809    0.0349   -1.80  
    ##  4 Até 5… time  pont… c2     c3              0  -0.339  0.215   4452   -0.761    0.0833   -1.57  
    ##  5 Até 5… time  pont… c2     c4              0  -0.403  0.215   4452   -0.825    0.0188   -1.87  
    ##  6 Até 5… time  pont… c3     c4              0  -0.0645 0.215   4452   -0.487    0.357    -0.300 
    ##  7 Entre… time  pont… c1     c2              0  -0.162  0.0461  4452   -0.253   -0.0719   -3.52  
    ##  8 Entre… time  pont… c1     c3              0  -0.320  0.0461  4452   -0.410   -0.230    -6.94  
    ##  9 Entre… time  pont… c1     c4              0  -0.244  0.0461  4452   -0.334   -0.153    -5.28  
    ## 10 Entre… time  pont… c2     c3              0  -0.158  0.0461  4452   -0.248   -0.0672   -3.42  
    ## # ℹ 14 more rows
    ## # ℹ 3 more variables: p <dbl>, p.adj <dbl>, p.adj.signif <chr>
…
