…
## PairWise Computation

``` r
(pwc <- ldat %>% group_by(time) %>%
   emmeans_test(ortografia ~ regiao, detailed = T, p.adjust.method = "bonferroni"))
```

    ## Warning: Expected 2 pieces. Additional pieces discarded in 16 rows [1, 2, 3, 4, 11, 12,
    ## 13, 14, 21, 22, 23, 24, 31, 32, 33, 34].

    ## # A tibble: 40 × 15
    ##    time  term   .y.      group1 group2 null.value estimate     se    df conf.low
    ##  * <fct> <chr>  <chr>    <chr>  <chr>       <dbl>    <dbl>  <dbl> <dbl>    <dbl>
    ##  1 c1    regiao ortogra… Centro Oeste           0  -0.169  0.116   4484 -0.397  
    ##  2 c1    regiao ortogra… Centro Oeste           0  -0.643  0.141   4484 -0.921  
    ##  3 c1    regiao ortogra… Centro Oeste           0  -0.0719 0.118   4484 -0.303  
    ##  4 c1    regiao ortogra… Centro Oeste           0   0.164  0.148   4484 -0.127  
    ##  5 c1    regiao ortogra… Norde… Norte           0  -0.474  0.0934  4484 -0.657  
    ##  6 c1    regiao ortogra… Norde… Sudes…          0   0.0971 0.0510  4484 -0.00299
    ##  7 c1    regiao ortogra… Norde… Sul             0   0.333  0.103   4484  0.130  
    ##  8 c1    regiao ortogra… Norte  Sudes…          0   0.571  0.0956  4484  0.384  
    ##  9 c1    regiao ortogra… Norte  Sul             0   0.807  0.131   4484  0.550  
    ## 10 c1    regiao ortogra… Sudes… Sul             0   0.236  0.105   4484  0.0292 
    ## # ℹ 30 more rows
    ## # ℹ 5 more variables: conf.high <dbl>, statistic <dbl>, p <dbl>, p.adj <dbl>,
    ## #   p.adj.signif <chr>
…
``` r
(pwc <- ldat %>% group_by(regiao) %>%
    emmeans_test(ortografia ~ time, detailed = T, p.adjust.method = "bonferroni"))
```

    ## # A tibble: 30 × 15
    ##    regiao    term  .y.   group1 group2 null.value estimate     se    df conf.low
    ##  * <fct>     <chr> <chr> <chr>  <chr>       <dbl>    <dbl>  <dbl> <dbl>    <dbl>
    ##  1 Centro-O… time  orto… c1     c2              0   0.0365 0.157   4484  -0.272 
    ##  2 Centro-O… time  orto… c1     c3              0  -0.146  0.157   4484  -0.454 
    ##  3 Centro-O… time  orto… c1     c4              0  -0.0729 0.157   4484  -0.382 
    ##  4 Centro-O… time  orto… c2     c3              0  -0.182  0.157   4484  -0.491 
    ##  5 Centro-O… time  orto… c2     c4              0  -0.109  0.157   4484  -0.418 
    ##  6 Centro-O… time  orto… c3     c4              0   0.0729 0.157   4484  -0.236 
    ##  7 Nordeste  time  orto… c1     c2              0   0.229  0.0467  4484   0.138 
    ##  8 Nordeste  time  orto… c1     c3              0   0.272  0.0467  4484   0.181 
    ##  9 Nordeste  time  orto… c1     c4              0   0.286  0.0467  4484   0.195 
    ## 10 Nordeste  time  orto… c2     c3              0   0.0433 0.0467  4484  -0.0483
    ## # ℹ 20 more rows
    ## # ℹ 5 more variables: conf.high <dbl>, statistic <dbl>, p <dbl>, p.adj <dbl>,
    ## #   p.adj.signif <chr>
…
## PairWise Computation after removing non.normal data

``` r
if (length(non.ids) > 0)
  (pwc2 <- ldat2 %>% group_by(time) %>%
     emmeans_test(ortografia ~ regiao, detailed = T, p.adjust.method = "bonferroni"))
```

    ## Warning: Expected 2 pieces. Additional pieces discarded in 16 rows [1, 2, 3, 4, 11, 12,
    ## 13, 14, 21, 22, 23, 24, 31, 32, 33, 34].

    ## # A tibble: 40 × 15
    ##    time  term   .y.      group1 group2 null.value estimate     se    df conf.low
    ##  * <fct> <chr>  <chr>    <chr>  <chr>       <dbl>    <dbl>  <dbl> <dbl>    <dbl>
    ##  1 c1    regiao ortogra… Centro Oeste           0   0.248  0.775   3832 -1.27   
    ##  2 c1    regiao ortogra… Centro Oeste           0  -0.342  0.795   3832 -1.90   
    ##  3 c1    regiao ortogra… Centro Oeste           0   0.345  0.776   3832 -1.18   
    ##  4 c1    regiao ortogra… Centro Oeste           0   0.100  0.849   3832 -1.56   
    ##  5 c1    regiao ortogra… Norde… Norte           0  -0.590  0.181   3832 -0.944  
    ##  6 c1    regiao ortogra… Norde… Sudes…          0   0.0971 0.0513  3832 -0.00344
    ##  7 c1    regiao ortogra… Norde… Sul             0  -0.148  0.348   3832 -0.830  
    ##  8 c1    regiao ortogra… Norte  Sudes…          0   0.687  0.182   3832  0.330  
    ##  9 c1    regiao ortogra… Norte  Sul             0   0.442  0.389   3832 -0.321  
    ## 10 c1    regiao ortogra… Sudes… Sul             0  -0.245  0.349   3832 -0.928  
    ## # ℹ 30 more rows
    ## # ℹ 5 more variables: conf.high <dbl>, statistic <dbl>, p <dbl>, p.adj <dbl>,
    ## #   p.adj.signif <chr>
…
``` r
if (length(non.ids) > 0)
  (pwc2 <- ldat2 %>% group_by(regiao) %>%
     emmeans_test(ortografia ~ time, detailed = T, p.adjust.method = "bonferroni"))
```

    ## # A tibble: 30 × 15
    ##    regiao   term  .y.   group1 group2 null.value  estimate     se    df conf.low
    ##  * <fct>    <chr> <chr> <chr>  <chr>       <dbl>     <dbl>  <dbl> <dbl>    <dbl>
    ##  1 Centro-… time  orto… c1     c2              0  4.55e-12 1.10    3832  -2.15  
    ##  2 Centro-… time  orto… c1     c3              0  1.00e+ 0 1.10    3832  -1.15  
    ##  3 Centro-… time  orto… c1     c4              0  4.67e-12 1.10    3832  -2.15  
    ##  4 Centro-… time  orto… c2     c3              0  1.00e+ 0 1.10    3832  -1.15  
    ##  5 Centro-… time  orto… c2     c4              0  1.22e-13 1.10    3832  -2.15  
    ##  6 Centro-… time  orto… c3     c4              0 -1.00e+ 0 1.10    3832  -3.15  
    ##  7 Nordeste time  orto… c1     c2              0  2.29e- 1 0.0469  3832   0.137 
    ##  8 Nordeste time  orto… c1     c3              0  2.72e- 1 0.0469  3832   0.180 
    ##  9 Nordeste time  orto… c1     c4              0  2.86e- 1 0.0469  3832   0.194 
    ## 10 Nordeste time  orto… c2     c3              0  4.33e- 2 0.0469  3832  -0.0487
    ## # ℹ 20 more rows
    ## # ℹ 5 more variables: conf.high <dbl>, statistic <dbl>, p <dbl>, p.adj <dbl>,
    ## #   p.adj.signif <chr>
…
| Effect     |   GGe | DF\[GG\]      | p\[GG\] | p\[GG\]\<.05 |   HFe | DF\[HF\]      | p\[HF\] | p\[HF\]\<.05 |
|:-----------|------:|:--------------|--------:|:-------------|------:|:--------------|--------:|:-------------|
| time       | 0.991 | 2.97, 3218.55 |   0.000 | \*           | 0.994 | 2.98, 3228.38 |   0.000 | \*           |
| porte:time | 0.991 | 5.94, 3218.55 |   0.019 | \*           | 0.994 | 5.96, 3228.38 |   0.019 | \*           |

## PairWise Computation

``` r
(pwc <- ldat %>% group_by(time) %>%
   emmeans_test(ortografia ~ porte, detailed = T, p.adjust.method = "bonferroni"))
```

    ## # A tibble: 24 × 15
    ##    time  term  .y.       group1 group2 null.value estimate     se    df conf.low
    ##  * <fct> <chr> <chr>     <chr>  <chr>       <dbl>    <dbl>  <dbl> <dbl>    <dbl>
    ##  1 c1    porte ortograf… Até 5… Entre…          0 -6.11e-2 0.139   4460 -0.334  
    ##  2 c1    porte ortograf… Até 5… Entre…          0 -6.18e-2 0.144   4460 -0.345  
    ##  3 c1    porte ortograf… Até 5… Entre…          0  6.76e-2 0.149   4460 -0.224  
    ##  4 c1    porte ortograf… Entre… Entre…          0 -6.78e-4 0.0578  4460 -0.114  
    ##  5 c1    porte ortograf… Entre… Entre…          0  1.29e-1 0.0682  4460 -0.00490
    ##  6 c1    porte ortograf… Entre… Entre…          0  1.29e-1 0.0787  4460 -0.0248 
    ##  7 c2    porte ortograf… Até 5… Entre…          0  3.32e-2 0.139   4460 -0.239  
    ##  8 c2    porte ortograf… Até 5… Entre…          0 -8.85e-2 0.144   4460 -0.372  
    ##  9 c2    porte ortograf… Até 5… Entre…          0  2.11e-2 0.149   4460 -0.271  
    ## 10 c2    porte ortograf… Entre… Entre…          0 -1.22e-1 0.0578  4460 -0.235  
    ## # ℹ 14 more rows
    ## # ℹ 5 more variables: conf.high <dbl>, statistic <dbl>, p <dbl>, p.adj <dbl>,
    ## #   p.adj.signif <chr>
…
``` r
(pwc <- ldat %>% group_by(porte) %>%
    emmeans_test(ortografia ~ time, detailed = T, p.adjust.method = "bonferroni"))
```

    ## # A tibble: 24 × 15
    ##    porte     term  .y.   group1 group2 null.value estimate     se    df conf.low
    ##  * <fct>     <chr> <chr> <chr>  <chr>       <dbl>    <dbl>  <dbl> <dbl>    <dbl>
    ##  1 Até 50 m… time  orto… c1     c2              0   0.212  0.192   4460  -0.164 
    ##  2 Até 50 m… time  orto… c1     c3              0   0.273  0.192   4460  -0.103 
    ##  3 Até 50 m… time  orto… c1     c4              0   0.500  0.192   4460   0.124 
    ##  4 Até 50 m… time  orto… c2     c3              0   0.0606 0.192   4460  -0.316 
    ##  5 Até 50 m… time  orto… c2     c4              0   0.288  0.192   4460  -0.0882
    ##  6 Até 50 m… time  orto… c3     c4              0   0.227  0.192   4460  -0.149 
    ##  7 Entre 20… time  orto… c1     c2              0   0.306  0.0424  4460   0.223 
    ##  8 Entre 20… time  orto… c1     c3              0   0.291  0.0424  4460   0.208 
    ##  9 Entre 20… time  orto… c1     c4              0   0.321  0.0424  4460   0.238 
    ## 10 Entre 20… time  orto… c2     c3              0  -0.0153 0.0424  4460  -0.0985
    ## # ℹ 14 more rows
    ## # ℹ 5 more variables: conf.high <dbl>, statistic <dbl>, p <dbl>, p.adj <dbl>,
    ## #   p.adj.signif <chr>
…
