…
ldat <- gather(wdat, key = time, value = segmentacao, c1, c2, c3, c4) %>%
  convert_as_factor(id, time)
ldat <- remove_group_data(ldat, "segmentacao", c("time", "gender"), n.limit = 30)
ldat$gender <- factor(ldat$gender, sort(unique(ldat$gender)))
```

### Check assumptions: Identifying Outliers

``` r
outliers <- identify_outliers(group_by(ldat, time, gender), segmentacao)
(outliers <- outliers[outliers$is.extreme == T,])
```

    ## # A tibble: 429 × 6
    ##    gender time  id                   segmentacao is.outlier is.extreme
    ##    <fct>  <fct> <fct>                      <dbl> <lgl>      <lgl>     
    ##  1 Female c1    1Ao7d6oeWOGn5CkNSJxn         4.5 TRUE       TRUE      
    ##  2 Female c1    1rGKIQ7fdZBOxxGdPFrp         5   TRUE       TRUE      
    ##  3 Female c1    2DvDBlRadL6QdD6eJdDP         5   TRUE       TRUE      
    ##  4 Female c1    2JRv4aJX5ZiAWFd1UXo7         3.5 TRUE       TRUE      
    ##  5 Female c1    2qbgEyCWhU8ChVoKwmf5         5   TRUE       TRUE      
    ##  6 Female c1    46nUNvt4sDOPsC9jnkiG         3.5 TRUE       TRUE      
    ##  7 Female c1    4AM4nonwJ45LiMy6b4lp         4.5 TRUE       TRUE      
    ##  8 Female c1    4tC0rHbjrsSU8gnHaaJ3         3.5 TRUE       TRUE      
    ##  9 Female c1    4tkeMKZn4I9ZqCsB9HtZ         4.5 TRUE       TRUE      
    ## 10 Female c1    5AeP0IQ84CerIQVenp2G         4.5 TRUE       TRUE      
    ## # ℹ 419 more rows
…
ldat <- gather(wdat, key = time, value = segmentacao, c1, c2, c3, c4) %>%
  convert_as_factor(id, time)
ldat <- remove_group_data(ldat, "segmentacao", c("time", "localizacao"), n.limit = 30)
ldat$localizacao <- factor(ldat$localizacao, sort(unique(ldat$localizacao)))
```

### Check assumptions: Identifying Outliers

``` r
outliers <- identify_outliers(group_by(ldat, time, localizacao), segmentacao)
(outliers <- outliers[outliers$is.extreme == T,])
```

    ## # A tibble: 446 × 6
    ##    localizacao time  id                   segmentacao is.outlier is.extreme
    ##    <fct>       <fct> <fct>                      <dbl> <lgl>      <lgl>     
    ##  1 Rural       c1    1Ao7d6oeWOGn5CkNSJxn         4.5 TRUE       TRUE      
    ##  2 Rural       c1    2wBgWJVF1mK6rnsBiZ99         3   TRUE       TRUE      
    ##  3 Rural       c1    7AsCrRYMyhVRQHX4kZdc         3   TRUE       TRUE      
    ##  4 Rural       c1    D3zCmRj97N1xSw2RGyIX         4.5 TRUE       TRUE      
    ##  5 Rural       c1    fETGhIde8enSW1EPqWMS         3   TRUE       TRUE      
    ##  6 Rural       c1    GRXCU0bF6TElSKj1QNCL         4.5 TRUE       TRUE      
    ##  7 Rural       c1    hruSgzhJbTGT2UHE0CPK         4.5 TRUE       TRUE      
    ##  8 Rural       c1    k1Byic1gWlgNIFT8qDpn         4.5 TRUE       TRUE      
    ##  9 Rural       c1    KBTZEriJAFvcWw48Xxgc         3.5 TRUE       TRUE      
    ## 10 Rural       c1    m5AeVuITWa7uCAG6h1Qh         3   TRUE       TRUE      
    ## # ℹ 436 more rows
…
ldat <- gather(wdat, key = time, value = segmentacao, c1, c2, c3, c4) %>%
  convert_as_factor(id, time)
ldat <- remove_group_data(ldat, "segmentacao", c("time", "regiao"), n.limit = 30)
ldat$regiao <- factor(ldat$regiao, sort(unique(ldat$regiao)))
```

### Check assumptions: Identifying Outliers

``` r
outliers <- identify_outliers(group_by(ldat, time, regiao), segmentacao)
(outliers <- outliers[outliers$is.extreme == T,])
```

    ## # A tibble: 446 × 6
    ##    regiao       time  id                   segmentacao is.outlier is.extreme
    ##    <fct>        <fct> <fct>                      <dbl> <lgl>      <lgl>     
    ##  1 Centro-Oeste c1    9jd1C85ixCoJf3EINYfx         5   TRUE       TRUE      
    ##  2 Centro-Oeste c1    aOGxFSPrreKjHqmQIKKA         4.5 TRUE       TRUE      
    ##  3 Centro-Oeste c1    atydp19vM0PjiOQCWemR         5   TRUE       TRUE      
    ##  4 Centro-Oeste c1    LC1uBEBe3hZn8Q1mQe7A         4.5 TRUE       TRUE      
    ##  5 Centro-Oeste c1    oB5KNHL8aUZyGZK3jNIP         4.5 TRUE       TRUE      
    ##  6 Centro-Oeste c1    q1RelulkOweB4lCMWfxy         4.5 TRUE       TRUE      
    ##  7 Centro-Oeste c1    TupwpKp0mSf2xCyx7nhJ         4.5 TRUE       TRUE      
    ##  8 Centro-Oeste c1    wSTeItj2YyZhZQ0kiCqW         4.5 TRUE       TRUE      
    ##  9 Centro-Oeste c1    ygFJxqySABX8ax57ihIq         4.5 TRUE       TRUE      
    ## 10 Nordeste     c1    1Ao7d6oeWOGn5CkNSJxn         4.5 TRUE       TRUE      
    ## # ℹ 436 more rows
…
## PairWise Computation

``` r
(pwc <- ldat %>% group_by(time) %>%
   emmeans_test(segmentacao ~ regiao, detailed = T, p.adjust.method = "bonferroni"))
```

    ## Warning: Expected 2 pieces. Additional pieces discarded in 16 rows [1, 2, 3, 4, 11, 12, 13, 14, 21, 22,
    ## 23, 24, 31, 32, 33, 34].

    ## # A tibble: 40 × 15
    ##    time  term   .y.   group1 group2 null.value estimate     se    df conf.low conf.high statistic
    ##  * <fct> <chr>  <chr> <chr>  <chr>       <dbl>    <dbl>  <dbl> <dbl>    <dbl>     <dbl>     <dbl>
    ##  1 c1    regiao segm… Centro Oeste           0  0.0825  0.0352  4484  0.0135    0.151       2.34 
    ##  2 c1    regiao segm… Centro Oeste           0  0.134   0.0429  4484  0.0498    0.218       3.12 
    ##  3 c1    regiao segm… Centro Oeste           0  0.130   0.0357  4484  0.0598    0.200       3.64 
    ##  4 c1    regiao segm… Centro Oeste           0  0.0743  0.0449  4484 -0.0138    0.162       1.65 
    ##  5 c1    regiao segm… Norde… Norte           0  0.0513  0.0283  4484 -0.00411   0.107       1.82 
    ##  6 c1    regiao segm… Norde… Sudes…          0  0.0474  0.0155  4484  0.0171    0.0777      3.06 
    ##  7 c1    regiao segm… Norde… Sul             0 -0.00821 0.0313  4484 -0.0696    0.0532     -0.262
    ##  8 c1    regiao segm… Norte  Sudes…          0 -0.00396 0.0290  4484 -0.0607    0.0528     -0.137
    ##  9 c1    regiao segm… Norte  Sul             0 -0.0596  0.0397  4484 -0.137     0.0184     -1.50 
    ## 10 c1    regiao segm… Sudes… Sul             0 -0.0556  0.0319  4484 -0.118     0.00700    -1.74 
    ## # ℹ 30 more rows
    ## # ℹ 3 more variables: p <dbl>, p.adj <dbl>, p.adj.signif <chr>
…
``` r
(pwc <- ldat %>% group_by(regiao) %>%
    emmeans_test(segmentacao ~ time, detailed = T, p.adjust.method = "bonferroni"))
```

    ## # A tibble: 30 × 15
    ##    regiao term  .y.   group1 group2 null.value estimate     se    df conf.low conf.high statistic
    ##  * <fct>  <chr> <chr> <chr>  <chr>       <dbl>    <dbl>  <dbl> <dbl>    <dbl>     <dbl>     <dbl>
    ##  1 Centr… time  segm… c1     c2              0  1.37e-1 0.0477  4484  4.37e-2    0.231     2.88  
    ##  2 Centr… time  segm… c1     c3              0  1.04e-1 0.0477  4484  1.07e-2    0.198     2.18  
    ##  3 Centr… time  segm… c1     c4              0  7.29e-2 0.0477  4484 -2.06e-2    0.166     1.53  
    ##  4 Centr… time  segm… c2     c3              0 -3.30e-2 0.0477  4484 -1.26e-1    0.0605   -0.692 
    ##  5 Centr… time  segm… c2     c4              0 -6.42e-2 0.0477  4484 -1.58e-1    0.0293   -1.35  
    ##  6 Centr… time  segm… c3     c4              0 -3.13e-2 0.0477  4484 -1.25e-1    0.0622   -0.655 
    ##  7 Norde… time  segm… c1     c2              0 -5.66e-3 0.0142  4484 -3.34e-2    0.0221   -0.400 
    ##  8 Norde… time  segm… c1     c3              0  2.20e-2 0.0142  4484 -5.73e-3    0.0498    1.56  
    ##  9 Norde… time  segm… c1     c4              0  9.17e-4 0.0142  4484 -2.68e-2    0.0287    0.0648
    ## 10 Norde… time  segm… c2     c3              0  2.77e-2 0.0142  4484 -6.98e-5    0.0554    1.96  
    ## # ℹ 20 more rows
    ## # ℹ 3 more variables: p <dbl>, p.adj <dbl>, p.adj.signif <chr>
…
## PairWise Computation after removing non.normal data

``` r
if (length(non.ids) > 0)
  (pwc2 <- ldat2 %>% group_by(time) %>%
     emmeans_test(segmentacao ~ regiao, detailed = T, p.adjust.method = "bonferroni"))
```

    ## Warning: Expected 2 pieces. Additional pieces discarded in 16 rows [1, 2, 3, 4, 11, 12, 13, 14, 21, 22,
    ## 23, 24, 31, 32, 33, 34].

    ## # A tibble: 40 × 15
    ##    time  term   .y.   group1 group2 null.value estimate     se    df conf.low conf.high statistic
    ##  * <fct> <chr>  <chr> <chr>  <chr>       <dbl>    <dbl>  <dbl> <dbl>    <dbl>     <dbl>     <dbl>
    ##  1 c1    regiao segm… Centro Oeste           0   0.0988 0.0357  4388   0.0288    0.169      2.77 
    ##  2 c1    regiao segm… Centro Oeste           0   0.115  0.0446  4388   0.0274    0.202      2.57 
    ##  3 c1    regiao segm… Centro Oeste           0   0.146  0.0362  4388   0.0752    0.217      4.04 
    ##  4 c1    regiao segm… Centro Oeste           0   0.0726 0.0449  4388  -0.0154    0.161      1.62 
    ##  5 c1    regiao segm… Norde… Norte           0   0.0160 0.0299  4388  -0.0427    0.0746     0.534
    ##  6 c1    regiao segm… Norde… Sudes…          0   0.0474 0.0148  4388   0.0184    0.0763     3.21 
    ##  7 c1    regiao segm… Norde… Sul             0  -0.0262 0.0304  4388  -0.0857    0.0333    -0.864
    ##  8 c1    regiao segm… Norte  Sudes…          0   0.0314 0.0305  4388  -0.0284    0.0912     1.03 
    ##  9 c1    regiao segm… Norte  Sul             0  -0.0422 0.0404  4388  -0.121     0.0370    -1.04 
    ## 10 c1    regiao segm… Sudes… Sul             0  -0.0736 0.0309  4388  -0.134    -0.0130    -2.38 
    ## # ℹ 30 more rows
    ## # ℹ 3 more variables: p <dbl>, p.adj <dbl>, p.adj.signif <chr>
…
``` r
if (length(non.ids) > 0)
  (pwc2 <- ldat2 %>% group_by(regiao) %>%
     emmeans_test(segmentacao ~ time, detailed = T, p.adjust.method = "bonferroni"))
```

    ## # A tibble: 30 × 15
    ##    regiao term  .y.   group1 group2 null.value estimate     se    df conf.low conf.high statistic
    ##  * <fct>  <chr> <chr> <chr>  <chr>       <dbl>    <dbl>  <dbl> <dbl>    <dbl>     <dbl>     <dbl>
    ##  1 Centr… time  segm… c1     c2              0  1.09e-1 0.0487  4388  0.0137     0.205     2.24  
    ##  2 Centr… time  segm… c1     c3              0  1.19e-1 0.0487  4388  0.0236     0.215     2.44  
    ##  3 Centr… time  segm… c1     c4              0  1.31e-1 0.0487  4388  0.0355     0.226     2.69  
    ##  4 Centr… time  segm… c2     c3              0  9.92e-3 0.0487  4388 -0.0855     0.105     0.204 
    ##  5 Centr… time  segm… c2     c4              0  2.18e-2 0.0487  4388 -0.0736     0.117     0.448 
    ##  6 Centr… time  segm… c3     c4              0  1.19e-2 0.0487  4388 -0.0836     0.107     0.244 
    ##  7 Norde… time  segm… c1     c2              0 -5.66e-3 0.0135  4388 -0.0322     0.0208   -0.419 
    ##  8 Norde… time  segm… c1     c3              0  2.20e-2 0.0135  4388 -0.00448    0.0485    1.63  
    ##  9 Norde… time  segm… c1     c4              0  9.17e-4 0.0135  4388 -0.0256     0.0274    0.0679
    ## 10 Norde… time  segm… c2     c3              0  2.77e-2 0.0135  4388  0.00117    0.0542    2.05  
    ## # ℹ 20 more rows
    ## # ℹ 3 more variables: p <dbl>, p.adj <dbl>, p.adj.signif <chr>
…
ldat <- gather(wdat, key = time, value = segmentacao, c1, c2, c3, c4) %>%
  convert_as_factor(id, time)
ldat <- remove_group_data(ldat, "segmentacao", c("time", "porte"), n.limit = 30)
ldat$porte <- factor(ldat$porte, sort(unique(ldat$porte)))
```

### Check assumptions: Identifying Outliers

``` r
outliers <- identify_outliers(group_by(ldat, time, porte), segmentacao)
(outliers <- outliers[outliers$is.extreme == T,])
```

    ## # A tibble: 443 × 6
    ##    porte                                       time  id         segmentacao is.outlier is.extreme
    ##    <fct>                                       <fct> <fct>            <dbl> <lgl>      <lgl>     
    ##  1 Até 50 matrículas de escolarização          c1    KBTZEriJA…         3.5 TRUE       TRUE      
    ##  2 Entre 201 e 500 matrículas de escolarização c1    1Ao7d6oeW…         4.5 TRUE       TRUE      
    ##  3 Entre 201 e 500 matrículas de escolarização c1    1rGKIQ7fd…         5   TRUE       TRUE      
    ##  4 Entre 201 e 500 matrículas de escolarização c1    2qbgEyCWh…         5   TRUE       TRUE      
    ##  5 Entre 201 e 500 matrículas de escolarização c1    46nUNvt4s…         3.5 TRUE       TRUE      
    ##  6 Entre 201 e 500 matrículas de escolarização c1    4AM4nonwJ…         4.5 TRUE       TRUE      
    ##  7 Entre 201 e 500 matrículas de escolarização c1    4tC0rHbjr…         3.5 TRUE       TRUE      
    ##  8 Entre 201 e 500 matrículas de escolarização c1    53lsfK6za…         3   TRUE       TRUE      
    ##  9 Entre 201 e 500 matrículas de escolarização c1    5AeP0IQ84…         4.5 TRUE       TRUE      
    ## 10 Entre 201 e 500 matrículas de escolarização c1    5aLGVYNAM…         3   TRUE       TRUE      
    ## # ℹ 433 more rows
…
## ANOVA Computation after removing non.normal data

``` r
if (length(non.ids) > 0)
  (res.aov2 <- anova_test(ldat2, dv = segmentacao, wid = id, between = porte , within = time))
```

## PairWise Computation

``` r
(pwc <- ldat %>% group_by(time) %>%
   emmeans_test(segmentacao ~ porte, detailed = T, p.adjust.method = "bonferroni"))
```

    ## # A tibble: 24 × 15
    ##    time  term  .y.    group1 group2 null.value estimate     se    df conf.low conf.high statistic
    ##  * <fct> <chr> <chr>  <chr>  <chr>       <dbl>    <dbl>  <dbl> <dbl>    <dbl>     <dbl>     <dbl>
    ##  1 c1    porte segme… Até 5… Entre…          0 -0.0240  0.0417  4460 -0.106     0.0577     -0.577
    ##  2 c1    porte segme… Até 5… Entre…          0 -0.0513  0.0433  4460 -0.136     0.0336     -1.18 
    ##  3 c1    porte segme… Até 5… Entre…          0 -0.0368  0.0447  4460 -0.124     0.0508     -0.823
    ##  4 c1    porte segme… Entre… Entre…          0 -0.0273  0.0173  4460 -0.0612    0.00673    -1.57 
    ##  5 c1    porte segme… Entre… Entre…          0 -0.0127  0.0205  4460 -0.0528    0.0274     -0.622
    ##  6 c1    porte segme… Entre… Entre…          0  0.0145  0.0236  4460 -0.0317    0.0608      0.616
    ##  7 c2    porte segme… Até 5… Entre…          0  0.0114  0.0417  4460 -0.0703    0.0931      0.273
    ##  8 c2    porte segme… Até 5… Entre…          0  0.0194  0.0433  4460 -0.0656    0.104       0.447
    ##  9 c2    porte segme… Até 5… Entre…          0  0.0789  0.0447  4460 -0.00866   0.166       1.77 
    ## 10 c2    porte segme… Entre… Entre…          0  0.00797 0.0173  4460 -0.0260    0.0420      0.460
    ## # ℹ 14 more rows
    ## # ℹ 3 more variables: p <dbl>, p.adj <dbl>, p.adj.signif <chr>
…
``` r
(pwc <- ldat %>% group_by(porte) %>%
    emmeans_test(segmentacao ~ time, detailed = T, p.adjust.method = "bonferroni"))
```

    ## # A tibble: 24 × 15
    ##    porte  term  .y.   group1 group2 null.value estimate     se    df conf.low conf.high statistic
    ##  * <fct>  <chr> <chr> <chr>  <chr>       <dbl>    <dbl>  <dbl> <dbl>    <dbl>     <dbl>     <dbl>
    ##  1 Até 5… time  segm… c1     c2              0  -0.0606 0.0576  4460  -0.173   0.0522      -1.05 
    ##  2 Até 5… time  segm… c1     c3              0  -0.0303 0.0576  4460  -0.143   0.0825      -0.526
    ##  3 Até 5… time  segm… c1     c4              0   0.0152 0.0576  4460  -0.0977  0.128        0.263
    ##  4 Até 5… time  segm… c2     c3              0   0.0303 0.0576  4460  -0.0825  0.143        0.526
    ##  5 Até 5… time  segm… c2     c4              0   0.0758 0.0576  4460  -0.0371  0.189        1.32 
    ##  6 Até 5… time  segm… c3     c4              0   0.0455 0.0576  4460  -0.0674  0.158        0.790
    ##  7 Entre… time  segm… c1     c2              0  -0.0252 0.0127  4460  -0.0501 -0.000233    -1.98 
    ##  8 Entre… time  segm… c1     c3              0   0.0104 0.0127  4460  -0.0146  0.0353       0.815
    ##  9 Entre… time  segm… c1     c4              0  -0.0104 0.0127  4460  -0.0353  0.0146      -0.815
    ## 10 Entre… time  segm… c2     c3              0   0.0356 0.0127  4460   0.0106  0.0605       2.79 
    ## # ℹ 14 more rows
    ## # ℹ 3 more variables: p <dbl>, p.adj <dbl>, p.adj.signif <chr>
…
