…
ldat <- gather(wdat, key = time, value = score, c1, c2, c3, c4) %>%
  convert_as_factor(id, time)
ldat <- remove_group_data(ldat, "score", c("time", "gender"), n.limit = 30)
ldat$gender <- factor(ldat$gender, sort(unique(ldat$gender)))
```

### Check assumptions: Identifying Outliers

``` r
outliers <- identify_outliers(group_by(ldat, time, gender), score)
(outliers <- outliers[outliers$is.extreme == T,])
```

    ## # A tibble: 21 × 6
    ##    gender time  id                   score is.outlier is.extreme
    ##    <fct>  <fct> <fct>                <dbl> <lgl>      <lgl>     
    ##  1 Female c1    Ru3SPRo97iXBvXbvneKh  3.83 TRUE       TRUE      
    ##  2 Female c1    vc8pPoYau2AIAuCQJipW  3.83 TRUE       TRUE      
    ##  3 Male   c1    0w3VhiMf67CbcpR6aZCL  3.83 TRUE       TRUE      
    ##  4 Male   c1    1Z1Qz8zDaMkaAz1Ah80K  3.83 TRUE       TRUE      
    ##  5 Male   c1    D1HfJKTVqjrpCJx97l3v  3.75 TRUE       TRUE      
    ##  6 Male   c1    uCBI6gnllsawWJlgqkr5  3.83 TRUE       TRUE      
    ##  7 Female c2    oGUJyWRMYYbF9PNegJZh  3.83 TRUE       TRUE      
    ##  8 Male   c2    cuknOzzwN4oCRum5U5ph  4    TRUE       TRUE      
    ##  9 Male   c2    HsQF2J0r79mHSWNe4l6n  3.83 TRUE       TRUE      
    ## 10 Male   c2    j31LU8Xwm0EQ7Mihkhjj  3.83 TRUE       TRUE      
    ## # ℹ 11 more rows
…
ldat <- gather(wdat, key = time, value = score, c1, c2, c3, c4) %>%
  convert_as_factor(id, time)
ldat <- remove_group_data(ldat, "score", c("time", "localizacao"), n.limit = 30)
ldat$localizacao <- factor(ldat$localizacao, sort(unique(ldat$localizacao)))
```

### Check assumptions: Identifying Outliers

``` r
outliers <- identify_outliers(group_by(ldat, time, localizacao), score)
(outliers <- outliers[outliers$is.extreme == T,])
```

    ## # A tibble: 22 × 6
    ##    localizacao time  id                   score is.outlier is.extreme
    ##    <fct>       <fct> <fct>                <dbl> <lgl>      <lgl>     
    ##  1 Rural       c1    0w3VhiMf67CbcpR6aZCL  3.83 TRUE       TRUE      
    ##  2 Rural       c1    D1HfJKTVqjrpCJx97l3v  3.75 TRUE       TRUE      
    ##  3 Urbana      c1    1Z1Qz8zDaMkaAz1Ah80K  3.83 TRUE       TRUE      
    ##  4 Urbana      c1    Ru3SPRo97iXBvXbvneKh  3.83 TRUE       TRUE      
    ##  5 Urbana      c1    uCBI6gnllsawWJlgqkr5  3.83 TRUE       TRUE      
    ##  6 Urbana      c1    vc8pPoYau2AIAuCQJipW  3.83 TRUE       TRUE      
    ##  7 Rural       c2    z3p6Ot4uvkPmGXOS9D3e  3.83 TRUE       TRUE      
    ##  8 Urbana      c2    cuknOzzwN4oCRum5U5ph  4    TRUE       TRUE      
    ##  9 Urbana      c2    HsQF2J0r79mHSWNe4l6n  3.83 TRUE       TRUE      
    ## 10 Urbana      c2    j31LU8Xwm0EQ7Mihkhjj  3.83 TRUE       TRUE      
    ## # ℹ 12 more rows
…
## PairWise Computation

``` r
(pwc <- ldat %>% group_by(time) %>%
   emmeans_test(score ~ regiao, detailed = T, p.adjust.method = "bonferroni"))
```

    ## Warning: Expected 2 pieces. Additional pieces discarded in 16 rows [1, 2, 3, 4, 11, 12, 13, 14, 21, 22,
    ## 23, 24, 31, 32, 33, 34].

    ## # A tibble: 40 × 15
    ##    time  term   .y.   group1 group2 null.value estimate     se    df conf.low conf.high statistic
    ##  * <fct> <chr>  <chr> <chr>  <chr>       <dbl>    <dbl>  <dbl> <dbl>    <dbl>     <dbl>     <dbl>
    ##  1 c1    regiao score Centro Oeste           0 -0.0147  0.0298  4484 -7.31e-2    0.0438   -0.492 
    ##  2 c1    regiao score Centro Oeste           0 -0.00245 0.0363  4484 -7.37e-2    0.0688   -0.0674
    ##  3 c1    regiao score Centro Oeste           0  0.0110  0.0303  4484 -4.84e-2    0.0704    0.363 
    ##  4 c1    regiao score Centro Oeste           0  0.0417  0.0381  4484 -3.29e-2    0.116     1.10  
    ##  5 c1    regiao score Norde… Norte           0  0.0122  0.0240  4484 -3.48e-2    0.0592    0.510 
    ##  6 c1    regiao score Norde… Sudes…          0  0.0257  0.0131  4484 -2.75e-5    0.0514    1.96  
    ##  7 c1    regiao score Norde… Sul             0  0.0564  0.0265  4484  4.36e-3    0.108     2.12  
    ##  8 c1    regiao score Norte  Sudes…          0  0.0134  0.0246  4484 -3.47e-2    0.0616    0.547 
    ##  9 c1    regiao score Norte  Sul             0  0.0442  0.0337  4484 -2.19e-2    0.110     1.31  
    ## 10 c1    regiao score Sudes… Sul             0  0.0307  0.0271  4484 -2.23e-2    0.0838    1.14  
    ## # ℹ 30 more rows
    ## # ℹ 3 more variables: p <dbl>, p.adj <dbl>, p.adj.signif <chr>
…
``` r
(pwc <- ldat %>% group_by(regiao) %>%
    emmeans_test(score ~ time, detailed = T, p.adjust.method = "bonferroni"))
```

    ## # A tibble: 30 × 15
    ##    regiao term  .y.   group1 group2 null.value estimate     se    df conf.low conf.high statistic
    ##  * <fct>  <chr> <chr> <chr>  <chr>       <dbl>    <dbl>  <dbl> <dbl>    <dbl>     <dbl>     <dbl>
    ##  1 Centr… time  score c1     c2              0  -0.0376 0.0404  4484  -0.117    0.0416     -0.930
    ##  2 Centr… time  score c1     c3              0  -0.102  0.0404  4484  -0.182   -0.0232     -2.53 
    ##  3 Centr… time  score c1     c4              0  -0.0747 0.0404  4484  -0.154    0.00461    -1.85 
    ##  4 Centr… time  score c2     c3              0  -0.0648 0.0404  4484  -0.144    0.0144     -1.60 
    ##  5 Centr… time  score c2     c4              0  -0.0370 0.0404  4484  -0.116    0.0422     -0.916
    ##  6 Centr… time  score c3     c4              0   0.0278 0.0404  4484  -0.0515   0.107       0.687
    ##  7 Norde… time  score c1     c2              0  -0.0278 0.0120  4484  -0.0513  -0.00428    -2.32 
    ##  8 Norde… time  score c1     c3              0  -0.0598 0.0120  4484  -0.0833  -0.0363     -4.98 
    ##  9 Norde… time  score c1     c4              0  -0.0295 0.0120  4484  -0.0530  -0.00599    -2.46 
    ## 10 Norde… time  score c2     c3              0  -0.0320 0.0120  4484  -0.0555  -0.00846    -2.67 
    ## # ℹ 20 more rows
    ## # ℹ 3 more variables: p <dbl>, p.adj <dbl>, p.adj.signif <chr>
…
## PairWise Computation after removing non.normal data

``` r
if (length(non.ids) > 0)
  (pwc2 <- ldat2 %>% group_by(time) %>%
     emmeans_test(score ~ regiao, detailed = T, p.adjust.method = "bonferroni"))
```

    ## Warning: Expected 2 pieces. Additional pieces discarded in 16 rows [1, 2, 3, 4, 11, 12, 13, 14, 21, 22,
    ## 23, 24, 31, 32, 33, 34].

    ## # A tibble: 40 × 15
    ##    time  term   .y.   group1 group2 null.value estimate     se    df conf.low conf.high statistic
    ##  * <fct> <chr>  <chr> <chr>  <chr>       <dbl>    <dbl>  <dbl> <dbl>    <dbl>     <dbl>     <dbl>
    ##  1 c1    regiao score Centro Oeste           0 0.000943 0.0473  4348 -9.17e-2    0.0936    0.0199
    ##  2 c1    regiao score Centro Oeste           0 0.0146   0.0517  4348 -8.68e-2    0.116     0.283 
    ##  3 c1    regiao score Centro Oeste           0 0.0266   0.0476  4348 -6.67e-2    0.120     0.559 
    ##  4 c1    regiao score Centro Oeste           0 0.0667   0.0530  4348 -3.73e-2    0.171     1.26  
    ##  5 c1    regiao score Norde… Norte           0 0.0137   0.0242  4348 -3.37e-2    0.0611    0.566 
    ##  6 c1    regiao score Norde… Sudes…          0 0.0257   0.0131  4348  6.34e-5    0.0513    1.97  
    ##  7 c1    regiao score Norde… Sul             0 0.0657   0.0268  4348  1.31e-2    0.118     2.45  
    ##  8 c1    regiao score Norte  Sudes…          0 0.0120   0.0247  4348 -3.65e-2    0.0605    0.485 
    ##  9 c1    regiao score Norte  Sul             0 0.0520   0.0341  4348 -1.48e-2    0.119     1.53  
    ## 10 c1    regiao score Sudes… Sul             0 0.0401   0.0274  4348 -1.36e-2    0.0937    1.46  
    ## # ℹ 30 more rows
    ## # ℹ 3 more variables: p <dbl>, p.adj <dbl>, p.adj.signif <chr>
…
``` r
if (length(non.ids) > 0)
  (pwc2 <- ldat2 %>% group_by(regiao) %>%
     emmeans_test(score ~ time, detailed = T, p.adjust.method = "bonferroni"))
```

    ## # A tibble: 30 × 15
    ##    regiao term  .y.   group1 group2 null.value estimate     se    df conf.low conf.high statistic
    ##  * <fct>  <chr> <chr> <chr>  <chr>       <dbl>    <dbl>  <dbl> <dbl>    <dbl>     <dbl>     <dbl>
    ##  1 Centr… time  score c1     c2              0 -0.0355  0.0658  4348  -0.164    0.0935     -0.540
    ##  2 Centr… time  score c1     c3              0 -0.0463  0.0658  4348  -0.175    0.0827     -0.704
    ##  3 Centr… time  score c1     c4              0 -0.00926 0.0658  4348  -0.138    0.120      -0.141
    ##  4 Centr… time  score c2     c3              0 -0.0108  0.0658  4348  -0.140    0.118      -0.164
    ##  5 Centr… time  score c2     c4              0  0.0262  0.0658  4348  -0.103    0.155       0.399
    ##  6 Centr… time  score c3     c4              0  0.0370  0.0658  4348  -0.0919   0.166       0.563
    ##  7 Norde… time  score c1     c2              0 -0.0278  0.0120  4348  -0.0512  -0.00436    -2.33 
    ##  8 Norde… time  score c1     c3              0 -0.0598  0.0120  4348  -0.0832  -0.0363     -5.00 
    ##  9 Norde… time  score c1     c4              0 -0.0295  0.0120  4348  -0.0529  -0.00607    -2.47 
    ## 10 Norde… time  score c2     c3              0 -0.0320  0.0120  4348  -0.0554  -0.00854    -2.68 
    ## # ℹ 20 more rows
    ## # ℹ 3 more variables: p <dbl>, p.adj <dbl>, p.adj.signif <chr>
…
| Effect     |   GGe | DF\[GG\]      | p\[GG\] | p\[GG\]\<.05 |   HFe | DF\[HF\]      | p\[HF\] | p\[HF\]\<.05 |
|:-----------|------:|:--------------|--------:|:-------------|------:|:--------------|--------:|:-------------|
| time       | 0.991 | 2.97, 3243.98 |   0.068 |              | 0.994 | 2.98, 3253.82 |   0.068 |              |
| porte:time | 0.991 | 8.92, 3243.98 |   0.104 |              | 0.994 | 8.95, 3253.82 |   0.104 |              |

## PairWise Computation

``` r
(pwc <- ldat %>% group_by(time) %>%
   emmeans_test(score ~ porte, detailed = T, p.adjust.method = "bonferroni"))
```

    ## # A tibble: 24 × 15
    ##    time  term  .y.   group1  group2 null.value estimate     se    df conf.low conf.high statistic
    ##  * <fct> <chr> <chr> <chr>   <chr>       <dbl>    <dbl>  <dbl> <dbl>    <dbl>     <dbl>     <dbl>
    ##  1 c1    porte score Até 50… Entre…          0  0.0198  0.0353  4460  -0.0494    0.0890     0.562
    ##  2 c1    porte score Até 50… Entre…          0  0.0156  0.0367  4460  -0.0563    0.0875     0.426
    ##  3 c1    porte score Até 50… Entre…          0  0.0377  0.0378  4460  -0.0364    0.112      0.997
    ##  4 c1    porte score Entre … Entre…          0 -0.00420 0.0147  4460  -0.0330    0.0246    -0.286
    ##  5 c1    porte score Entre … Entre…          0  0.0179  0.0173  4460  -0.0161    0.0518     1.03 
    ##  6 c1    porte score Entre … Entre…          0  0.0221  0.0200  4460  -0.0171    0.0612     1.10 
    ##  7 c2    porte score Até 50… Entre…          0 -0.00979 0.0353  4460  -0.0790    0.0594    -0.278
    ##  8 c2    porte score Até 50… Entre…          0 -0.0184  0.0367  4460  -0.0903    0.0535    -0.502
    ##  9 c2    porte score Até 50… Entre…          0  0.0538  0.0378  4460  -0.0204    0.128      1.42 
    ## 10 c2    porte score Entre … Entre…          0 -0.00861 0.0147  4460  -0.0374    0.0202    -0.587
    ## # ℹ 14 more rows
    ## # ℹ 3 more variables: p <dbl>, p.adj <dbl>, p.adj.signif <chr>
…
``` r
(pwc <- ldat %>% group_by(porte) %>%
    emmeans_test(score ~ time, detailed = T, p.adjust.method = "bonferroni"))
```

    ## # A tibble: 24 × 15
    ##    porte  term  .y.   group1 group2 null.value estimate     se    df conf.low conf.high statistic
    ##  * <fct>  <chr> <chr> <chr>  <chr>       <dbl>    <dbl>  <dbl> <dbl>    <dbl>     <dbl>     <dbl>
    ##  1 Até 5… time  score c1     c2              0 -0.00758 0.0487  4460  -0.103    0.0880     -0.155
    ##  2 Até 5… time  score c1     c3              0 -0.0429  0.0487  4460  -0.138    0.0526     -0.881
    ##  3 Até 5… time  score c1     c4              0 -0.0152  0.0487  4460  -0.111    0.0804     -0.311
    ##  4 Até 5… time  score c2     c3              0 -0.0354  0.0487  4460  -0.131    0.0602     -0.725
    ##  5 Até 5… time  score c2     c4              0 -0.00758 0.0487  4460  -0.103    0.0880     -0.155
    ##  6 Até 5… time  score c3     c4              0  0.0278  0.0487  4460  -0.0678   0.123       0.570
    ##  7 Entre… time  score c1     c2              0 -0.0372  0.0108  4460  -0.0583  -0.0161     -3.45 
    ##  8 Entre… time  score c1     c3              0 -0.0609  0.0108  4460  -0.0820  -0.0397     -5.65 
    ##  9 Entre… time  score c1     c4              0 -0.0522  0.0108  4460  -0.0733  -0.0311     -4.85 
    ## 10 Entre… time  score c2     c3              0 -0.0237  0.0108  4460  -0.0448  -0.00254    -2.20 
    ## # ℹ 14 more rows
    ## # ℹ 3 more variables: p <dbl>, p.adj <dbl>, p.adj.signif <chr>
…
## PairWise Computation after removing non.normal data

``` r
if (length(non.ids) > 0)
  (pwc2 <- ldat2 %>% group_by(time) %>%
     emmeans_test(score ~ porte, detailed = T, p.adjust.method = "bonferroni"))
```

    ## # A tibble: 24 × 15
    ##    time  term  .y.   group1  group2 null.value estimate     se    df conf.low conf.high statistic
    ##  * <fct> <chr> <chr> <chr>   <chr>       <dbl>    <dbl>  <dbl> <dbl>    <dbl>     <dbl>     <dbl>
    ##  1 c1    porte score Até 50… Entre…          0  0.00889 0.0663  4364  -0.121     0.139     0.134 
    ##  2 c1    porte score Até 50… Entre…          0  0.00469 0.0671  4364  -0.127     0.136     0.0698
    ##  3 c1    porte score Até 50… Entre…          0  0.0267  0.0677  4364  -0.106     0.159     0.395 
    ##  4 c1    porte score Entre … Entre…          0 -0.00420 0.0147  4364  -0.0329    0.0245   -0.287 
    ##  5 c1    porte score Entre … Entre…          0  0.0179  0.0173  4364  -0.0161    0.0518    1.03  
    ##  6 c1    porte score Entre … Entre…          0  0.0221  0.0200  4364  -0.0171    0.0612    1.11  
    ##  7 c2    porte score Até 50… Entre…          0 -0.0468  0.0663  4364  -0.177     0.0832   -0.706 
    ##  8 c2    porte score Até 50… Entre…          0 -0.0554  0.0671  4364  -0.187     0.0761   -0.826 
    ##  9 c2    porte score Até 50… Entre…          0  0.0167  0.0677  4364  -0.116     0.149     0.247 
    ## 10 c2    porte score Entre … Entre…          0 -0.00861 0.0147  4364  -0.0374    0.0201   -0.588 
    ## # ℹ 14 more rows
    ## # ℹ 3 more variables: p <dbl>, p.adj <dbl>, p.adj.signif <chr>
…
``` r
if (length(non.ids) > 0)
  (pwc2 <- ldat2 %>% group_by(porte) %>%
     emmeans_test(score ~ time, detailed = T, p.adjust.method = "bonferroni"))
```

    ## # A tibble: 24 × 15
    ##    porte term  .y.   group1 group2 null.value  estimate     se    df conf.low conf.high statistic
    ##  * <fct> <chr> <chr> <chr>  <chr>       <dbl>     <dbl>  <dbl> <dbl>    <dbl>     <dbl>     <dbl>
    ##  1 Até … time  score c1     c2              0  1.85e- 2 0.0932  4364  -0.164    0.201    1.99e- 1
    ##  2 Até … time  score c1     c3              0  7.31e-14 0.0932  4364  -0.183    0.183    7.85e-13
    ##  3 Até … time  score c1     c4              0  4.63e- 2 0.0932  4364  -0.136    0.229    4.97e- 1
    ##  4 Até … time  score c2     c3              0 -1.85e- 2 0.0932  4364  -0.201    0.164   -1.99e- 1
    ##  5 Até … time  score c2     c4              0  2.78e- 2 0.0932  4364  -0.155    0.211    2.98e- 1
    ##  6 Até … time  score c3     c4              0  4.63e- 2 0.0932  4364  -0.136    0.229    4.97e- 1
    ##  7 Entr… time  score c1     c2              0 -3.72e- 2 0.0108  4364  -0.0583  -0.0161  -3.46e+ 0
    ##  8 Entr… time  score c1     c3              0 -6.09e- 2 0.0108  4364  -0.0820  -0.0398  -5.66e+ 0
    ##  9 Entr… time  score c1     c4              0 -5.22e- 2 0.0108  4364  -0.0733  -0.0311  -4.85e+ 0
    ## 10 Entr… time  score c2     c3              0 -2.37e- 2 0.0108  4364  -0.0448  -0.00256 -2.20e+ 0
    ## # ℹ 14 more rows
    ## # ℹ 3 more variables: p <dbl>, p.adj <dbl>, p.adj.signif <chr>
…
