…
ldat <- gather(wdat, key = time, value = coerencia_tematica, c1,c3) %>%
  convert_as_factor(id, time)
ldat <- remove_group_data(ldat, "coerencia_tematica", c("time", "gender"), n.limit = 30)
ldat$gender <- factor(ldat$gender, sort(unique(ldat$gender)))
```

### Check assumptions: Identifying Outliers

``` r
outliers <- identify_outliers(group_by(ldat, time, gender), coerencia_tematica)
(outliers <- outliers[outliers$is.extreme == T,])
```

    ## # A tibble: 232 × 6
    ##    gender time  id                   coerencia_tematica is.outlier is.extreme
    ##    <fct>  <fct> <fct>                             <dbl> <lgl>      <lgl>     
    ##  1 Female c1    bHdxquaZ8XUwfwDJQQCh                1.5 TRUE       TRUE      
    ##  2 Female c1    bkg0ArgSmyB4bWY1udDg                1.5 TRUE       TRUE      
    ##  3 Female c1    cea1pI9NTEIE2VL4YEQj                1.5 TRUE       TRUE      
    ##  4 Female c1    col2IMV8zL43sh3escHr                2   TRUE       TRUE      
    ##  5 Female c1    D7Sm25aUnnDccJUkASMn                1.5 TRUE       TRUE      
    ##  6 Female c1    EGPZ6xyZOiq8239Eo7wW                1.5 TRUE       TRUE      
    ##  7 Female c1    fSeGvYUypBxsn9UAjp8k                1.5 TRUE       TRUE      
    ##  8 Female c1    gcimPrBiERP821CKxZgH                2   TRUE       TRUE      
    ##  9 Female c1    GgNJ908EEM577taK2rcX                1.5 TRUE       TRUE      
    ## 10 Female c1    gLaZ7sLAnxfq8N5xhMue                1.5 TRUE       TRUE      
    ## # ℹ 222 more rows
…
ldat <- gather(wdat, key = time, value = coerencia_tematica, c1,c3) %>%
  convert_as_factor(id, time)
ldat <- remove_group_data(ldat, "coerencia_tematica", c("time", "localizacao"), n.limit = 30)
ldat$localizacao <- factor(ldat$localizacao, sort(unique(ldat$localizacao)))
```

### Check assumptions: Identifying Outliers

``` r
outliers <- identify_outliers(group_by(ldat, time, localizacao), coerencia_tematica)
(outliers <- outliers[outliers$is.extreme == T,])
```

    ## # A tibble: 248 × 6
    ##    localizacao time  id                 coerencia_tematica is.outlier is.extreme
    ##    <fct>       <fct> <fct>                           <dbl> <lgl>      <lgl>     
    ##  1 Rural       c1    A9RUkyTkFXi5lp8ry…                2   TRUE       TRUE      
    ##  2 Rural       c1    bkg0ArgSmyB4bWY1u…                1.5 TRUE       TRUE      
    ##  3 Rural       c1    eDDthAP6dWERQriBP…                1.5 TRUE       TRUE      
    ##  4 Rural       c1    gDRGUsOBQicWdVKdq…                1.5 TRUE       TRUE      
    ##  5 Rural       c1    gLaZ7sLAnxfq8N5xh…                1.5 TRUE       TRUE      
    ##  6 Rural       c1    HbX9wIM2m5EDRXj1c…                2   TRUE       TRUE      
    ##  7 Rural       c1    hOZgVXc5g4oTkIUTu…                1.5 TRUE       TRUE      
    ##  8 Rural       c1    HZkpVVbxvFMJQ62DB…                1.5 TRUE       TRUE      
    ##  9 Rural       c1    i3ImRhfefZZ4n4XQG…                1.5 TRUE       TRUE      
    ## 10 Rural       c1    JB59hVGoMYyAt1jIt…                1.5 TRUE       TRUE      
    ## # ℹ 238 more rows
…
ldat <- gather(wdat, key = time, value = coerencia_tematica, c1,c3) %>%
  convert_as_factor(id, time)
ldat <- remove_group_data(ldat, "coerencia_tematica", c("time", "regiao"), n.limit = 30)
ldat$regiao <- factor(ldat$regiao, sort(unique(ldat$regiao)))
```

### Check assumptions: Identifying Outliers

``` r
outliers <- identify_outliers(group_by(ldat, time, regiao), coerencia_tematica)
(outliers <- outliers[outliers$is.extreme == T,])
```

    ## # A tibble: 248 × 6
    ##    regiao       time  id                coerencia_tematica is.outlier is.extreme
    ##    <fct>        <fct> <fct>                          <dbl> <lgl>      <lgl>     
    ##  1 Centro-Oeste c1    bp33CvaJwna4IXIi…                2   TRUE       TRUE      
    ##  2 Centro-Oeste c1    cea1pI9NTEIE2VL4…                1.5 TRUE       TRUE      
    ##  3 Centro-Oeste c1    Hctnx0sTLnQqaq89…                1.5 TRUE       TRUE      
    ##  4 Centro-Oeste c1    IOzFe8bKlKLXC426…                2   TRUE       TRUE      
    ##  5 Centro-Oeste c1    lgbCEakOeFbmDSE4…                2   TRUE       TRUE      
    ##  6 Centro-Oeste c1    lkBCRumBZ1wjJR3v…                2   TRUE       TRUE      
    ##  7 Centro-Oeste c1    neHeiZ9VsUQkSRZb…                2   TRUE       TRUE      
    ##  8 Centro-Oeste c1    ngRhEyo2gYwntjRB…                1.5 TRUE       TRUE      
    ##  9 Centro-Oeste c1    RdZuqHC3xwk8iHKX…                1.5 TRUE       TRUE      
    ## 10 Centro-Oeste c1    rSnjLCmkPTnOf3Vs…                2   TRUE       TRUE      
    ## # ℹ 238 more rows
…
ldat <- gather(wdat, key = time, value = coerencia_tematica, c1,c3) %>%
  convert_as_factor(id, time)
ldat <- remove_group_data(ldat, "coerencia_tematica", c("time", "porte"), n.limit = 30)
ldat$porte <- factor(ldat$porte, sort(unique(ldat$porte)))
```

### Check assumptions: Identifying Outliers

``` r
outliers <- identify_outliers(group_by(ldat, time, porte), coerencia_tematica)
(outliers <- outliers[outliers$is.extreme == T,])
```

    ## # A tibble: 247 × 6
    ##    porte                    time  id    coerencia_tematica is.outlier is.extreme
    ##    <fct>                    <fct> <fct>              <dbl> <lgl>      <lgl>     
    ##  1 Entre 201 e 500 matrícu… c1    aQKm…                2   TRUE       TRUE      
    ##  2 Entre 201 e 500 matrícu… c1    bHdx…                1.5 TRUE       TRUE      
    ##  3 Entre 201 e 500 matrícu… c1    bkg0…                1.5 TRUE       TRUE      
    ##  4 Entre 201 e 500 matrícu… c1    col2…                2   TRUE       TRUE      
    ##  5 Entre 201 e 500 matrícu… c1    eDDt…                1.5 TRUE       TRUE      
    ##  6 Entre 201 e 500 matrícu… c1    gcim…                2   TRUE       TRUE      
    ##  7 Entre 201 e 500 matrícu… c1    H9sV…                1.5 TRUE       TRUE      
    ##  8 Entre 201 e 500 matrícu… c1    HApa…                1.5 TRUE       TRUE      
    ##  9 Entre 201 e 500 matrícu… c1    HbX9…                2   TRUE       TRUE      
    ## 10 Entre 201 e 500 matrícu… c1    HMrd…                1.5 TRUE       TRUE      
    ## # ℹ 237 more rows
…
