…
## PairWise Computation

``` r
(pwc <- ldat %>% group_by(time) %>%
   emmeans_test(tipologia_textual ~ regiao, detailed = T, p.adjust.method = "bonferroni"))
```

    ## Warning: Expected 2 pieces. Additional pieces discarded in 16 rows [1, 2, 3, 4, 11, 12,
    ## 13, 14, 21, 22, 23, 24, 31, 32, 33, 34].

    ## # A tibble: 40 × 15
    ##    time  term   .y.      group1 group2 null.value estimate     se    df conf.low
    ##  * <fct> <chr>  <chr>    <chr>  <chr>       <dbl>    <dbl>  <dbl> <dbl>    <dbl>
    ##  1 c1    regiao tipolog… Centro Oeste           0  -0.0160 0.112   4484  -0.235 
    ##  2 c1    regiao tipolog… Centro Oeste           0   0.399  0.136   4484   0.132 
    ##  3 c1    regiao tipolog… Centro Oeste           0   0.0359 0.113   4484  -0.186 
    ##  4 c1    regiao tipolog… Centro Oeste           0  -0.0578 0.143   4484  -0.337 
    ##  5 c1    regiao tipolog… Norde… Norte           0   0.414  0.0898  4484   0.238 
    ##  6 c1    regiao tipolog… Norde… Sudes…          0   0.0519 0.0491  4484  -0.0443
    ##  7 c1    regiao tipolog… Norde… Sul             0  -0.0418 0.0994  4484  -0.237 
    ##  8 c1    regiao tipolog… Norte  Sudes…          0  -0.363  0.0919  4484  -0.543 
    ##  9 c1    regiao tipolog… Norte  Sul             0  -0.456  0.126   4484  -0.704 
    ## 10 c1    regiao tipolog… Sudes… Sul             0  -0.0937 0.101   4484  -0.292 
    ## # ℹ 30 more rows
    ## # ℹ 5 more variables: conf.high <dbl>, statistic <dbl>, p <dbl>, p.adj <dbl>,
    ## #   p.adj.signif <chr>
…
``` r
(pwc <- ldat %>% group_by(regiao) %>%
    emmeans_test(tipologia_textual ~ time, detailed = T, p.adjust.method = "bonferroni"))
```

    ## # A tibble: 30 × 15
    ##    regiao    term  .y.   group1 group2 null.value estimate     se    df conf.low
    ##  * <fct>     <chr> <chr> <chr>  <chr>       <dbl>    <dbl>  <dbl> <dbl>    <dbl>
    ##  1 Centro-O… time  tipo… c1     c2              0  -0.264  0.151   4484   -0.561
    ##  2 Centro-O… time  tipo… c1     c3              0  -0.208  0.151   4484   -0.505
    ##  3 Centro-O… time  tipo… c1     c4              0  -0.375  0.151   4484   -0.672
    ##  4 Centro-O… time  tipo… c2     c3              0   0.0556 0.151   4484   -0.241
    ##  5 Centro-O… time  tipo… c2     c4              0  -0.111  0.151   4484   -0.408
    ##  6 Centro-O… time  tipo… c3     c4              0  -0.167  0.151   4484   -0.463
    ##  7 Nordeste  time  tipo… c1     c2              0  -0.225  0.0449  4484   -0.313
    ##  8 Nordeste  time  tipo… c1     c3              0  -0.307  0.0449  4484   -0.395
    ##  9 Nordeste  time  tipo… c1     c4              0  -0.266  0.0449  4484   -0.354
    ## 10 Nordeste  time  tipo… c2     c3              0  -0.0820 0.0449  4484   -0.170
    ## # ℹ 20 more rows
    ## # ℹ 5 more variables: conf.high <dbl>, statistic <dbl>, p <dbl>, p.adj <dbl>,
    ## #   p.adj.signif <chr>
…
| Effect     |   GGe | DF\[GG\]      | p\[GG\] | p\[GG\]\<.05 |   HFe | DF\[HF\]      | p\[HF\] | p\[HF\]\<.05 |
|:-----------|------:|:--------------|--------:|:-------------|------:|:--------------|--------:|:-------------|
| time       | 0.974 | 2.92, 3171.34 |   0.065 |              | 0.977 | 2.93, 3180.83 |   0.064 |              |
| porte:time | 0.974 | 8.77, 3171.34 |   0.097 |              | 0.977 | 8.79, 3180.83 |   0.097 |              |

## PairWise Computation

``` r
(pwc <- ldat %>% group_by(time) %>%
   emmeans_test(tipologia_textual ~ porte, detailed = T, p.adjust.method = "bonferroni"))
```

    ## # A tibble: 24 × 15
    ##    time  term  .y.       group1 group2 null.value estimate     se    df conf.low
    ##  * <fct> <chr> <chr>     <chr>  <chr>       <dbl>    <dbl>  <dbl> <dbl>    <dbl>
    ##  1 c1    porte tipologi… Até 5… Entre…          0   0.174  0.132   4460  -0.0854
    ##  2 c1    porte tipologi… Até 5… Entre…          0   0.154  0.138   4460  -0.116 
    ##  3 c1    porte tipologi… Até 5… Entre…          0   0.242  0.142   4460  -0.0362
    ##  4 c1    porte tipologi… Entre… Entre…          0  -0.0206 0.0551  4460  -0.129 
    ##  5 c1    porte tipologi… Entre… Entre…          0   0.0677 0.0650  4460  -0.0597
    ##  6 c1    porte tipologi… Entre… Entre…          0   0.0883 0.0750  4460  -0.0587
    ##  7 c2    porte tipologi… Até 5… Entre…          0  -0.0126 0.132   4460  -0.272 
    ##  8 c2    porte tipologi… Até 5… Entre…          0   0.0425 0.138   4460  -0.227 
    ##  9 c2    porte tipologi… Até 5… Entre…          0   0.118  0.142   4460  -0.160 
    ## 10 c2    porte tipologi… Entre… Entre…          0   0.0551 0.0551  4460  -0.0528
    ## # ℹ 14 more rows
    ## # ℹ 5 more variables: conf.high <dbl>, statistic <dbl>, p <dbl>, p.adj <dbl>,
    ## #   p.adj.signif <chr>
…
``` r
(pwc <- ldat %>% group_by(porte) %>%
    emmeans_test(tipologia_textual ~ time, detailed = T, p.adjust.method = "bonferroni"))
```

    ## # A tibble: 24 × 15
    ##    porte     term  .y.   group1 group2 null.value estimate     se    df conf.low
    ##  * <fct>     <chr> <chr> <chr>  <chr>       <dbl>    <dbl>  <dbl> <dbl>    <dbl>
    ##  1 Até 50 m… time  tipo… c1     c2              0  -0.121  0.183   4460  -0.480 
    ##  2 Até 50 m… time  tipo… c1     c3              0  -0.197  0.183   4460  -0.555 
    ##  3 Até 50 m… time  tipo… c1     c4              0  -0.333  0.183   4460  -0.692 
    ##  4 Até 50 m… time  tipo… c2     c3              0  -0.0758 0.183   4460  -0.434 
    ##  5 Até 50 m… time  tipo… c2     c4              0  -0.212  0.183   4460  -0.571 
    ##  6 Até 50 m… time  tipo… c3     c4              0  -0.136  0.183   4460  -0.495 
    ##  7 Entre 20… time  tipo… c1     c2              0  -0.308  0.0404  4460  -0.387 
    ##  8 Entre 20… time  tipo… c1     c3              0  -0.327  0.0404  4460  -0.406 
    ##  9 Entre 20… time  tipo… c1     c4              0  -0.378  0.0404  4460  -0.457 
    ## 10 Entre 20… time  tipo… c2     c3              0  -0.0186 0.0404  4460  -0.0979
    ## # ℹ 14 more rows
    ## # ℹ 5 more variables: conf.high <dbl>, statistic <dbl>, p <dbl>, p.adj <dbl>,
    ## #   p.adj.signif <chr>
…
## PairWise Computation after removing non.normal data

``` r
if (length(non.ids) > 0)
  (pwc2 <- ldat2 %>% group_by(time) %>%
     emmeans_test(tipologia_textual ~ porte, detailed = T, p.adjust.method = "bonferroni"))
```

    ## # A tibble: 24 × 15
    ##    time  term  .y.       group1 group2 null.value estimate     se    df conf.low
    ##  * <fct> <chr> <chr>     <chr>  <chr>       <dbl>    <dbl>  <dbl> <dbl>    <dbl>
    ##  1 c1    porte tipologi… Até 5… Entre…          0   0.401  0.430   4340  -0.442 
    ##  2 c1    porte tipologi… Até 5… Entre…          0   0.381  0.432   4340  -0.466 
    ##  3 c1    porte tipologi… Até 5… Entre…          0   0.469  0.433   4340  -0.380 
    ##  4 c1    porte tipologi… Entre… Entre…          0  -0.0206 0.0551  4340  -0.129 
    ##  5 c1    porte tipologi… Entre… Entre…          0   0.0677 0.0650  4340  -0.0599
    ##  6 c1    porte tipologi… Entre… Entre…          0   0.0883 0.0750  4340  -0.0588
    ##  7 c2    porte tipologi… Até 5… Entre…          0  -0.407  0.430   4340  -1.25  
    ##  8 c2    porte tipologi… Até 5… Entre…          0  -0.351  0.432   4340  -1.20  
    ##  9 c2    porte tipologi… Até 5… Entre…          0  -0.276  0.433   4340  -1.13  
    ## 10 c2    porte tipologi… Entre… Entre…          0   0.0551 0.0551  4340  -0.0529
    ## # ℹ 14 more rows
    ## # ℹ 5 more variables: conf.high <dbl>, statistic <dbl>, p <dbl>, p.adj <dbl>,
    ## #   p.adj.signif <chr>
…
``` r
if (length(non.ids) > 0)
  (pwc2 <- ldat2 %>% group_by(porte) %>%
     emmeans_test(tipologia_textual ~ time, detailed = T, p.adjust.method = "bonferroni"))
```

    ## # A tibble: 24 × 15
    ##    porte     term  .y.   group1 group2 null.value estimate     se    df conf.low
    ##  * <fct>     <chr> <chr> <chr>  <chr>       <dbl>    <dbl>  <dbl> <dbl>    <dbl>
    ##  1 Até 50 m… time  tipo… c1     c2              0   0.500  0.607   4340  -0.690 
    ##  2 Até 50 m… time  tipo… c1     c3              0   0.167  0.607   4340  -1.02  
    ##  3 Até 50 m… time  tipo… c1     c4              0  -0.333  0.607   4340  -1.52  
    ##  4 Até 50 m… time  tipo… c2     c3              0  -0.333  0.607   4340  -1.52  
    ##  5 Até 50 m… time  tipo… c2     c4              0  -0.833  0.607   4340  -2.02  
    ##  6 Até 50 m… time  tipo… c3     c4              0  -0.500  0.607   4340  -1.69  
    ##  7 Entre 20… time  tipo… c1     c2              0  -0.308  0.0405  4340  -0.387 
    ##  8 Entre 20… time  tipo… c1     c3              0  -0.327  0.0405  4340  -0.406 
    ##  9 Entre 20… time  tipo… c1     c4              0  -0.378  0.0405  4340  -0.457 
    ## 10 Entre 20… time  tipo… c2     c3              0  -0.0186 0.0405  4340  -0.0980
    ## # ℹ 14 more rows
    ## # ℹ 5 more variables: conf.high <dbl>, statistic <dbl>, p <dbl>, p.adj <dbl>,
    ## #   p.adj.signif <chr>
…
