…
ldat <- gather(wdat, key = time, value = coerencia_tematica, c2,c3) %>%
  convert_as_factor(id, time)
ldat <- remove_group_data(ldat, "coerencia_tematica", c("time", "gender"), n.limit = 30)
ldat$gender <- factor(ldat$gender, sort(unique(ldat$gender)))
```

### Check assumptions: Identifying Outliers

``` r
outliers <- identify_outliers(group_by(ldat, time, gender), coerencia_tematica)
(outliers <- outliers[outliers$is.extreme == T,])
```

    ## # A tibble: 236 × 6
    ##    gender time  id                   coerencia_tematica is.outlier is.extreme
    ##    <fct>  <fct> <fct>                             <dbl> <lgl>      <lgl>     
    ##  1 Female c2    a8SWsJUcxVnZgfDuYhl9                1.5 TRUE       TRUE      
    ##  2 Female c2    aGe8oY0BM2o4WY2b3cMO                1.5 TRUE       TRUE      
    ##  3 Female c2    aHRArOnxnMCJAnjRvMkz                1.5 TRUE       TRUE      
    ##  4 Female c2    bBBGsbvYBLgWujzEuOES                2   TRUE       TRUE      
    ##  5 Female c2    bEH3ieH27FIqcQO2qaG5                1.5 TRUE       TRUE      
    ##  6 Female c2    cFxwLMwyCxWzWrkpwvkt                3   TRUE       TRUE      
    ##  7 Female c2    cUepYSggkyNVXrET7RCr                2   TRUE       TRUE      
    ##  8 Female c2    dzxWSwAxb1LbKLWq0f8W                2   TRUE       TRUE      
    ##  9 Female c2    e4T8ur8rXZ7jH6myH0wq                2   TRUE       TRUE      
    ## 10 Female c2    eakSXIhde0LSciiZKTJf                1.5 TRUE       TRUE      
    ## # ℹ 226 more rows
…
ldat <- gather(wdat, key = time, value = coerencia_tematica, c2,c3) %>%
  convert_as_factor(id, time)
ldat <- remove_group_data(ldat, "coerencia_tematica", c("time", "localizacao"), n.limit = 30)
ldat$localizacao <- factor(ldat$localizacao, sort(unique(ldat$localizacao)))
```

### Check assumptions: Identifying Outliers

``` r
outliers <- identify_outliers(group_by(ldat, time, localizacao), coerencia_tematica)
(outliers <- outliers[outliers$is.extreme == T,])
```

    ## # A tibble: 253 × 6
    ##    localizacao time  id                 coerencia_tematica is.outlier is.extreme
    ##    <fct>       <fct> <fct>                           <dbl> <lgl>      <lgl>     
    ##  1 Rural       c2    cUepYSggkyNVXrET7…                2   TRUE       TRUE      
    ##  2 Rural       c2    e4T8ur8rXZ7jH6myH…                2   TRUE       TRUE      
    ##  3 Rural       c2    eMaYeLRiclZymf00B…                2   TRUE       TRUE      
    ##  4 Rural       c2    gVuMjTLcSjwi8PtQc…                2   TRUE       TRUE      
    ##  5 Rural       c2    hV78K1w2Sy3NbDijC…                2   TRUE       TRUE      
    ##  6 Rural       c2    HW3iJR889Q9EdBWaQ…                1.5 TRUE       TRUE      
    ##  7 Rural       c2    iYlYrwjNTF4uR2dhp…                1.5 TRUE       TRUE      
    ##  8 Rural       c2    JKEvnqvCpv10PSAyc…                2   TRUE       TRUE      
    ##  9 Rural       c2    ks4CBM3zPHocVr9Yl…                1.5 TRUE       TRUE      
    ## 10 Rural       c2    lW5qykPQQcYd17PAf…                1.5 TRUE       TRUE      
    ## # ℹ 243 more rows
…
ldat <- gather(wdat, key = time, value = coerencia_tematica, c2,c3) %>%
  convert_as_factor(id, time)
ldat <- remove_group_data(ldat, "coerencia_tematica", c("time", "regiao"), n.limit = 30)
ldat$regiao <- factor(ldat$regiao, sort(unique(ldat$regiao)))
```

### Check assumptions: Identifying Outliers

``` r
outliers <- identify_outliers(group_by(ldat, time, regiao), coerencia_tematica)
(outliers <- outliers[outliers$is.extreme == T,])
```

    ## # A tibble: 253 × 6
    ##    regiao       time  id                coerencia_tematica is.outlier is.extreme
    ##    <fct>        <fct> <fct>                          <dbl> <lgl>      <lgl>     
    ##  1 Centro-Oeste c2    gSjPJJEtnEyiq3yE…                2   TRUE       TRUE      
    ##  2 Centro-Oeste c2    GyXkNYglZFaiWPdo…                1.5 TRUE       TRUE      
    ##  3 Centro-Oeste c2    Pt8nmYgqUGtYaso9…                2   TRUE       TRUE      
    ##  4 Centro-Oeste c2    w2KWF4yz1Qt8S6ap…                2   TRUE       TRUE      
    ##  5 Centro-Oeste c2    ZDZhpODoVH9TsZis…                2   TRUE       TRUE      
    ##  6 Nordeste     c2    bBBGsbvYBLgWujzE…                2   TRUE       TRUE      
    ##  7 Nordeste     c2    c8tCs09Zmla9HW6n…                1.5 TRUE       TRUE      
    ##  8 Nordeste     c2    cFxwLMwyCxWzWrkp…                3   TRUE       TRUE      
    ##  9 Nordeste     c2    cO1stoI0XTZlXCGz…                1.5 TRUE       TRUE      
    ## 10 Nordeste     c2    cUepYSggkyNVXrET…                2   TRUE       TRUE      
    ## # ℹ 243 more rows
…
ldat <- gather(wdat, key = time, value = coerencia_tematica, c2,c3) %>%
  convert_as_factor(id, time)
ldat <- remove_group_data(ldat, "coerencia_tematica", c("time", "porte"), n.limit = 30)
ldat$porte <- factor(ldat$porte, sort(unique(ldat$porte)))
```

### Check assumptions: Identifying Outliers

``` r
outliers <- identify_outliers(group_by(ldat, time, porte), coerencia_tematica)
(outliers <- outliers[outliers$is.extreme == T,])
```

    ## # A tibble: 253 × 6
    ##    porte                    time  id    coerencia_tematica is.outlier is.extreme
    ##    <fct>                    <fct> <fct>              <dbl> <lgl>      <lgl>     
    ##  1 Até 50 matrículas de es… c2    JKEv…                2   TRUE       TRUE      
    ##  2 Entre 201 e 500 matrícu… c2    bBBG…                2   TRUE       TRUE      
    ##  3 Entre 201 e 500 matrícu… c2    c8tC…                1.5 TRUE       TRUE      
    ##  4 Entre 201 e 500 matrícu… c2    cFxw…                3   TRUE       TRUE      
    ##  5 Entre 201 e 500 matrícu… c2    dzxW…                2   TRUE       TRUE      
    ##  6 Entre 201 e 500 matrícu… c2    g2V9…                3   TRUE       TRUE      
    ##  7 Entre 201 e 500 matrícu… c2    gcps…                1.5 TRUE       TRUE      
    ##  8 Entre 201 e 500 matrícu… c2    gVuM…                2   TRUE       TRUE      
    ##  9 Entre 201 e 500 matrícu… c2    GyXk…                1.5 TRUE       TRUE      
    ## 10 Entre 201 e 500 matrícu… c2    hign…                2   TRUE       TRUE      
    ## # ℹ 243 more rows
…
