…
ldat <- gather(wdat, key = time, value = registro_formal, c1,c3) %>%
  convert_as_factor(id, time)
ldat <- remove_group_data(ldat, "registro_formal", c("time", "localizacao"), n.limit = 30)
ldat$localizacao <- factor(ldat$localizacao, sort(unique(ldat$localizacao)))
```

### Check assumptions: Identifying Outliers

``` r
outliers <- identify_outliers(group_by(ldat, time, localizacao), registro_formal)
(outliers <- outliers[outliers$is.extreme == T,])
```

    ## # A tibble: 34 × 6
    ##    localizacao time  id                   registro_formal is.outlier is.extreme
    ##    <fct>       <fct> <fct>                          <dbl> <lgl>      <lgl>     
    ##  1 Urbana      c1    8zkBFEUAFkixLZcY9EP0               4 TRUE       TRUE      
    ##  2 Urbana      c1    baitWvlruSoQV9MUrIgr               4 TRUE       TRUE      
    ##  3 Urbana      c1    cWE83pbQy4poly6i3xSL               4 TRUE       TRUE      
    ##  4 Urbana      c1    eB5aBuW6Xqe2pUkHRfnL               4 TRUE       TRUE      
    ##  5 Urbana      c1    htbyM16UJUtyqr6P6Jfi               4 TRUE       TRUE      
    ##  6 Urbana      c1    IS6H8SGCc2Qi3Sc76Hdu               4 TRUE       TRUE      
    ##  7 Urbana      c1    iyHsVjMJJRSYypImpewF               4 TRUE       TRUE      
    ##  8 Urbana      c1    K7BVRqiiNsRjisKvt85x               4 TRUE       TRUE      
    ##  9 Urbana      c1    KaCG3CroQpZookJ14Oed               4 TRUE       TRUE      
    ## 10 Urbana      c1    kG5EWNlF7iFys7u9NU2S               4 TRUE       TRUE      
    ## # ℹ 24 more rows
…
ldat <- gather(wdat, key = time, value = registro_formal, c1,c3) %>%
  convert_as_factor(id, time)
ldat <- remove_group_data(ldat, "registro_formal", c("time", "porte"), n.limit = 30)
ldat$porte <- factor(ldat$porte, sort(unique(ldat$porte)))
```

### Check assumptions: Identifying Outliers

``` r
outliers <- identify_outliers(group_by(ldat, time, porte), registro_formal)
(outliers <- outliers[outliers$is.extreme == T,])
```

    ## # A tibble: 22 × 6
    ##    porte                       time  id    registro_formal is.outlier is.extreme
    ##    <fct>                       <fct> <fct>           <dbl> <lgl>      <lgl>     
    ##  1 Entre 501 e 1000 matrícula… c1    bait…               4 TRUE       TRUE      
    ##  2 Entre 501 e 1000 matrícula… c1    cWE8…               4 TRUE       TRUE      
    ##  3 Entre 501 e 1000 matrícula… c1    htby…               4 TRUE       TRUE      
    ##  4 Entre 501 e 1000 matrícula… c1    IS6H…               4 TRUE       TRUE      
    ##  5 Entre 501 e 1000 matrícula… c1    iyHs…               4 TRUE       TRUE      
    ##  6 Entre 501 e 1000 matrícula… c1    K7BV…               4 TRUE       TRUE      
    ##  7 Entre 501 e 1000 matrícula… c1    KaCG…               4 TRUE       TRUE      
    ##  8 Entre 501 e 1000 matrícula… c1    KsND…               4 TRUE       TRUE      
    ##  9 Entre 501 e 1000 matrícula… c1    Kxut…               4 TRUE       TRUE      
    ## 10 Entre 501 e 1000 matrícula… c1    lcQk…               4 TRUE       TRUE      
    ## # ℹ 12 more rows
…
